"","reeng.iteration","reeng.fold","reeng.acc","reeng.prec","reeng.rec","reeng.f","reeng.auc","reeng.hasSmell","reeng.LOC","reeng.Nesting","reeng.WMC","reeng.DIT","reeng.NOC","reeng.CBO","reeng.RFC","reeng.LCOM","reeng.ADDING_ATTRIBUTE_MODIFIABILITY","reeng.ADDING_CLASS_DERIVABILITY","reeng.ADDING_METHOD_OVERRIDABILITY","reeng.ADDITIONAL_CLASS","reeng.ADDITIONAL_FUNCTIONALITY","reeng.ADDITIONAL_OBJECT_STATE","reeng.ALTERNATIVE_PART_DELETE","reeng.ALTERNATIVE_PART_INSERT","reeng.ATTRIBUTE_RENAMING","reeng.ATTRIBUTE_TYPE_CHANGE","reeng.CLASS_RENAMING","reeng.COMMENT_DELETE","reeng.COMMENT_INSERT","reeng.COMMENT_MOVE","reeng.COMMENT_UPDATE","reeng.CONDITION_EXPRESSION_CHANGE","reeng.DECREASING_ACCESSIBILITY_CHANGE","reeng.DOC_DELETE","reeng.DOC_INSERT","reeng.DOC_UPDATE","reeng.METHOD_RENAMING","reeng.PARAMETER_DELETE","reeng.PARAMETER_INSERT","reeng.PARAMETER_ORDERING_CHANGE","reeng.PARAMETER_RENAMING","reeng.PARAMETER_TYPE_CHANGE","reeng.PARENT_CLASS_CHANGE","reeng.PARENT_CLASS_DELETE","reeng.PARENT_CLASS_INSERT","reeng.PARENT_INTERFACE_CHANGE","reeng.PARENT_INTERFACE_DELETE","reeng.PARENT_INTERFACE_INSERT","reeng.REMOVED_CLASS","reeng.REMOVING_ATTRIBUTE_MODIFIABILITY","reeng.REMOVING_CLASS_DERIVABILITY","reeng.REMOVING_METHOD_OVERRIDABILITY","reeng.RETURN_TYPE_CHANGE","reeng.RETURN_TYPE_DELETE","reeng.RETURN_TYPE_INSERT","reeng.STATEMENT_ORDERING_CHANGE","reeng.STATEMENT_PARENT_CHANGE","reeng.UNCLASSIFIED_CHANGE","reeng.ReEngineering"
"1",1,1,0.747572815533981,0.7,0.760869565217391,0.729166666666667,0.812738367658276,3.17505497187025,36.000442663508,12.9646186795271,41.3607016716884,10.7097060477814,16.5715660925503,29.6997626676056,39.622314659858,26.1662342547897,4.28414575958528,1.60777202790404,0.220465700844848,2.17400532519726,13.098067434051,7.7553766178973,8.41203094200215,5.70436617772259,4.0477720534346,2.91989148790898,0.652106763895682,8.11195079952578,6.67460224054677,2.55899788947441,2.48230598457367,8.21548894634626,4.39486603732211,8.93759720040142,2.33004325021198,21.8074982018683,4.86729967135068,6.23377599712002,4.23099914672267,0.850377550430503,3.51584286466631,2.11366779918946,0.13455205875388,0.239276085906064,0.36348080229172,0.152728168579632,3.43652305368321,0.966262026479389,3.96771736361864,0.566643969852903,0.181609438690639,0.395959078239828,2.09429567955373,2.1271447526499,0.618343073019868,5.40929326590715,11.4147148880286,2.64705242450155,34.2087462016949
"2",1,2,0.786407766990291,0.722222222222222,0.684210526315789,0.702702702702703,0.83502024291498,2.62389059189263,34.1022401994903,12.6837563093656,41.072143719402,10.1134811936463,16.034897007063,31.6680299861588,38.0505573252563,29.0059858271708,4.09730237247255,1.09842214500264,0.219142697507682,1.63926514494759,13.7618038775989,9.48426578684457,7.82228115451897,6.19449294159356,4.50612716631632,3.39100673708996,0.726561957560807,7.60816037689131,6.74834006204539,2.55271613777173,2.92179926484582,8.45292838258018,4.79270205349748,8.93740724276745,2.82368672938095,19.4231918400275,4.66427500953626,5.57046654834936,4.24597761211114,1.10712136937249,4.23333659844421,2.28162942580016,0.134313988052105,0.242136711018717,0.48568966048311,0.112777825038228,3.44472638811097,0.900293793659235,4.17996891968041,0.631263710824832,0.221442363545309,0.301049037815107,2.17183728548997,1.93535482770214,0.719202076803742,5.53187747130793,11.8872738373218,2.10908764951275,34.3463549562417
"3",1,3,0.640776699029126,0.608695652173913,0.982456140350877,0.751677852348993,0.778794813119756,2.58837917251036,35.2981553109724,12.8747652239396,38.8566656137363,9.59698963352639,16.0586922967391,30.3385262073548,38.4511815998637,31.1962383994418,4.7848108624188,1.32650743206723,0.18656155040568,2.0094288292975,11.959047105717,9.54564585672112,9.31094309793593,6.50230793638233,3.93282306638113,3.1210058824207,0.570352791501026,8.44513169771048,7.43334968098789,2.3316630259268,2.42968735143359,8.06572029112206,4.33833116307106,9.20697043619112,2.76618245272785,20.7695507402396,4.54959296072308,5.97205936922457,4.14696937388147,1.16147582272185,3.80894254096957,1.81563939718257,0.13593186887518,0.353602292322061,0.40148590975841,0.131348829063159,3.40429394334774,0.765365474543696,4.52937150175896,0.629763348901911,0.181761626704426,0.303653972207751,1.98643608213637,1.82693249778794,0.680662594096148,5.45777891879796,12.4160303674579,2.32746743393223,34.4454932307749
"4",1,4,0.718446601941748,0.692307692307692,0.833333333333333,0.756302521008403,0.768896447467876,2.58603504331075,33.6992792088515,13.6717910381006,41.9837411472031,10.1997043111247,15.8103574278653,31.5585973099564,40.6756450773733,28.653166385366,4.03437952181381,1.45547734617555,0.192614674177784,2.08957231160083,13.232404309458,8.41599828736494,7.43573346099609,5.94542386559388,4.12156501589481,2.86933382022082,0.48406890065165,7.79416305861698,6.81483564471166,2.09852806951246,2.61175736806902,8.30624460264016,4.78306100413366,8.74526238419468,2.64951231962935,20.2804331933675,4.25565746211896,6.62901028877667,5.33391062289205,1.17094385426915,3.50648340191523,1.81044959108681,0.142552898996692,0.405141396383832,0.423049346032249,0.151734929995631,3.32904694656615,0.750566438688051,3.85965853317111,0.598927102424159,0.142081141006383,0.247259820442592,1.99170684664581,2.4218505051305,0.550379804365523,5.28794237083242,11.764153787847,2.66822334902246,35.049214445711
"5",1,5,0.728155339805825,0.647887323943662,0.938775510204082,0.766666666666667,0.822373393801966,2.79296002745489,36.1426750107315,13.8403870164474,40.8934819671223,9.92164685592626,16.3822505608457,31.2262144680339,38.4017937960875,26.7732302673815,3.97003204126254,1.48913292232815,0.257572805619389,2.12504839764388,13.3833360616145,8.68785349552095,8.77333009593434,6.83476859921688,4.63593667034506,2.84352152057629,0.491170729662966,7.64443338798474,6.98935825042297,2.22795467590536,2.60723258240914,7.74472065529213,4.67934046696697,8.82177805899531,3.38741900471868,20.2815932202966,4.17925162841532,5.80434046227798,4.67829354945312,1.3215380547818,3.55678327200483,2.06022667079539,0.181141674426414,0.440462871149364,0.418447545885294,0.185883396011614,2.9832664545911,0.907610139029295,3.9353737077742,0.62951489340359,0.161221597654914,0.347481416724859,2.18766661990415,2.45182486689877,0.631184669426937,5.18778610718188,11.3016893492576,2.7475803063498,34.0115423230513
"6",1,6,0.669902912621359,0.630769230769231,0.803921568627451,0.706896551724138,0.701357466063348,2.78379937040015,34.788899480591,12.8652975203101,43.2351140713948,10.1349463434953,15.2356481752271,30.0775574887549,38.4372013770124,28.1305639967699,3.65167459410402,1.49065033184887,0.280391707199301,1.86171120518243,13.0972286740978,9.1564764106897,8.69981320799651,6.41234756003268,4.2642189292297,3.24990297548828,0.835322883647753,7.71756139064224,6.86766974162939,2.32400666339516,2.66708006781036,8.56468783801833,4.00239989654107,8.64709437075393,2.51554325950922,21.622668283201,4.16525959875348,5.33215329401703,3.84603605669061,1.02001083486396,3.47880029803081,2.11218065340477,0.125540362306202,0.418803973170322,0.469716064700769,0.189186933094108,3.20892504020132,0.818274130926949,3.90839151904955,0.534009880265078,0.153424942115795,0.221258636773492,2.25753323520184,1.7608895407106,0.605307697480918,5.05083357471326,12.9161515863841,2.05880972536027,36.8426752087825
"7",1,7,0.699029126213592,0.644736842105263,0.924528301886792,0.75968992248062,0.806415094339623,2.73199238915833,33.3632135138471,13.5484570804295,40.9386874986953,10.0954438536805,15.6222413701074,32.3619406202066,38.6282484564006,28.0431416704122,3.99340770047594,1.69029401496824,0.139634685350964,2.26255860679187,12.0436747054845,9.05786926546075,8.12935656406751,6.57645187681826,4.70317708499691,2.93827737461448,0.729786681684673,7.24931178365326,5.81545470559852,2.20281381504644,2.40634457571661,8.24195521718851,5.01652636302654,9.30844017370641,2.86678953286538,20.9487199747704,4.45772161941529,5.39196309770107,4.66374350197101,1.25461388353929,3.4983757725862,1.96553687764178,0.109816041956241,0.276091371391672,0.291880163928033,0.145122259194775,3.42868733156876,0.504462835387791,4.25906739211805,0.787118543409899,0.148653010925088,0.241629666277442,2.36505059036875,1.8994047894346,0.811185332109746,5.81451102512718,12.4671032866862,2.51712827545361,36.528282007839
"8",1,8,0.689320388349515,0.625,0.9,0.737704918032787,0.775094339622641,2.71574641038699,33.2214396283186,13.3770257671818,41.1057619369854,9.96835955235872,16.6346397758896,32.3529839232539,42.3101693008887,26.4393842531068,4.52758590102274,1.5558527555615,0.176717774791841,1.99578417411517,12.8456250180849,8.78013581839503,8.07728823933198,6.54582787847661,4.46939015180689,2.90600384275777,0.468598253115047,7.92563082700122,6.38077009518546,2.23703580680844,2.15335445949034,7.72260137250286,4.39911136579365,9.16046881255278,2.69948742497184,20.9547776517834,4.92817930161385,5.41513840976128,4.54664147402847,1.02463815749682,3.69866101945995,2.10954539286419,0.0895568738095151,0.366703301601155,0.276349838204303,0.103371901957451,3.3079411150379,0.815124480555924,4.14806475956282,0.634788587407171,0.145566584099323,0.340180452198457,2.36434504169998,1.34618314733084,0.645042819194223,5.71904124845384,12.3302696678772,2.5947027182265,33.0322795103748
"9",1,9,0.718446601941748,0.682539682539683,0.826923076923077,0.747826086956522,0.793929110105581,3.04371567283053,34.3987726082492,13.5882976600026,40.4526144077883,10.0965035449996,15.9912330525978,35.0106640062576,35.056685890173,28.6792649498978,4.30793901643656,1.48046441216529,0.188647063377626,2.00175194756139,12.9332540114369,8.82786872432279,8.2967655112443,6.47510343980001,4.35351751000219,3.47151510468608,0.46976636427779,7.2236372711028,7.03513627812035,2.30314078805344,2.3664509169209,8.64582967531611,4.20210441435072,8.70399328142995,3.05466804901159,21.8604283636615,4.17376224853796,5.54608977320437,4.70468660055591,1.26418884425434,3.96600389561429,2.07982088530304,0.151912011445009,0.285905863172316,0.388517104764973,0.14788495080797,3.01509854505105,0.880025329790926,4.16286952072268,0.604001908682632,0.184965956852883,0.309033510084808,2.15410525810929,1.81566980533756,0.679243745579928,5.53339095763091,12.7979363554668,2.61662964204803,33.9673266715236
"10",1,10,0.757281553398058,0.785714285714286,0.846153846153846,0.814814814814815,0.773886639676113,3.51293636909956,33.4431931847703,12.8487077815239,38.7402134247908,8.6541042112332,15.7765838178637,32.5332761704869,41.4092194290654,26.7332654338709,3.21019341002562,1.61948343253568,0.248448175297031,2.07179228505465,12.471861559314,8.42692744122058,7.71955348876197,6.68375916969424,4.43776391752457,2.89699887492481,0.700019280813167,7.25841974997826,6.71210720108519,2.49624859924398,2.72609749279214,8.43378701663509,4.63408708323404,9.17157500967237,2.93394559740063,22.1063181344162,4.82829598943435,5.80335557767123,4.46765476881543,1.13124272184885,3.69572033617427,2.41283513937012,0.116426781800851,0.248374298814932,0.418443917460972,0.127520779015712,3.57163792304325,0.769358583902245,4.3927287930143,0.697622257754225,0.146164799839671,0.341597286522607,2.15246742465783,2.23729351735418,0.486522597844775,5.76783680562895,12.1184500903765,2.37621132669613,36.6423517604419
"11",2,1,0.679611650485437,0.618421052631579,0.92156862745098,0.740157480314961,0.794683257918552,2.56963882779777,34.8174095506325,12.551550536543,38.8682280345806,9.78079860628604,15.0649156648491,32.2472394824522,42.3655762210936,26.7317669074301,4.27669148524789,1.76722279821197,0.174423348654537,1.91833453469721,13.1017132780521,8.47972751992221,9.27311862658542,5.96381665599662,3.68085495197229,3.6120978489724,0.679372083872285,8.30627150685272,6.74940740287738,2.53897898326065,2.2370758306966,8.39273394167678,4.00778058504782,9.24877163137232,3.12817880799994,21.905974124695,4.14478327063038,5.77439745635316,4.68717128315929,0.979022375693625,3.35166867502666,2.25479194080689,0.133567085787657,0.451305940541245,0.385726871714577,0.201908616178009,3.41147322136616,0.921511846525693,4.67854171481746,0.722251126881858,0.175571773304354,0.347337258095094,2.06058003931025,1.98794582307371,0.829239119466366,4.99409533773158,11.6774383602385,2.44319714523186,33.0588505972238
"12",2,2,0.689320388349515,0.666666666666667,0.72,0.692307692307692,0.750377358490566,3.09820783189935,34.2063869104765,12.7261204195886,39.5255808107246,9.49539643569625,16.4422807657224,31.1269109128716,39.4782831755425,27.6254839504919,3.58284924673256,1.54043319159304,0.267998646909006,1.9200256530252,11.8526001868957,8.76217059155259,8.68246236239171,6.78255904235756,4.62812529681071,3.01852738487721,0.706039361844977,7.30604893788418,6.99449609889218,2.57329692007961,2.35144013374616,7.96042570365611,4.1969363613717,9.49307145830353,2.50796305962515,22.0436245834851,4.14455799212162,5.63582116938802,4.77376783718472,1.11144047519211,3.75914734290215,2.22315238977771,0.133025524767842,0.286000345517842,0.430289084296301,0.126588190789481,3.1893419203208,0.890729382807416,4.22025272938936,0.607474227561956,0.156062542324982,0.415955251138397,2.35417111129065,2.50384832454419,0.61999955680879,6.07080371247082,11.4923352401605,2.35881853956617,37.9164447418886
"13",2,3,0.786407766990291,0.737704918032787,0.882352941176471,0.803571428571429,0.820324283559578,2.92595922419799,35.7174001038278,14.6731310926715,43.8487677853737,9.96034631141656,16.4445087906743,31.5523647280711,40.7503749429597,27.3026501742886,4.45177348921266,1.65651848712063,0.282571055898387,1.9654569909241,11.8951511073819,8.14787790869289,8.18988036053679,6.46962026257001,4.44209642183637,2.75803697729549,0.519880146237108,7.76214504339667,7.16737937804353,2.3436081060181,2.50161268110761,8.47502293473029,4.29846433149747,9.17062963821329,2.52528843859159,22.7355902994199,4.3193858117445,5.95591677701068,4.24283147620043,1.02898894103911,4.03501655369415,2.07040571093542,0.0902990988138443,0.219192982592431,0.432140804316566,0.123010781270942,2.29000869669467,0.934854018641952,4.05881271428339,0.674590702579982,0.187396826508217,0.205268574920401,2.0440129722444,1.54498565181902,0.613001034096945,5.49539506556756,10.3487992577947,2.37112474966442,32.495007079166
"14",2,4,0.737864077669903,0.67741935483871,0.857142857142857,0.756756756756757,0.806500377928949,3.29286784737463,33.5175373244763,12.8955360508165,39.7852178175136,9.5157278325112,16.5379210506178,33.7246495749921,39.1203758423723,28.2775038762267,4.20685354955995,1.28050161870478,0.251715428518046,1.95757851343948,11.9061254101361,9.18837600014071,10.1098592946275,6.58074716248594,4.37356745172743,2.81890340117906,0.700326726892847,8.4584667596465,6.29605257432544,2.66052335948976,2.5761979237931,7.97867402156053,4.51219187165229,9.26048890503136,2.64605599650587,19.7963928000699,4.48179403874791,5.78908508868915,4.2666173143039,1.05873146983742,3.51311733484902,2.24056515012256,0.218459999034672,0.328429337846904,0.317438475497017,0.119678429735338,3.77249309464947,0.662976062882727,4.44519507372521,0.747230818413292,0.169038179646871,0.329502552330614,2.04069649565764,2.17115480148276,0.782860827954366,5.26949062789423,11.9719628171077,2.64226718108594,33.8413365213295
"15",2,5,0.737864077669903,0.730769230769231,0.745098039215686,0.737864077669903,0.759615384615385,2.75263125605319,35.2690001612415,12.7542413415702,39.8358148533864,9.59142047549478,17.3447355308289,32.2794169894372,39.3983611694434,28.5039049262555,3.66615616720194,1.56628904217915,0.189353377737244,1.95283909952364,12.8810821785127,8.82423091437515,8.00784928004581,6.93378421180174,4.34565906347371,2.89207921592801,0.436987775174171,7.61626794307054,6.34301073181145,2.83671919590922,2.40236811908446,7.9445905021485,4.19152832877733,9.11714557184589,2.92216265754352,20.7684221724152,4.70472801571196,5.77523865439696,4.39879110425185,1.12063071271926,3.61696761818528,1.99862313005789,0.114090012353908,0.298017211192736,0.509375693565113,0.196754087580049,3.29166313995509,0.893952320163432,4.48317373062713,0.50539763890213,0.186181562576785,0.220108098827508,2.58016248582567,1.82192620727288,0.637524403405974,5.6928159252245,11.4491885609295,2.47008240322921,34.5984132294841
"16",2,6,0.757281553398058,0.740740740740741,0.784313725490196,0.761904761904762,0.804298642533937,2.63195057756955,34.9924791157486,13.0412197937569,43.0103979144057,10.2629194756516,16.3352232574104,29.8699224245012,40.366017402596,29.0596350256056,3.82503864678919,1.92210097306677,0.269015537094225,1.90842890326129,12.8572838796605,9.31361479479196,7.59660999383918,6.51071076901841,4.22021620402152,2.95041698977331,0.2558601525355,6.95031585507343,6.38025919559103,2.6015249596478,2.64276039426071,8.27826712615088,4.51943145362641,8.37678027253646,2.94640841800087,21.2725124121111,4.18154880519163,5.70605892997065,4.26162792159432,1.20224567809655,3.45108969463587,2.12261503582317,0.0973315052397425,0.338239855171078,0.399614461528327,0.16179308167708,3.38803411709464,0.8677315743987,4.0423321059839,0.891184721390101,0.0810660698302442,0.324403630840908,2.02235230331974,1.93027802228892,0.669203686195949,5.38310382411991,13.7042056786057,2.58880186917453,32.9183581319398
"17",2,7,0.766990291262136,0.728571428571429,0.910714285714286,0.80952380952381,0.825417933130699,3.49201410612803,33.5438480727369,14.0343367443565,41.0565934822493,10.6766771024002,15.0271613993081,30.0536580587742,38.0177030464775,30.2955904705959,4.03883313817214,1.49037170167833,0.224947809862458,2.15502892526943,12.2499623808329,8.8251776105414,8.13682170295006,7.05826652449564,3.93278949481346,3.34214158174323,0.341572238859343,7.69572599210193,7.21173503479231,2.35340962671082,2.40862890500952,8.29971939291983,4.60884233037719,9.21557731365707,3.01029423673544,22.3098547212403,4.34731671175354,5.72117065402242,4.21445009873899,0.881251662112594,3.35433740307436,1.89037074715518,0.125046087016499,0.263439868199164,0.344253946857246,0.11007578563174,3.32376522328672,0.802986705402668,4.56576268163337,0.707433833038311,0.164600421754571,0.305704470592006,1.80391377953473,1.5505590448959,0.5413162839848,5.30556737521242,11.9963344261441,2.34041966374885,32.5361946069148
"18",2,8,0.728155339805825,0.706666666666667,0.898305084745763,0.791044776119403,0.75057781201849,2.49425538317941,33.2557226115599,13.5280148091922,42.2482498674302,9.31822422449911,15.0056893769365,31.9539402772426,37.0043439394159,27.488514739794,4.07209859349155,1.38457910095089,0.247459599240371,1.91805862805151,13.1780909627467,8.31169229751521,7.41732991916842,6.83979329595143,4.46826691911289,2.69408056058204,0.601571173362492,8.39254870189217,7.16707322956775,2.07755378965535,2.82884339765889,8.81323783659851,4.65309721694001,8.90860482035763,2.77331084690848,20.6856212763109,4.09716324792737,5.95631094715852,4.18727484877338,1.27802576634285,3.88977535536049,2.22992299404662,0.0835696600307274,0.424763137905926,0.40359290233401,0.153893856668166,2.83117855428889,0.896234874582997,4.23947271804525,0.610034020974253,0.145117859866807,0.330680022727664,1.94109871530245,2.06164026716383,0.667631912501781,5.55108425490454,12.0740996756635,2.56459801307366,35.7058375564132
"19",2,9,0.757281553398058,0.829268292682927,0.653846153846154,0.731182795698925,0.766214177978884,2.78244357956639,32.2207715529396,11.7409299002419,40.928628169763,9.88065139781716,17.7208650250206,31.2978795570269,37.4865958991287,27.482053399922,4.56090191155298,1.5537238977191,0.141552634534175,2.09210985355759,14.351127005063,9.01595905065977,8.28136128259004,6.66363453041949,4.40008709408161,3.23612120614844,0.678116844193956,7.2992701401835,7.64256127039461,2.52935800914553,2.44485629831763,8.39864131597592,4.98163426621227,8.40478087292886,2.61015172062934,19.9344050399523,4.54588910127326,5.66669440156663,4.11115832366708,0.89331717400015,3.55141119955429,2.03493409808752,0.18830761376269,0.396674300775325,0.371208754317836,0.120185501721679,3.1296064590924,0.751483549793911,3.97561690159011,0.540849091966996,0.192229925591657,0.365455812100365,2.08453595355407,1.60267078941464,0.603206640316805,5.59227012990302,12.9214627423809,2.81931518874448,38.3691128290795
"20",2,10,0.718446601941748,0.666666666666667,0.711111111111111,0.688172043010753,0.792528735632183,2.9884786305205,34.5146329040063,13.7123911576206,42.2964103399742,9.59588327188224,15.6968775073975,30.6199480900446,40.1184840784909,26.7793590263342,3.8461969064625,1.22231137985574,0.235737403776629,1.84851268370713,12.1785378154191,9.05938882054249,7.50455566225231,6.18812045329147,4.47076187640287,3.62795740024578,0.605500840758318,7.83975349629907,6.46639560668337,2.17124329181634,2.55167372992565,7.93492607970077,4.44403454083302,8.63465453841293,2.81762702934143,21.6036565680174,4.68150844487206,5.79291765329427,4.46884866953916,1.24438658566721,3.57152248734148,2.00686242314007,0.133024192401206,0.332574062079837,0.291334406417966,0.102987439952213,3.19156263343947,0.689732925379246,4.15435958813949,0.725996403864571,0.158741561959116,0.417707478913774,2.41132296633941,2.0244164302631,0.70380127830958,5.67094873490751,12.0790386940175,2.53953477332091,36.3914720819233
"21",3,1,0.737864077669903,0.693333333333333,0.928571428571429,0.793893129770992,0.790653495440729,3.28520931285715,35.5721919385907,13.6992883791229,41.7287742143835,11.2521453666195,16.1498907456833,32.9720341431974,37.2343188058571,28.5220711082465,3.94345410130248,1.5633743907894,0.228449928627933,2.20593346664276,10.8892001493296,8.32764585726678,7.73081198972752,6.63156957060816,4.66313619049328,3.56167098020173,0.662078973674281,7.11456494797678,7.17245081950867,2.27565217827283,2.56204943545323,8.61209628470563,4.48178316653193,8.77210039630958,3.16804053891252,20.9703595314351,4.18996912070838,6.05124991015461,4.48927779763021,0.894052283059496,3.45763379816869,2.00984218514639,0.0850596114559537,0.334801125583078,0.45669519632844,0.143745339524671,2.95004354536739,0.603201169509928,4.39414425421447,0.622829943687697,0.0823300167750843,0.270676460963243,2.07377983091463,1.84233299695406,0.623639295972891,5.40982912167938,11.2606874009132,2.32270810620476,32.798142833743
"22",3,2,0.699029126213592,0.618181818181818,0.772727272727273,0.686868686868687,0.764445300462249,3.02828044927224,35.0492921300297,13.6039178061389,39.3977250757223,9.56847476525499,17.2329582785389,32.6971956226013,38.896034234696,29.6294267754522,3.97492839115522,2.13641677407812,0.205622603884209,2.0921195428463,11.6522386687461,9.08864282695509,7.43970349342365,5.75887414170595,4.65186968862879,3.19216251114509,0.590637253517946,7.66372459758009,6.61734823546061,2.38096895447348,2.82270449120942,8.71963518366428,4.52560630839393,8.34922013441993,2.73696179069115,20.9926657616329,3.94762953366842,5.41019587005738,4.61686241036301,1.12926180072785,3.56595649480504,1.86361143258601,0.122564105876294,0.346354013346445,0.418113715885524,0.209362268397905,2.85198025277475,0.953815276529721,4.63821581770628,0.574194851110693,0.189516667076792,0.237757439507627,2.43047083875996,1.86733537837685,0.69084271259435,5.95249724322859,11.9576434525092,2.76775674862866,33.4151946281087
"23",3,3,0.766990291262136,0.75,0.807692307692308,0.777777777777778,0.80448717948718,2.95685194311841,34.2950702165324,13.7299545165259,41.2931949436919,9.77074478726024,15.8659290431138,32.6153740919168,36.9527857063815,27.6247347965445,4.30490454880672,1.37431394008056,0.21504471054902,1.75828722027796,12.7399562612522,9.13082402896467,7.87121722576506,6.7707479955008,4.24707190185841,3.01719351049202,0.443783841231663,7.96274514258163,7.30619943181266,2.46529225351075,2.53504409683246,8.86111497853053,4.2789699672594,9.02523365100394,2.96629536771561,22.0666823383677,4.30804413162492,5.87291385367171,4.827610434259,0.947032556025838,3.63929573608851,2.21781516262671,0.0545864679585662,0.16998999655914,0.363326027354975,0.094159119210261,3.07968783106011,0.980141306237368,4.68139733385356,0.657995827411913,0.162540878844985,0.377881318354091,2.19900964862602,2.19911573150268,0.771208575655163,4.76099617913308,12.2202084193005,2.46424192805631,33.9900237195265
"24",3,4,0.728155339805825,0.730769230769231,0.730769230769231,0.730769230769231,0.756975867269985,2.86118762042193,34.0132233383437,13.6902625401776,41.264747061587,9.28107329872314,17.0168303147216,32.94621474637,37.3813292297971,28.9084321911326,4.24511484716604,1.02157658524161,0.257106169952523,1.97517836819218,13.036690561393,8.61518905117802,8.11757818108912,6.51189516953545,4.30133861229761,2.72586462242457,0.488735690115519,7.63062830435633,6.25542335960154,2.19168640538,2.07032092700844,7.82602482356033,4.32707067411183,8.60806554917044,3.08982228540925,21.0743175649307,4.14272343980331,5.96879292034954,4.88201674967241,0.953279699744672,3.54733589559563,1.91811440154336,0.126294011324726,0.19298958989933,0.459991026594283,0.113053193533611,3.14579974880492,0.758494097986779,4.24020971894932,0.542484115307748,0.205780180327485,0.228854539188422,2.25424965833395,2.07051870074473,0.633276337396736,5.18003799612035,12.2487964438222,2.4998303524704,35.3316610601132
"25",3,5,0.737864077669903,0.707692307692308,0.851851851851852,0.773109243697479,0.801020408163265,3.00341587362474,34.6132583416811,11.0493837686522,40.6053456261209,9.476878995787,17.0969280251505,30.6854816043162,39.61743245791,27.2306008528862,3.98329467254733,1.54874151165459,0.262690239824988,1.91831805254187,13.3154628217854,8.65013872161094,7.31664596297822,6.44382644980462,4.83496848478103,2.78684769954767,0.818779250693598,8.42342581356605,6.42828259373809,2.65287124406079,2.61127899501516,7.72313695375144,4.85307691033068,8.96893175214405,2.84317182422634,21.2459126881991,4.6180239945631,5.75756942906185,3.97674344162759,1.09413213944194,3.53493601844822,2.0099016685084,0.147250296860019,0.408036846768523,0.257759264352775,0.153813888310116,3.53384263919295,0.850287862254643,4.34625148184343,0.662712926898384,0.134356228738009,0.309346031724043,2.40601047213827,2.36447398527478,0.610935691994982,5.93118828069496,13.0215022990521,2.40729907505527,35.1295432803217
"26",3,6,0.796116504854369,0.766666666666667,0.867924528301887,0.814159292035398,0.86811320754717,2.83426101588768,33.9896617564935,11.7746844620497,41.0209855869369,9.38716247678023,15.7323366175097,30.4183216675245,39.4773948795951,27.0072614810495,3.75706782083324,1.5593430782473,0.159022709376329,2.17809137127149,14.0453514148412,8.69425015265312,8.65266184017169,7.04848363097131,4.4026955177316,3.15653846615413,0.523701319552056,7.70365977347631,6.83312767265633,2.5389031823181,2.26555065862001,8.82713234464389,4.84870229967494,9.31430137847262,2.78773107237081,20.4699772439986,4.51005908514074,5.80178305511683,4.80551664223732,1.32345400661412,4.13368012168323,2.41991725025966,0.120310377146831,0.322246677503406,0.321561657607588,0.0949068757537401,3.46854599282153,0.702957896367307,4.32202757047147,0.561300051674196,0.154430484344703,0.377969597115815,2.2385225305273,2.32930175883667,0.654022709774085,5.29610113037556,11.2349234806428,2.65199637568073,34.921037333489
"27",3,7,0.766990291262136,0.78,0.75,0.764705882352941,0.808257918552036,3.14012818452174,33.7843438670223,12.3625322141591,42.2020402237503,9.94467906846366,14.9175530645621,29.8050522635518,40.1173977371697,30.8299691052053,4.05835842567537,1.77832073932001,0.227531538941755,2.00393256923194,13.6448307387928,9.28974800371215,7.75741017560608,7.32299348324692,3.95592555396716,3.68472607644791,0.63917975147135,7.86783828187951,6.43304344894492,2.51563488025043,2.46609679511383,8.06974103987406,4.67476575494992,9.01171113499808,2.98270016565499,20.6949893391227,4.34468860715087,5.40023158727914,4.1416880696729,0.909111110915042,3.66931143591591,2.2355426825668,0.12713989627924,0.36701902594321,0.476177367870868,0.139202107861246,3.65723961307509,0.888461888000692,4.54012222789217,0.679364667808325,0.109065600070842,0.291684687709044,2.19751061946182,2.17763048602393,0.7029692715351,5.69143123241269,11.4184144957452,2.03831029850229,34.9584649060243
"28",3,8,0.660194174757282,0.623529411764706,0.946428571428571,0.75177304964539,0.759688449848024,2.97845878313695,32.6450500862956,13.7960137971122,41.5543518671579,9.77691222464288,15.279642321238,33.2801214907644,39.7453053977918,24.1355473863862,4.12497127512358,1.33253774934847,0.122803631702731,2.05382656717277,13.6218088398971,8.80253366270684,8.15713208461873,6.14613555732903,4.29743821472535,3.3926609504262,0.58482089046406,7.85067553401757,7.67590876932787,2.69005242709375,2.84097969451317,8.96323771736302,4.22192614285182,9.72689213895594,2.72947221725136,20.9440327604174,4.13161873353921,5.3816815960266,4.33560119505696,1.40354557560843,3.41481819384478,1.85847737968753,0.180282912195401,0.359591289776239,0.385589459007553,0.127014861512721,3.61592287153838,0.925607836477003,3.41389651254137,0.698824075257965,0.157610945827882,0.454282952976448,1.96404697703437,1.85178051633232,0.701395488091632,5.95135178601065,11.926793290934,2.51193036031837,37.0731777199553
"29",3,9,0.669902912621359,0.621212121212121,0.82,0.706896551724138,0.746603773584905,2.6505057596458,34.553373719525,12.583199764817,40.1029884426154,9.10848032912387,16.2827617033617,33.4267216253615,39.8635041989634,29.7902686718365,4.18031244241333,1.83298647696402,0.23985320967868,2.05015579502607,12.5628127249424,9.33267809814797,7.76547003854453,6.85006104367158,4.14391835598658,2.45450688530793,0.564639984789075,7.07623413105015,6.84692110360692,2.60740191715956,2.5391059047381,8.44556870276628,4.28301616519698,8.62283820207274,2.49641959336105,21.6834546510051,4.48230772219661,5.63207284789705,4.76265785375354,0.971655186113401,3.08593225078988,2.17485117197903,0.13075122740805,0.318102829396544,0.490583744356583,0.208661779789644,3.42684140840191,0.693997358710084,4.01578333308372,0.633942542404426,0.150382025955816,0.456411704831622,1.8799066881521,1.50936940919058,0.605785430815261,5.57828397420788,11.6730320897241,2.28990228095242,36.2076855221739
"30",3,10,0.679611650485437,0.594202898550725,0.891304347826087,0.713043478260869,0.784897025171625,2.67745447787939,33.0848653516455,13.4578229522497,40.3832236363365,10.6019698571133,15.8248688788257,32.1449000577408,39.5465239016276,29.9861416635765,3.91362691574958,1.3669441145602,0.230106580952087,1.72847616208155,12.4083195329528,8.6200780549955,8.10330450403468,5.89151184325276,4.40324928567696,3.29889810277945,0.595899587510074,7.82959854656922,6.83862951173856,2.88502893181882,2.36184632163496,8.38630869319064,4.54890959331554,9.20421305110511,2.67738033029838,20.3404186198071,4.51252850031442,5.61371225617005,4.3490993286491,1.15429394499491,3.76681624276615,2.00680291399024,0.0968164686598392,0.388822838480365,0.380339744461205,0.166847148643654,2.60464478041559,0.896368477623104,4.21712215396925,0.602025099436711,0.209639239481734,0.324999611597303,1.89159226233119,2.64671745969626,0.544251685395344,5.50431440664604,13.2462720272464,2.24750152325904,32.8815529823538
"31",4,1,0.689320388349515,0.579710144927536,0.930232558139535,0.714285714285714,0.789341085271318,2.96474235997461,32.2933527449954,13.345788697765,41.3704538825504,8.96898240508661,17.6473290904944,32.8328881311253,38.1122921500045,26.2224249500272,3.54872303165851,1.36447379242118,0.245781623703298,1.77387763993508,12.8121381270845,8.41627824097946,8.77256651698648,6.48696967603634,4.38776037014984,3.07915945739267,0.625919782749564,7.93177745814542,6.23267240500241,2.36337459370304,2.47543060239157,8.23863420693614,4.71735656873946,9.55492830652189,2.83139520251479,21.0976689421973,4.66496049435389,5.64726800357834,4.23790535593552,1.4437302251242,3.89309179236171,1.70611179383869,0.178280573055971,0.33796088238419,0.393506431760717,0.127106713193663,3.2503834301987,0.927056500264731,4.24021133805545,0.674623526712634,0.131296043665238,0.230520948850585,2.53638396374549,1.60225843478494,0.636440792371432,5.48939560370375,12.9717268012605,2.49639734641955,35.3816133230932
"32",4,2,0.815533980582524,0.819672131147541,0.862068965517241,0.840336134453782,0.857854406130268,2.90386533836351,34.2747379506095,13.4517951711955,40.3823442563573,9.37469009652039,17.2224456519301,31.2367232227207,40.5477669450712,27.0878585864905,4.06678245293025,1.26158431599143,0.239291913582954,2.111599510899,12.6594162566227,9.26345062663979,8.3419659427903,7.13055262515397,3.73013533032238,2.86775353727004,0.688827098028019,7.35772913585012,6.5752095300335,2.43711879947153,2.58720033858005,8.45520882358765,4.66702295722277,8.39275330057845,2.79719420514831,21.2150254603048,4.61417383897145,6.1603048636283,4.63465936449123,1.05543603404498,3.51873528054061,2.43106064439057,0.160426359622495,0.340581758861777,0.357145332566883,0.0926819327150587,2.77777600020028,0.674388879714869,4.30403179085574,0.469045471305431,0.180067933866734,0.383272871936501,2.14124932754006,2.02460611507275,0.710033631449229,5.62977579471305,11.421187798416,2.58790474571242,34.7202638388131
"33",4,3,0.718446601941748,0.657894736842105,0.943396226415094,0.775193798449612,0.816603773584906,2.707759519703,34.8696421969932,12.8548199592595,41.3048840673119,9.768968128186,15.7688799851756,33.5760672777597,41.3504597032527,29.0242726519681,4.43781023949744,1.88655241563098,0.270434099327822,2.07704992254136,11.1292389252927,8.27427094791489,7.98274272919412,6.34056785508355,3.98597415242603,2.67249620938383,0.59571947471859,7.35701814576476,6.36578351774857,2.41217395010322,2.44799422798575,7.80016382427891,3.82173676298152,9.03012317211227,2.51971218766423,21.7031189435008,4.15177456947115,5.9027053345957,4.22911287771401,0.991048975619749,3.41756201175437,2.21797637236006,0.0826456410765438,0.287645687446422,0.437552635746889,0.175990097618683,3.23597689789987,0.838983291624134,4.24284211989742,0.683511745902344,0.0908394641590123,0.428430977870237,1.90800835128118,1.70286059693592,0.709869945331254,4.83377741082259,12.5058440296304,2.05469708653998,33.413761361523
"34",4,4,0.621359223300971,0.558441558441558,0.895833333333333,0.688,0.731818181818182,2.7257759266693,33.4889106592362,14.0816257549278,43.3292508269352,10.2602051119609,17.3536264923621,30.7316621082743,37.7835553460885,29.7810381357784,4.18146987054996,1.79685459962161,0.179252826500887,1.58469489505005,13.6218232585249,8.33279985038636,8.07089704278859,6.62360176504216,4.54966063933844,3.22383782141688,0.616374068015145,8.19598075810769,7.01054263595897,2.26634893227645,2.59267373982432,8.83099924081321,4.47623236658026,9.95879030866724,2.52263476058552,18.7901392605386,4.2302036926051,5.63027547899711,4.33124216525959,1.11412957360594,3.77401573861393,2.15604079303376,0.0921730728960032,0.225661668622028,0.354829501320147,0.15191243144134,3.12216906407118,0.919438971726346,4.51014204150521,0.505158949132374,0.150712464395436,0.295754442846075,2.25205000432858,1.47349953647367,0.574524299118844,5.62480816080175,12.5091467340903,2.42262704338941,32.3905903942792
"35",4,5,0.689320388349515,0.644067796610169,0.775510204081633,0.703703703703704,0.735260770975057,2.69935627307486,33.1768295335506,12.8214232461972,41.9836466031129,9.73503454204158,16.055053691854,33.2381338751244,38.2697530562732,29.0826685327133,4.56981505739288,1.47774179130809,0.120032209387835,1.91583688905519,12.4521025805168,8.98372557717724,8.39020307440832,6.09716750999072,4.25868715625504,2.95334928899724,0.848214897468788,7.88554459061842,6.74116926703718,2.19894243900417,2.71630603487908,8.38887126846958,4.35652340570603,8.52943041493221,2.85156229085934,20.6710201035705,4.50745771393806,6.18689876624711,4.79938218501561,1.04101323067992,3.79643614959568,2.09644755250137,0.159359525888229,0.291486402649686,0.44606908702067,0.146426675952668,3.29483717833582,0.840057005930529,4.25000238954952,0.702995006633175,0.173540765659749,0.375113459657577,1.95001800218917,2.15801210149687,0.609459223953805,5.80721938601577,13.3634962340497,2.27571447293677,33.8193314889237
"36",4,6,0.689320388349515,0.67948717948718,0.883333333333333,0.768115942028986,0.740116279069767,3.13479530661509,33.8592623788621,13.5918205702813,42.8421492797973,9.69324123715929,14.86002932867,30.7525537277017,37.5286736374927,28.0495120929681,4.25497035887999,1.37730370614569,0.304726593837906,1.99656135286689,12.7018631913006,8.28794466360811,8.71104381212633,6.64798641643329,4.2750551493465,3.10749232731826,0.44982241880407,8.88627221171492,6.97173521952468,2.42275448300103,2.47686955254569,7.55750149574576,4.61717781438621,8.82115718787098,2.95982356097479,21.547121093686,3.96602135481787,5.71470333190324,4.12409296369074,0.933002242968291,3.3628064493729,2.30906769521364,0.122966488380034,0.450691249228409,0.413686704332468,0.180666225932499,2.87262579266799,0.800643244608348,4.13187724449621,0.685825448169642,0.158701375043292,0.313349828512602,2.29390574956252,2.01877602960122,0.70486500849826,5.53648939664992,12.7491824931151,2.89543021456993,36.1248300602003
"37",4,7,0.776699029126214,0.733333333333333,0.75,0.741573033707865,0.811633281972265,2.7978978589854,33.8090440749895,13.3437079820375,40.3646477873296,10.4986566801307,16.1107038599611,30.8961213183714,39.1929886115413,28.4019662974229,4.44805305117116,1.39330536511856,0.33092759815732,2.010539253233,12.7838109609673,9.43534668380463,6.9076532330739,6.51352569155772,4.29514035682024,3.08389808089276,0.591903164613271,7.23305212780884,7.60464598875536,2.28515888415179,2.05593560543518,8.00175369434166,4.64583340415998,9.0266652420158,3.01438354795395,21.1157470224885,4.77853743572859,5.52090314843471,4.57995611798028,1.11712161674437,3.6845368160946,1.91864264986736,0.112229511430286,0.247767281526279,0.474004570863331,0.145582555708171,3.21309771601753,0.838268622390473,4.11913214829069,0.643856219938789,0.154374346921352,0.283533348292383,2.21240464568123,1.49960491364874,0.676437589497687,5.52323361600112,12.8473834792348,2.76889325919549,35.3353940428382
"38",4,8,0.718446601941748,0.684931506849315,0.892857142857143,0.775193798449612,0.770136778115501,3.08046033335718,34.5546889639999,12.3225207229094,41.4897091064936,9.28012409953807,16.24994317639,33.6246961306639,37.1307386919439,27.5507988793716,3.84905240355944,1.51147618454675,0.245189345424703,1.9417497065462,11.7401320354541,9.3207561869289,8.17091685291724,6.87416281045575,4.26581613249063,2.85701366163027,0.48219161739725,7.65576683381957,6.71644066236912,2.22136736051165,2.84130971024607,7.57256682045057,4.60458932708897,8.56681690689852,3.2180524229407,21.9183510634453,4.38127646827581,6.05997814672515,3.98016467837184,0.976776079591305,3.90931076201501,2.42817566090922,0.0815675139652657,0.299007536873092,0.418875183186073,0.15459328333323,3.4469358758082,0.742839867397448,3.97642795236483,0.697869933088584,0.149823355579828,0.32566656147121,1.92515187764697,2.62427085273399,0.526989437262357,5.35119621298365,10.8118919983448,2.13720508148537,36.1747780370131
"39",4,9,0.786407766990291,0.734375,0.903846153846154,0.810344827586207,0.825980392156863,2.88942524076747,32.4133222485158,13.5421577022468,40.6371762763088,9.71668247589123,15.8649527523496,30.9105001170515,40.3230860358705,28.9955445570532,3.9179448021404,1.46694290043533,0.301717372152976,2.34240317754883,12.4113041011229,8.46837604595769,7.26639492421014,6.05353480033646,4.432398359296,2.95822946570858,0.57151600798843,7.42136548633931,6.85941265541902,2.44581493669451,2.76277748248619,8.56867881006483,4.49518431047253,10.0753625049101,2.7604808926309,21.3976656449933,4.55954952720227,5.65168766327868,4.75465156905944,1.21336542191868,3.48568912132335,2.22885975843284,0.0951347420283791,0.304430783154782,0.327372150335919,0.137561814292373,3.50610642781536,0.729136370777998,4.1046777704586,0.682773724521758,0.226623311515638,0.320038478521716,2.22324884364842,2.00297565384082,0.709922048131212,5.87086126299442,12.441331436357,2.65429921636931,34.556754839082
"40",4,10,0.669902912621359,0.621621621621622,0.884615384615385,0.73015873015873,0.767722473604827,2.735271536827,34.4145970267967,14.0377902849369,40.7356356170794,9.92744106298298,14.6403340083231,30.9767365493494,39.8733514656123,26.9321066779641,4.29455456482769,1.63883167268633,0.229311743570394,2.19501397712103,13.3829413323534,9.15637399744812,8.04365707192652,5.93441009984434,4.43860917662614,3.42213564455135,0.535695030746121,7.62248785051377,6.24834533285331,2.39808229982262,2.76144872457803,7.93182164587077,4.70116417904823,8.10859364296665,2.50863912780005,22.5364323439558,4.56049101624362,6.40501180923058,4.74400430049238,1.12304781510978,3.63192801000837,2.34455108145575,0.117015364188214,0.402057715849024,0.418482741962014,0.215302261035445,3.31546209797969,0.905142092213081,4.75851357911215,0.58505885846643,0.214615383876941,0.239184688112659,2.13570191582794,2.2212908771042,0.752567191394641,4.74566270567337,12.0404861034144,2.27750297796994,34.8332339486908
"41",5,1,0.786407766990291,0.72,0.818181818181818,0.765957446808511,0.851117103235747,3.32870572277941,34.4779033018354,13.2887045033599,43.6085514239434,9.77599558956017,14.9180709357905,30.339989880961,35.0611866654072,28.3089585490479,4.32573726496143,1.25102604634971,0.295467840122321,2.17314770057104,12.9466048963705,8.73459586530552,7.59086121313867,6.80842734835671,4.50219863108916,2.95688733963518,0.651730327107624,7.55256143328278,7.12307681474521,2.53902582538356,2.41723837181704,8.46362988829381,4.77296253840773,9.35998864154112,2.81578621504055,21.7364873681425,4.00251448573051,6.1230362224322,4.43313902886645,1.04996590613405,3.85887521673567,2.13881841492371,0.132895524097335,0.339797996795438,0.486785426929424,0.164052613076789,3.07123123431921,0.87333962817066,4.65689369662644,0.536822538436471,0.14819990863669,0.243528192412748,2.24512821818912,2.04510193405054,0.521119550195027,5.71609483577341,12.2351105352662,2.35498909590813,33.9330624690083
"42",5,2,0.621359223300971,0.575,0.901960784313726,0.702290076335878,0.715309200603318,3.04960925251527,33.9857542364215,13.58109124792,40.7384323727188,9.2192014556359,17.3199549684888,34.4043003808246,39.6982468504851,27.0617746085292,3.50004188595189,1.67255050600566,0.249562847558714,1.67216434694064,13.8867966681685,9.22062091841545,8.05550047240998,6.63107380071981,4.40875923177411,3.2212232024064,0.34682917912095,7.34859095435488,7.10699514561013,2.10271690108319,2.1797704216844,8.5478923021819,4.84381467094416,8.80626135516003,2.38100846687103,20.6832076432258,4.53091559373408,5.25840943453772,4.09643688885984,0.952125420840782,3.78113130146419,2.03216394524205,0.140920522087422,0.21553186059991,0.391149752701514,0.15232750140874,3.46231074521356,0.761892656048428,4.0942324544259,0.632745872300783,0.178077499102526,0.286501045441658,2.27008696642118,1.76243334460126,0.732314032374954,4.89648391303223,14.2779743451221,1.95553994696304,34.1599009378593
"43",5,3,0.699029126213592,0.603448275862069,0.813953488372093,0.693069306930693,0.782364341085271,2.80383334261321,33.7113834672924,13.7906773246348,40.8738924626288,9.55479536112289,15.692488316994,32.0649771877996,37.8874027418136,28.8825624057683,4.00706552360444,1.65446936896705,0.214463371183405,1.99512724609831,12.4254855976279,9.19638193444942,7.15195921301815,6.25883025563459,4.45293306747973,3.06677628901203,0.479091979500711,7.78330374585629,6.50688463458373,2.41553539316413,2.36613410674546,8.48637394196083,4.44205588310863,8.8404478227043,2.70047984616436,22.5650667211298,4.29343090278007,5.7384654941163,4.46166579237564,1.35189687757532,3.63107547718638,1.73446745176375,0.106774098951458,0.261611195859578,0.438603120544097,0.156694665252084,3.29201286923528,0.845366406985865,4.25724802768159,0.813928720289222,0.155904725420523,0.291345664744866,2.11586675058768,2.07848119032554,0.572030927911168,5.39314510254223,11.6307277791867,2.4657754494161,35.3759599627291
"44",5,4,0.718446601941748,0.666666666666667,0.964285714285714,0.788321167883212,0.821238601823708,2.90750400609232,35.8509703664396,13.6444418311613,42.970478245957,9.94598032291862,15.617882563729,32.0743686045189,40.7943457175779,26.700069598428,4.49306903839789,1.53232415287576,0.273808951413433,2.15270609109721,13.1078401489747,8.85876870592649,8.04945395735116,5.9639075902159,4.35374209594478,2.89202416638294,0.554668413970421,7.81011863938159,6.43143068958427,2.1124317069073,2.43598722333962,7.768214278861,5.23219062401995,8.17684002220584,3.25774642330431,20.3335926472786,4.32825139434267,5.65383539763622,4.14384901691637,1.11427297583753,3.65721163219359,2.12918454305113,0.177432934547579,0.315183121938648,0.393637251923358,0.149524665187178,3.31513585286469,0.673979803412158,4.50080101680616,0.782595816898053,0.197217233402382,0.365779254859382,2.17370281626819,2.28936908892889,0.713170444003988,5.862173153302,11.4341762371077,2.65923669541655,32.4882081586456
"45",5,5,0.766990291262136,0.793650793650794,0.819672131147541,0.806451612903226,0.801912568306011,2.50267166026037,34.4762810894254,12.129062320074,38.6649921439869,9.86038014668653,15.6258233762292,32.4423003460415,41.1470491878027,28.9736960337564,3.6411431335268,1.62159034160569,0.247451552746497,2.28599467593827,12.4166032650148,8.49776692134821,7.49520582381803,5.67199898419319,4.35069744537349,3.18968677253323,0.530075209420015,8.87679849276322,7.45844190904541,2.49962216814916,2.40297281998909,8.33964576649891,4.21229101854057,8.21086848857965,2.51991685995928,20.3915992757954,4.44301640905277,6.24594929916269,4.78258695925829,1.06724815947378,3.52031958889343,1.98173965657998,0.0720271547255237,0.419545864240178,0.430983639449158,0.147057893411409,2.8500478163081,0.850348670522869,4.3203779191479,0.650817653081197,0.137808945058919,0.391327168360388,2.07419566109604,2.20580023407443,0.605225765534803,5.76921283793404,12.9582999951948,2.36680684449509,35.2719819771812
"46",5,6,0.776699029126214,0.735849056603774,0.8125,0.772277227722772,0.828598484848485,2.94817881766823,33.6824849799173,13.123250430259,40.1985580068817,9.61108221751628,17.3768723171507,32.778499968163,38.3673623676946,28.5008512262977,4.80504467868095,1.85577657625893,0.300555008826307,2.16162968553405,14.7868181085431,8.49795957446697,8.06139078487718,6.19347873766676,4.02143109078606,2.61821252783728,0.432067674656537,7.53891821651664,7.21705320602728,2.36590841175576,2.25299044269085,7.92506054064028,4.43447780851429,9.48213289007457,2.85293484625339,20.4198975113685,4.87757005725463,6.25667074998951,4.39995299788121,1.23844111796839,4.03217767034416,1.65324673551766,0.0735260500926955,0.417880839572937,0.448067414564839,0.0669280552079427,3.43283625731877,0.847880788421755,3.99377207044455,0.630050607287063,0.169118496102312,0.368956540714124,1.80328566265045,2.1663783369937,0.465792241354347,5.90895554357556,11.6632544463913,1.95641389057658,33.2829038751591
"47",5,7,0.70873786407767,0.652173913043478,0.882352941176471,0.75,0.786199095022625,2.59731838965725,34.230681145749,13.3213710578762,38.4118116617327,10.1382523788451,15.3450706349717,32.1239036981023,37.7847445016024,27.6235868789064,3.92164855285043,1.58448400807276,0.306391888682647,2.23539286821504,13.5610857453869,9.374135264584,9.88874046659806,6.16450420285234,4.13400028021437,2.72599463573316,0.680495478649969,7.76948839065523,6.69295930399775,2.7094841177687,2.43347994541564,8.41076584368131,4.77717998633007,9.05094662606223,3.06171781749965,20.6414905619623,4.28635784710002,5.38480855167793,3.99779386446493,1.36457107562193,3.36011513714825,2.15579990769174,0.113677935684707,0.222426956272746,0.340645293985032,0.153407803278319,3.46906503433464,0.867776328319984,4.17926659271834,0.682957745203544,0.181698106837778,0.367344500852998,2.44462393424574,2.5417082574262,0.719486871122861,5.15588564872797,11.768563012016,2.38344537087924,35.7451572395961
"48",5,8,0.660194174757282,0.61038961038961,0.903846153846154,0.728682170542636,0.747737556561086,3.07305544539794,33.5218421051241,13.9982246818916,42.4835116784074,9.73208652755192,16.1054091189984,33.8202945419177,40.8347112749609,26.4300461750818,4.12917839445124,1.09124631259068,0.131205915426392,1.66256189477756,12.1632848406547,9.1462041367754,8.08622973713037,6.54297657563929,4.71473557739132,3.6363522421013,0.596650171364498,7.49960114474552,5.98254856658735,2.34811749054099,2.50680394788355,8.72377748457198,4.48824667817097,8.90414429949311,2.88706742525496,21.3534212028222,4.69133162258617,5.96599661571061,4.64531075983576,1.03487109495701,3.63692736410096,2.04782722472321,0.143966089249797,0.370292056280328,0.282085942958435,0.194642975575328,3.17675110187454,0.867620162621365,3.95211473134533,0.729297373908613,0.209559827285746,0.329748962897665,2.36616217537266,1.68681272144231,0.600754522207021,5.45149035544638,11.8101916154757,2.4333673843994,33.4518014850526
"49",5,9,0.766990291262136,0.777777777777778,0.777777777777778,0.777777777777778,0.78665910808768,2.96386202239157,34.1444900854147,14.2656842054171,41.1827587528181,10.0150311742773,17.1187514101063,30.8476452339024,37.2703714088956,28.1083408196762,3.62785862494368,1.52687100458867,0.230989731556011,2.32178260447013,12.8564148562007,8.56180347948131,7.7977107779935,6.48762660447565,4.48944142113186,2.90992703066847,0.601478493946355,7.12162514154262,6.28920085914369,2.51010422361453,2.37718936296191,9.22084499442444,4.14987287214749,9.34827005528073,2.67466337170798,20.4838220391892,4.59278872670409,6.4833692965643,4.4632364712383,1.12399980609585,3.32599265538598,2.14670191373455,0.181537915187968,0.268161206351802,0.433450045510781,0.154969270445194,2.77648630008542,0.868878073318751,4.46612229572822,0.615339685169888,0.102308072291277,0.304646267559229,2.2086492759901,1.74963980629476,0.778318335073569,5.58154571728743,12.422487252984,2.42913276751851,34.4356910611716
"50",5,10,0.747572815533981,0.737704918032787,0.818181818181818,0.775862068965517,0.784659090909091,3.04739719446344,32.7956986564834,12.0036155225717,42.2537942053092,9.418128406784,16.0608508596565,29.9584083885329,38.8929928523951,27.4598114495286,4.31670282564687,1.68066310263335,0.1908214353475,2.03609584118942,12.6141654553679,9.25386306345108,9.21983842791178,6.51897703902447,4.52317861967335,3.30595987815973,0.695427440974422,8.76949454034378,6.51469461168655,2.54460312919604,2.34065870905466,8.59002440267932,3.77990742897757,8.67431811492552,2.84582462733989,23.2850073075096,4.47042473688398,5.72078359340061,4.82460033028789,0.904278117733146,3.65641212251057,2.5750442949636,0.0848411612114027,0.329219646420005,0.446250945203646,0.172104008811708,3.2533122500666,0.715046495868899,4.35276549240516,0.541955885750678,0.163048679771353,0.353950338530787,2.20154650403761,2.59192848467522,0.732246345196077,5.69135970831794,11.1971355521541,2.59723089440382,35.4431503671037
"51",6,1,0.737864077669903,0.676923076923077,0.88,0.765217391304348,0.83566037735849,3.1145560076414,34.8853492087991,14.5815724060519,42.1665097572347,10.3881507326113,14.9812980538513,32.7911360156412,39.1695580188287,26.9082265943155,4.08727184479402,1.25384807553678,0.231958275235498,1.74680176767108,12.5843052290836,9.48051705904407,7.40648048520175,5.78784753411763,4.09926959538485,2.99827407060463,0.613541533207159,8.34368025424835,7.15642859603259,2.55630820414219,2.01471939728613,8.33273370851619,4.30712318358378,8.95442981180322,2.55434406228541,22.0072444447257,4.42819304815921,5.62926938798161,4.29379653592429,1.17765897016004,3.72200916758519,1.91753776964258,0.0944657281092869,0.342365270630715,0.421098322207425,0.18186370232634,2.967119733173,0.907703602212746,3.93594841691735,0.463600408392937,0.241859010216719,0.411233521824795,1.90361522936886,1.91378062281274,0.645229511638497,5.95662541951083,12.4931784122149,2.55147243819231,33.5091903893182
"52",6,2,0.699029126213592,0.629032258064516,0.829787234042553,0.715596330275229,0.749810030395137,2.6815517693631,33.9899231995431,12.9063869990954,41.7377509391856,9.572544035649,14.728396678839,33.177797693105,40.605896167287,28.3341951992754,4.32756651510266,1.38805850438412,0.152688974197113,2.21867300001377,13.4514700313908,9.09767284530909,7.70845974298723,5.91856256217818,4.20126739568635,3.35313750489199,0.491169371955367,8.38543172783365,6.68722615126153,2.51015165121247,2.80370788907315,8.6613867283035,4.19934515825715,9.30666407050231,2.681830206721,18.3154835807242,4.36539661100886,5.42187413637017,4.5372100702355,0.947803495036778,3.18809030671737,2.04595673395544,0.151663434639459,0.322971837724555,0.297082631203099,0.126213286083295,3.15887994795834,0.968657533563784,4.15251398713571,0.642483328223309,0.081283115411027,0.303407018532346,2.1367006779381,1.96051416351126,0.759254727357773,5.49334864596605,12.5428923996403,2.3180475179065,34.8983466612978
"53",6,3,0.70873786407767,0.658536585365854,0.964285714285714,0.782608695652174,0.794642857142857,2.66076155547374,33.3072803801005,13.6327824882143,40.2038946509615,10.0286719232084,17.2384517438573,32.0296830875818,38.462846816311,29.1612442608266,4.60208447664257,1.63744024708884,0.176589908411376,2.02121361336801,10.5592777633611,8.43145816689322,9.2159116650803,6.29095552046958,4.32578937070037,3.27374419140526,0.702212863168227,6.80022719186208,6.46278641499507,2.23458068465968,2.1247308719832,8.14547724489832,4.94817788167416,8.38983052680635,2.79724223062195,21.6650035305391,4.61074432534325,4.89238556317484,4.37000501828969,1.1599589663978,3.35728244169956,2.0306346200909,0.0564204313881412,0.380687062852812,0.366318083175206,0.191120860020846,3.49561768649414,0.595034202032348,4.27412549945009,0.773094536626956,0.207779863055545,0.380276440341206,2.14388404029983,1.60475777616318,0.62299081853985,5.81450945009855,12.5576909358966,2.49335851160909,35.033149809291
"54",6,4,0.640776699029126,0.605263157894737,0.867924528301887,0.713178294573643,0.742830188679245,2.95850827583463,34.3794602128314,13.3743077931479,42.5973226509179,10.0468635072821,13.8219458235454,32.5323657729248,38.4038185094583,29.154515130035,4.14083368028809,1.70534580568449,0.229399202800251,1.7592266109379,13.3072740001205,9.2867919423064,7.46221578257926,6.93118998065458,4.42556839130478,3.01035866941701,0.661687812838487,7.17181517886138,6.48311456810463,2.18972308916559,2.37121839793611,8.26266283959096,4.76119887342264,8.92715584624497,2.83625239555837,21.7666647865387,4.17625943120261,5.6760424837143,4.13268037068119,1.07917750967116,3.87240164389635,2.1227764194174,0.0754629498835829,0.334913394183758,0.350502216688503,0.178581530280773,3.3369235030888,0.678267257449993,4.53282210778373,0.740334049976116,0.169808993540095,0.224148639702957,1.87612238653134,1.84977843388552,0.655638934710586,5.54768192572416,12.0610213527501,2.48184098416591,33.6137519031013
"55",6,5,0.679611650485437,0.610169491525424,0.782608695652174,0.685714285714286,0.717009916094584,3.1064607030471,32.5000623433167,14.1983976402058,41.8722278009071,11.3317742041616,17.2947269441922,30.9025523839484,37.5080945467234,27.6966723678081,3.45716402677017,1.63472629450144,0.268261817779378,1.98896521985113,12.7343584261996,8.62830944404377,8.57464866028923,6.77868729709199,4.41502101873535,2.93793162466821,0.567954532302997,7.47452052222443,6.74253706476345,2.79116534615708,2.49335777411407,8.41457372636734,4.77866955018796,8.83995878985511,2.52762180982814,21.4575770661666,4.51676958343557,5.80297847686592,4.37136750311357,1.00226622621254,3.48884897410333,1.97645562776382,0.153653227909358,0.311874100899392,0.294969214131312,0.116829767666734,3.29246928712465,0.758712834167353,4.29489256620745,0.698970180771543,0.194008253829986,0.364783374658837,1.94980352853445,2.07561576167997,0.546539405918302,5.68670623113868,12.223741722899,2.3158507048791,35.6292072440091
"56",6,6,0.766990291262136,0.754716981132076,0.784313725490196,0.769230769230769,0.785822021116139,2.91561057549665,34.8282916384123,12.9183101240773,39.5500917116141,9.60342678751875,16.6847020624348,31.1848882174229,38.7344765609363,28.6658830261066,3.81821086080995,1.44754812595137,0.207064736963668,2.2222748379764,13.4112912488637,8.86890677468448,7.98640135628194,6.53078551714068,4.70389688264918,2.9781936971551,0.749255011234192,7.25483751490614,6.94513278491018,2.59622966443831,2.73625487796776,8.05027764272328,4.89710563796449,8.96129183901649,2.88245431783248,20.6110908934897,4.62874495975345,6.04604447778447,4.44643418141742,0.772495347643804,3.4126833171271,2.02158520893839,0.128568380438837,0.39664690137141,0.399088803630277,0.172679347230121,3.26215901372726,0.916786151929065,4.70230586299456,0.580751780400438,0.0838417910798234,0.233446725472634,2.01728735218543,2.48890243446252,0.592614948057812,5.51643275960548,11.9924087618753,2.8879489945336,35.6005704516202
"57",6,7,0.737864077669903,0.71875,0.836363636363636,0.773109243697479,0.815340909090909,3.110903314458,33.156486506489,12.7348583490079,39.464965076343,10.3771625817242,16.0515515055992,28.8259501618724,40.2056783307066,27.8422029197402,4.19689610437431,1.50898301872829,0.238894513011119,2.06906569788103,12.4268993600589,9.26128773705069,7.64551414806046,6.75600201445129,4.2871836675562,3.1878475063332,0.707702230787359,7.21013236572065,7.13026721402035,2.51671386019792,2.47884118406089,8.42640940664667,4.65581282215612,8.46484281013417,3.05307231969851,23.582882714443,4.59327825828633,5.59152969538837,4.64889124207107,1.27125323419848,3.75203744303373,2.07305057712038,0.0951508398208434,0.339408502842247,0.402479263268696,0.12303233205227,2.98608977355716,0.614871401010761,4.42836067426014,0.476656160525336,0.184721774535132,0.291056506314107,2.25231786919323,2.31494678530269,0.476257565010635,5.48899492053183,12.5512127233215,2.44483179938191,35.260946223103
"58",6,8,0.679611650485437,0.642857142857143,0.947368421052632,0.765957446808511,0.782227307398932,3.06295927039233,33.8686062146222,12.7456805707427,42.0486640620251,9.15074206752599,16.6989150561829,32.6355546663498,37.9684146340358,29.8937813543725,4.38779908446088,1.44875367424605,0.226168233485597,2.2495487344543,12.8399310728238,8.30750684926976,7.87470805566773,5.45728379212011,4.39182359644065,2.92871185534183,0.442897350361242,7.81595794238729,6.84439589601102,2.08734733581529,2.1186409985152,8.34092539893839,4.38224964747633,8.64961741823943,2.76328069308042,20.7535332433139,4.73367867595362,5.80709098582623,4.83062452794219,1.12574067727255,3.47710602765671,2.38666498987512,0.0758177077644772,0.316085560839029,0.37771270238614,0.1119915044129,3.3212535493942,0.820828682512299,4.40431882314586,0.65150779498164,0.184336060663665,0.375668546080213,2.37173636880452,1.81359037352585,0.645225260033395,5.36455282538237,12.0313257891035,2.56555455449923,33.6718038134528
"59",6,9,0.776699029126214,0.714285714285714,0.851063829787234,0.776699029126214,0.847644376899696,2.90094376641639,35.8540636538173,13.0666374700474,42.369733474402,9.43737985571866,15.726445750297,30.0282860953744,37.1547806306176,26.9798210820903,3.68111317955508,1.64232721284912,0.256915802721212,1.75058359587899,12.6772982578475,8.71857678251904,8.24168763467095,6.73592338332479,3.87964459718776,3.26546920155089,0.421693014187891,7.49782134809652,7.04194096386757,2.2356784411175,2.33589222704578,8.8218952960746,5.1523267042423,9.52722901806771,2.77045484940539,19.7445548654283,4.63461129896142,6.44131273761325,4.65255282787872,1.18172979467932,3.3707805829902,2.06497335011044,0.123875977290033,0.326917364508682,0.421393916199546,0.0708725658104534,3.0912893747932,0.980037863109822,4.21352809114313,0.602283644785273,0.201353196030607,0.380444871032946,2.13975253505127,1.87701412120638,0.70364080544539,5.55751724552882,11.8615534129076,2.38082125795032,35.8655822178968
"60",6,10,0.699029126213592,0.644736842105263,0.924528301886792,0.75968992248062,0.801698113207547,2.8476935541356,35.0495434762119,13.243465635473,41.4213549401283,9.34413831799241,16.8345888528279,33.5261537730546,37.6044805590019,28.0859776008953,4.46610105008961,1.49839101744157,0.273071853299464,2.1576420978061,12.4823291158667,8.42556350632303,7.94310191424407,6.27225299099594,4.40182268044925,2.94800736510545,0.576593832785282,8.25268966694337,6.58585283411868,2.49201759897691,2.7291139859414,8.73834793335803,4.33085231064348,8.76054969764323,2.70223122578922,21.6822564204405,4.17394658200368,6.216019854153,4.35750841081113,0.888692391110232,3.78209704820323,2.1022666754215,0.167308486774917,0.237445321786315,0.44043161470219,0.149476437130132,2.60998427904524,0.93667877094402,4.42934256724081,0.780809255300009,0.186463653528876,0.398038198850524,2.53769527303967,2.08749625325712,0.6642210188643,5.23476392318355,12.4294645788197,1.9282544927815,34.8782023236464
"61",7,1,0.757281553398058,0.677966101694915,0.869565217391304,0.761904761904762,0.831998474446987,2.8930227087092,34.0507686794223,14.3331455438999,40.1681581897393,9.11311779627651,16.8560315424219,32.3462511200142,39.3488813600047,26.3624790805768,4.14652653462823,1.26236939683629,0.224072284676671,1.56388866656907,12.1165209933632,7.7519355363439,8.57238216274606,5.92809356067052,4.52029989485734,3.26635288860429,0.642353106364488,7.99640050985154,7.17259307487938,2.41524361028204,2.49578223605546,8.56630243784831,4.28494099809871,8.89743735402122,2.96274465347514,21.724337272633,4.66575127701628,5.84958796391279,4.73315393526988,1.34051746888197,4.08122703718428,1.98536926006167,0.118211368247565,0.427332464354508,0.499097276250552,0.139126627376018,3.46864465300582,0.735097351883205,3.87995288963341,0.46374218243946,0.114989663810773,0.38974582440838,1.9879969509344,1.84364295986564,0.720774176367554,5.71163851354493,12.2397633705127,2.5902814425677,33.1180616117146
"62",7,2,0.766990291262136,0.745762711864407,0.830188679245283,0.785714285714286,0.842641509433962,2.74122005939237,35.406959064511,12.1138653024413,38.5293697555293,9.16863281998163,16.1338704315832,32.1779479471864,37.7315911216135,27.4138784001919,4.42200925450707,1.55405850888313,0.277112136445605,2.00988896089015,13.1419345479413,8.36852823658037,7.92086703833229,7.03041854273521,4.49636559232702,3.02225365047203,0.628711862500171,7.88886387211914,6.93154241359638,2.32895260962412,2.72877136024342,8.2572816955187,4.38543001669894,9.14246181446449,2.66774497957182,20.3315122611105,4.39401543896773,6.33483348286723,4.69031207174827,1.20279931795652,3.62979978437607,2.23606848852665,0.172186087227533,0.253045292728554,0.406665572366792,0.125367048432737,3.57371605576221,0.694061947138669,4.47736183069693,0.619809313061956,0.167617333644224,0.28991568823368,2.29301815619419,1.92045222263608,0.671890261390463,5.60677227567716,13.4343912340139,2.67255153643488,35.9399762643046
"63",7,3,0.70873786407767,0.660714285714286,0.770833333333333,0.711538461538462,0.790909090909091,2.71543439703758,34.4957889473496,12.839674110087,38.8898253070087,9.20717754755417,16.1471780056259,34.0419593267713,37.6338018515326,27.964004708437,4.00626739957274,1.55081112869075,0.26593374470431,2.18635220084638,12.3536291896258,8.53946618066071,8.7168921692354,6.34673269503298,4.49509240877344,3.17072869743616,0.544977547024672,7.48074828154318,6.81443850462805,2.45846205632482,2.42151490268211,7.68827171448454,3.65001372562982,8.76010220473734,2.73434834540527,21.7830781254393,4.8475698612538,5.63766964473699,4.18360715369345,1.00373366382383,3.44305005445867,2.26344603943459,0.108428148404827,0.343881462049579,0.308460613597932,0.097626026718875,2.90578201876589,0.797052378744845,4.2616540389058,0.696580991405001,0.203443744897174,0.350345823787454,2.07277608927338,1.85647543818608,0.623269357017703,5.48626485571572,12.3662140889039,2.48478862497808,37.2647230615127
"64",7,4,0.718446601941748,0.666666666666667,0.925925925925926,0.775193798449612,0.816326530612245,2.92768128981329,33.5765830548886,13.8130617139578,38.3179142026023,10.5083217881852,16.5002301851745,31.1776344775803,41.1080461449307,27.639417683957,4.27641711235959,1.44513454275573,0.115626006688113,2.19507433305452,11.7652652892681,8.78897683820516,8.00608322219597,6.62488322481197,4.4867397543532,3.00391066217975,0.568641974068165,7.55178224245318,6.00882758280644,2.22867526008837,2.53822735662932,7.82613517433475,4.72932777063932,9.12149438243086,2.78425969680781,21.0494966061191,4.3763948770065,5.83185226011863,4.41750745399373,1.03104868313177,3.52893822658777,2.53153468579511,0.141630400137966,0.321001030064952,0.342526743316,0.229102856949003,2.84504471713749,0.91611692747957,4.39226922529235,0.663627352582969,0.135800283285814,0.329566483941352,2.41817669026921,2.68022062540571,0.596203431108001,5.24071763825716,12.3794854330218,2.69218107042824,35.5092604403953
"65",7,5,0.669902912621359,0.636363636363636,0.890909090909091,0.742424242424242,0.75094696969697,3.55601177652189,34.735504161504,12.5261038653418,43.2214687385069,9.49434597391358,14.9561797398667,28.8999788208792,40.4860266572577,27.046751685589,4.35063731325314,1.90095979510376,0.188710305903958,1.99433453524879,12.9036907873847,9.42947189760739,9.3054124935511,7.37618442597616,4.51907352010285,2.88917630469664,0.521091000977684,7.86581669842454,6.03811061130156,2.43187042352722,2.44924080117723,7.99133630149788,4.37538742361638,8.95019857035014,3.11966968937087,21.9689763750813,4.69833939364387,5.35278792019252,4.74586487025852,1.03025036591635,3.58223220301719,2.20938355203509,0.157484802048749,0.203081109595012,0.466012062495831,0.210171519647286,3.12800797735034,0.827422526045284,4.35906757177176,0.610805060044337,0.16688885557712,0.238656122818242,2.2374119728666,1.95381590097563,0.656831761874325,5.77573720805854,11.8585878671533,2.53526064626168,34.6083360873015
"66",7,6,0.757281553398058,0.727272727272727,0.933333333333333,0.817518248175183,0.777713178294574,3.18911147018363,32.5220657748218,12.8845531100885,41.3376994626264,9.91414617561767,16.3890976998114,30.1959332880613,38.9765156872201,26.2057781460884,3.75092834867784,1.50500511208497,0.286076458910951,2.08494144632301,14.0075783920511,8.78474857065664,8.59252334763848,6.3171238483071,4.54527707306906,3.15124235495761,0.568443932656743,8.4065195315665,7.9410317554354,2.38752504001934,2.35144976485046,9.21361628403117,5.41998266802081,8.84677950029936,2.74176121860725,19.5110674758847,4.42966328728951,5.82828630439185,4.68386818652885,0.923317557577971,4.02388694637406,1.87904946131057,0.144767531924978,0.370604378016108,0.358563307129001,0.200016081727626,3.25470615651376,0.627315592582653,4.02754500826048,0.655366676296688,0.227787363878458,0.300603698157197,2.01809430433705,2.16783219824922,0.6899259437781,5.17023622105894,11.8500868038307,2.32186519476239,37.1012595123685
"67",7,7,0.689320388349515,0.634615384615385,0.717391304347826,0.673469387755102,0.695652173913044,2.58161044094827,35.8708843032357,14.5123845278197,43.2276090809904,9.77409574498055,15.9740726375921,30.9846946787243,40.7098986885112,30.4219147528779,3.60818586687018,1.60408482430747,0.201690956305733,1.85823641958269,10.7850361871701,8.96305192594178,8.19469568645329,6.21503828923729,4.07502918279337,2.68681470205125,0.457849114719185,7.41958227666362,6.6764726956668,2.25066947386886,2.31779033873548,7.99801342851366,4.31196975799145,8.99910279562101,2.86762860370092,21.6505879022443,4.50036666952596,5.54896728487562,4.38699542071726,0.9969627944555,2.95251376373206,2.06044007776258,0.170457621678784,0.404032314913058,0.450993362284372,0.111901724764432,2.75856499627571,0.836391716278055,4.158514862309,0.665660051650019,0.149376249861329,0.366597259941099,2.18092663005802,1.4787305271774,0.649501940448294,5.52322578897992,12.4688513841069,2.8603181930739,33.8349482447493
"68",7,8,0.786407766990291,0.743589743589744,0.707317073170732,0.725,0.807238394964595,2.76004764803078,33.3089166508157,13.8775861702529,42.1440106919897,10.0504403264251,15.3083459154848,31.250954024057,39.0042426831627,27.7291163150899,3.84196226781488,1.2561269594535,0.242084136890433,1.89988797188093,14.0095747767487,8.7982099821057,7.5610154037499,6.25797942935953,4.32829134584226,2.94497739743154,0.478376952639317,7.52509580538509,7.05790094847742,2.27878886638195,2.36465398377023,7.90150046225666,4.35751538642703,8.60065186788622,2.64883701855431,20.9521660011853,4.05709072568247,5.92625204219487,4.22582247201811,0.972107870773615,3.46826726416491,2.12828576846832,0.0726433546330973,0.472208032503118,0.461367924867679,0.179210880134584,3.19635590011484,0.898393337091942,4.3719300110709,0.56676254455769,0.194656782434198,0.352770399649112,1.95530112309093,1.9681162882152,0.555243518652249,5.27813963081125,12.322282797239,2.4712411977353,36.2146141692848
"69",7,9,0.718446601941748,0.716049382716049,0.90625,0.8,0.778445512820513,3.17463239380884,34.6085353149429,12.6116840593323,41.792355160813,10.2944833515804,13.9909609647872,33.7893663831403,35.44209055627,29.0229178482278,4.17072530828049,1.40558761678682,0.254104029360237,2.28047953496334,13.4082883933764,9.17306009472504,8.06032328498959,6.94483776512168,4.31656468673267,2.90095519518554,0.405733660089176,7.33622371820163,7.15157732843677,2.52353112422948,2.56286670678534,8.63055128143771,4.44257660428957,8.37547891401718,3.05809338490555,22.3587709008469,4.87585120639335,5.80614639924842,4.14191762998497,0.975700319258331,3.75350507031428,2.05195492087635,0.10120222262348,0.27665680446601,0.360223625379394,0.154760583222091,3.52346100115896,1.03837690145707,4.62376191147313,0.511399011915952,0.169614162990508,0.349281116691937,2.07284486494104,2.05560041055351,0.51644239604066,5.29461404113741,11.6898499614251,2.42548740692816,34.46825536131
"70",7,10,0.660194174757282,0.594202898550725,0.854166666666667,0.700854700854701,0.773106060606061,2.86503613688971,33.2840352582908,12.6864008181944,39.7552437741408,10.8422605892454,17.4303518221888,32.664717082707,40.3958692818132,27.0959528322539,4.31289545005946,1.89261864815048,0.180144827160612,2.27907762572338,13.4573531882296,8.66455656171007,6.93599712318725,5.80562700319894,4.08119174482727,2.82970499039093,0.684002160413775,8.63998756968565,6.76271687614843,2.42465656703144,2.50287054851914,8.20347436084687,4.1082006517937,8.99615399976889,2.91097345823252,20.1526402294059,4.05741265980527,6.47772161412431,4.76870790870738,1.25174703988656,3.57377916213703,1.82917741163813,0.18521079661168,0.384657667835136,0.498232977575028,0.133401177324641,3.24266054929645,0.765655404544053,4.5113516647198,0.687667300761199,0.128312240589469,0.222192968335883,2.19255538552687,1.74891610809798,0.791686927062088,5.48901685676832,12.4115375034439,2.18047275832898,34.0878294706678
"71",8,1,0.70873786407767,0.685185185185185,0.74,0.711538461538462,0.793018867924528,2.59186680939691,34.3922988836392,13.4575700798833,41.1976153429758,10.1750524519062,16.7930287456711,33.2988481662222,35.7641421825374,29.5925460075499,3.75543135698527,1.13273593563784,0.267129879672766,1.48400180768172,12.6930992125728,9.03159932560728,7.46544160583179,6.44370104463567,4.25763999264853,2.91805206616343,0.42109809542184,8.6068823759367,6.86715948855632,2.2270434243619,2.49808918707531,8.66807658646855,3.91959033462023,9.12664748410021,3.02132012725876,21.6013200343068,4.5578233568373,5.94656147929055,4.18396441822926,1.25828849248697,3.71479160191454,1.97223470192986,0.0838547187241978,0.30094333017072,0.419085339861497,0.0953822815758912,2.64616259947189,0.845880946324541,4.51350998257656,0.715553182184834,0.124062862232341,0.317887451726086,2.30087557886373,2.00979813825774,0.550153171158169,5.64237700353834,12.2766480253503,2.33040833506571,35.5008490442181
"72",8,2,0.689320388349515,0.647887323943662,0.867924528301887,0.741935483870968,0.793962264150943,2.82441963864695,35.7293583536439,14.47743073155,39.9951760581741,10.3619521991771,15.093013009495,31.957211101498,36.9417647646959,28.6141423855913,3.43989786530188,1.3432854212921,0.233049535172627,2.17617413248448,12.4287469742844,9.19371393107229,7.23009917823958,7.52875635480465,4.1182954834805,3.46758383979984,0.462606329031418,7.82089776195168,6.98750651184424,2.43815840452191,2.57720797796154,8.16780245948579,4.29944767965734,8.97329399128261,3.09739695336545,22.9665780001291,4.53099099948356,5.66148950050006,4.3604239449703,1.12719801565107,3.7873876568543,2.23095222060545,0.146518952557684,0.44841590851639,0.404299164074284,0.143363038173993,3.63430436803194,0.563910410681936,4.21213606634745,0.534877945055271,0.132411512733985,0.33438848907108,2.03128990183646,2.02078614659053,0.637660598492541,5.40900785626191,12.2102825927524,2.49916878692548,34.9813818207545
"73",8,3,0.70873786407767,0.682539682539683,0.811320754716981,0.741379310344828,0.76,2.52355703626644,33.6701601106486,12.3365659713454,38.0210619982469,9.4808423241023,16.0518289890845,31.4458659842443,37.7047885215539,28.2848824244248,4.39222046716594,1.51572818827244,0.294159794330495,2.25093079700008,13.2106434395256,9.0276109117467,9.01189995723657,6.21950990301884,4.24069061463747,3.32350798753086,0.784048573989438,7.6506444749798,6.73386322002473,2.19703288237398,2.75251133843925,8.17522220575293,4.20391437848495,9.20574336887164,2.83420885784331,20.8966370356004,4.02262930468402,6.11524755764903,5.09211180259865,1.07160653753521,3.35501093446123,1.98684233124667,0.170456914243951,0.376422706405844,0.459365623030618,0.149018714709277,3.14781902284247,0.63551543075978,4.35758595145626,0.717506666496849,0.135180442523814,0.260406782371663,2.1890339223149,2.56633165222547,0.686144431673438,5.16556421624634,13.4407514095552,2.70446322595408,36.6081972318392
"74",8,4,0.786407766990291,0.838709677419355,0.8125,0.825396825396825,0.811899038461538,3.05893424765979,34.1574390222414,12.4422565716604,38.8719133698876,9.22770190501,17.0457280021401,30.2102414078166,40.2530019776734,26.7169618498533,4.29432077402181,1.40806717590934,0.297938260412184,2.33102830521973,12.6336338296542,8.52705084515976,7.83510592658032,7.03564613308538,4.37736086434734,3.14889166357681,0.5766889895849,7.54404304441744,6.52210794569367,2.45199535205474,2.56768254242788,8.08766423360558,4.78681107382136,8.43743179973621,3.01866754890429,20.1955757504035,4.21364959140316,6.21454638338704,4.68697980372061,1.21039912885,3.4558264533774,1.85766885811939,0.180597954013499,0.410629338839448,0.437948299493154,0.14577318866225,3.27009249507971,0.802964149391337,4.13455872257694,0.806484636312752,0.15157406713556,0.451971804822938,2.80017194014799,2.09420436953227,0.654675244142243,5.89945731157603,13.546505765588,2.90351383632408,35.1351340528475
"75",8,5,0.815533980582524,0.773584905660377,0.854166666666667,0.811881188118812,0.840909090909091,2.54399725175361,34.1226170035981,12.8806213336019,40.5213059199843,9.34673823818086,15.9897551194406,32.4897685673638,38.5532519054594,27.8076290387399,4.22918914946448,1.33388398538908,0.226724792969597,2.0081243374681,12.5678518272086,8.94331221485217,7.78537282891486,6.75393050672326,4.11773360367654,3.20493739368521,0.434703858954837,8.43370033523315,6.65783777337407,2.14995065068974,2.47659115963503,8.54134048904789,4.63832001284223,9.13569779503448,2.88430918765171,22.2314269877407,4.63886605354719,5.49219649939603,4.52266067867555,0.860577116646033,3.85917426167308,1.98019061620394,0.0958498997338199,0.384701992363885,0.36970163344566,0.137015209568878,2.93439127824583,0.98014985861292,4.28584097679814,0.658814651809436,0.187197685594512,0.390247775439011,2.01079966882313,1.97738761494379,0.670986888638156,5.70249285955516,13.3886863027771,2.2220452790351,35.0272964845416
"76",8,6,0.737864077669903,0.770833333333333,0.69811320754717,0.732673267326733,0.751509433962264,3.06959394257962,34.245519313915,12.6545746616096,44.0348722963195,9.16190314807386,17.4961193481607,34.1182102053347,38.6836826104494,27.1877712956933,4.07672541784792,1.50390010591636,0.197201801614564,1.97650596198843,11.2106348696018,8.32275147086854,7.52692991532643,5.74507211217356,4.44693401651065,2.72324985592646,0.704531187592995,8.43253488426232,7.33593377081886,2.33703117734562,2.07802570821115,9.00867979315712,4.22804581260061,8.79210209513105,2.7845681017185,21.0096853616135,4.34919230892982,5.99253966287927,4.51465136363217,1.2028739547413,3.61916328695566,2.20433860671005,0.169798903738883,0.422501548733881,0.346345626949349,0.159520995335823,3.13354534476859,0.927092605337965,4.46628161253921,0.666059366464604,0.172444140711242,0.294143555163852,1.94584608165785,2.444642071402,0.70915207037188,5.92101461757639,11.9568547936472,2.77191932212371,34.0909167463864
"77",8,7,0.650485436893204,0.571428571428571,0.869565217391304,0.689655172413793,0.759344012204424,2.96973841983943,34.1640834109417,13.0479943011418,42.2065465699323,9.50916406475747,14.5403877626603,33.7183276551804,38.9541315063656,29.4834310839815,4.16398153869125,1.50744447378195,0.137407781620905,2.07398295839756,13.1013868131263,8.98171714894763,7.33442837286385,6.33521879666132,4.19436453248263,3.22157225493753,0.409155333565209,8.3855659525483,7.06435030006948,2.38893491979134,2.43439993537082,8.33217737472617,4.80834337814933,8.47746787957347,2.49961271861757,20.7298949487388,4.21468423777211,5.38225147344229,4.49302716603708,1.19178676365874,3.36443782179535,2.28585794746302,0.150112720735053,0.29235425318741,0.307919833283009,0.144905961796391,3.20986175037528,0.63364816375711,3.96355165409842,0.558774176918695,0.15102480325329,0.345363730612686,1.78606532468416,1.73556459418082,0.452613826088634,4.81312733315661,11.6692245797477,1.71590052429495,35.7334501584495
"78",8,8,0.699029126213592,0.652777777777778,0.886792452830189,0.752,0.803018867924528,2.83045502178114,34.5360361939873,12.6299522420658,40.6788226035233,10.2688455715285,16.1232575120469,30.2713488520203,39.8597960184357,27.7568054942344,3.99970636637543,1.74832929710643,0.186013739066279,1.97226564979232,12.2265864961656,9.09343991066124,8.91135074737549,6.10688237847977,4.35886616651576,3.61891023790459,0.46998198820221,7.24350521994508,6.24477966180342,2.25732122953737,2.51440629356859,7.95290109283393,4.1090200109105,8.53639068948397,2.63014960984104,22.563642965434,4.51911355294577,5.84974052192358,4.22619625943594,1.10388925437757,3.43520227650792,1.9566838525954,0.132320518542282,0.187626329300521,0.389981095825569,0.126153059548065,3.3544540838137,0.929589040664904,4.9749563124814,0.632156393135514,0.168698483920711,0.187468645103407,2.00062596676829,1.73747079775176,0.649425078277801,5.79938237523075,12.3427173031682,2.30427024091565,35.3534571771719
"79",8,9,0.728155339805825,0.721311475409836,0.8,0.758620689655172,0.761931818181818,3.00390623153386,34.0535587650527,14.0535207592104,40.699022897136,10.1128555828125,16.5772015751302,31.0216296231532,39.8400496319475,28.4802603788471,4.19842451177276,1.7679462739291,0.257082066489333,2.07312855655527,11.7944776750368,8.94851331838991,9.75604265780876,6.03017076803142,4.40522338856183,2.50380063194378,0.46019074025424,7.79987656151458,6.84556269299736,2.59304857570569,2.2485922989955,8.76842850454974,4.2725982380358,9.24413947859956,2.77562320370176,20.1968429724656,4.67614680585108,6.39530487196233,4.48959941214879,0.830587298495572,3.69305435638582,1.8148259256131,0.157228987342445,0.242231992577343,0.257950647693126,0.105183621023128,3.7439943057758,0.843914347353193,4.1089236218019,0.591243237410901,0.134458298575839,0.344115154441191,1.83774637420361,1.9813880556954,0.650408788673613,5.23529584565171,12.0282852112049,2.22266268766595,33.2003686309314
"80",8,10,0.718446601941748,0.607843137254902,0.775,0.681318681318681,0.756944444444445,2.93087644815484,35.7112247716998,15.282676098213,43.4997349596976,10.3779638065935,13.9003030586733,31.8342736928969,40.4632252548568,28.6980170729819,4.35995653249377,1.81104843200533,0.225314190095978,2.03356890842724,12.4450831585299,8.11584849646827,8.0975946672702,6.27450881625191,4.34043831987223,2.85179507137854,0.703357655083413,7.05933273551008,6.17799203993933,2.51011088743179,2.40374723979567,8.15652939112654,4.69517524442956,8.94892689865921,2.97829439069915,19.8264651232081,4.23118903912074,5.01198223664406,3.97016046213077,0.975194599369971,3.92648760185008,2.36788116099817,0.140685768631568,0.358824345039444,0.479781493351571,0.11579600408461,2.90694433207364,0.785916797994235,4.33854354651839,0.664299939947934,0.202042730036248,0.308248983582264,2.30012992981861,1.92121022711406,0.799844642815469,5.35900876112742,11.4837209525758,2.70246166579894,32.0913261314947
"81",9,1,0.776699029126214,0.745762711864407,0.846153846153846,0.792792792792793,0.830693815987934,2.73734823439385,32.8151324293477,13.0768259390663,41.1673920790739,9.87235575238727,17.345600561366,30.9986388172929,38.9266073406858,30.0938810540439,4.14758132139524,1.82400432447145,0.270179040056717,1.70790054188436,11.8828024919226,8.06688568345433,8.21068235891643,6.82299886303114,4.54989433155192,3.54507434483048,0.513343499108085,7.65799441636048,6.32663204005012,2.38523394737551,2.48431520183628,8.33218420711781,4.07341601319886,8.89304822357801,2.89523584436066,20.5601853087168,4.87099866745355,6.05695905130397,4.84377920892867,1.20095082383058,3.69334205508068,2.0146489095504,0.165634776909835,0.41789915042935,0.347115358210748,0.169114423316789,3.25865966084957,1.04925989841969,4.31709337725447,0.670831414260014,0.127442324073665,0.376869640253134,2.36930226952763,1.85668664021171,0.685659654106708,5.59776798195536,12.3950888488039,2.83145650511983,32.8267363585632
"82",9,2,0.796116504854369,0.760869565217391,0.777777777777778,0.769230769230769,0.843869731800766,3.08208235329174,33.4450771160633,14.3505888467328,42.1170218879728,9.71003689341302,17.5109297663818,29.2440773043457,37.2315646989657,27.979736980326,4.01490981752414,1.27522374979872,0.234771780408561,2.11527103256646,13.8493917226356,8.7247679243588,7.85339458044687,6.52566302048959,4.37733719837411,2.8698613814064,0.574332490230722,8.33604246052181,6.56311593632752,2.42603042701638,2.76004012514248,7.99939702951713,4.52672898318062,9.46236378562018,2.63056230181803,20.6258598217027,4.09465569746757,5.61296438328474,3.93526302362943,0.980277883395791,3.44708487646006,2.28382834925818,0.112215758623824,0.29653727912003,0.376380193949282,0.144202763793199,3.04645138491034,0.857413659690526,4.82417244615493,0.658319366226841,0.166899787889426,0.339474597319322,2.05635767774666,1.86803889464947,0.421161033228951,5.68918303749088,12.1889955557028,2.24563278391902,35.5250598900657
"83",9,3,0.737864077669903,0.695121951219512,0.966101694915254,0.808510638297872,0.831664098613251,2.64259074938566,32.9435274081524,12.3876000367558,35.8275733488548,9.82595697205491,15.9143482746446,31.766103713417,38.6673881338158,28.1295124604359,4.62194119753721,1.47764231459221,0.205627443003635,2.18760944677632,12.5097343242853,8.67165925440464,7.88474023387421,6.54228105630816,4.30921300074848,2.83033964921475,0.710939144747268,8.03815210082194,7.40481033449257,2.60845964159195,2.73462596325821,8.49798176340741,4.90385802619923,8.82842466269252,2.82739354744348,22.1255812109809,4.42969787814341,5.27640705254949,4.59198974222883,1.02796094791961,3.42539478356115,1.69358479346761,0.0998120250772515,0.332881926417842,0.419573982782805,0.131085297682554,3.57337160658591,1.05450233673413,3.98140463701144,0.551352367481633,0.126227852492912,0.266406193368823,1.90949629776213,2.42975948704782,0.601224947552308,5.51530304223191,13.9391832072248,2.89068268135184,36.1111021561917
"84",9,4,0.718446601941748,0.628571428571429,0.936170212765957,0.752136752136752,0.804901215805471,2.68033358938455,33.8200616590482,13.4643919617815,42.0111186288559,10.0992034549663,16.6007048796839,32.5388664115408,39.5484989460011,28.9417871128434,3.81480256635386,1.46792720994809,0.209508939966471,1.98603453971467,12.6023613874269,8.90413892163722,7.55852204163211,5.89745045563896,4.383937774347,3.49926334819228,0.6206011708047,8.0036155226835,6.99071638357025,2.37174222386694,2.30453450553165,8.44574711178655,4.13572730618443,8.88370079105636,3.08234744400356,21.8493958091835,4.07595438595295,5.62943918223727,3.80216463367088,0.914656797833592,3.3163415881415,2.04594318696391,0.126083760519244,0.28674537170383,0.40223215145712,0.111572453676972,3.26151787256142,0.718373487867098,3.69215776988576,0.545447207702823,0.19281831566411,0.347371631480528,2.28213436352948,1.73245141374734,0.608764572889339,5.53311830897924,11.8978565123062,2.63880121220918,35.1755849678067
"85",9,5,0.699029126213592,0.676470588235294,0.836363636363636,0.747967479674797,0.757386363636364,3.2370454185368,35.2360034533143,14.1884765680892,41.153011083388,9.52319841483435,15.515094994215,29.7151104858803,38.1007605110206,27.3841231712346,3.50238451246416,1.30311936311787,0.204230415154772,2.19377335511606,14.0919502547386,9.2801914818465,8.50328253334969,5.97409585924912,4.48052437649601,3.1126468188751,0.465706978223937,7.45013822789546,6.23937414985093,2.53483644068287,2.64744620808818,8.54579145750452,4.41799241390135,9.74367855776617,2.57787845270978,20.7892980032119,4.77788722458881,6.2082448485864,4.58577084797797,1.14990428342217,3.66838915257017,2.08354554828107,0.10170743484589,0.30679893254022,0.448010265459582,0.168367483404173,2.73911343397271,0.826390039396326,3.89972276072765,0.719794787582142,0.161279379075128,0.341995987865596,1.9666505256314,2.21700807916634,0.60812443358319,5.83236783278523,11.8540489815367,2.36444326100668,36.5384473555339
"86",9,6,0.592233009708738,0.579545454545455,0.910714285714286,0.708333333333333,0.674582066869301,2.95743828689496,35.4939956824692,14.6412505434941,41.9794697539628,10.3276554472414,15.308746461589,30.3861514599342,38.1038593464042,28.2367929700961,4.27029484051342,1.69115970708784,0.263414102304622,2.05551087030759,13.391339988381,8.97315438464503,8.61142866750884,6.65834582427653,4.2793297148032,2.98418580644323,0.665645028084718,7.3305179367781,7.1648798156763,2.65537466209935,2.51428130071641,8.45768399714793,4.16847257517361,8.75836609920321,2.69755220070582,21.4415474651716,4.26610230933643,6.08400263852507,4.74176438677802,1.1255889387383,3.93350657521404,2.20611999955318,0.149988366024983,0.241792524223417,0.38971364190224,0.118684376825715,2.96190325767945,0.797809701596229,4.32100416787686,0.598757134748253,0.126229897596641,0.339126233168505,2.26869176435085,1.64165114006072,0.698396228265398,5.65168882530151,11.8268425681861,2.6723730620855,35.071763654948
"87",9,7,0.689320388349515,0.590163934426229,0.837209302325581,0.692307692307692,0.773255813953489,2.80474572330947,33.1711271566414,13.2578975056106,41.4480415366413,10.1429148103125,16.2377585096421,33.1451935771802,38.1316918801527,28.9736676386687,3.97644980057305,1.68937398860729,0.185062197936809,1.87746602575853,12.6830509722054,9.72302437983291,7.56271202976991,5.95683839336556,4.8175719637589,2.59379933843725,0.515794309354433,8.4330890661474,6.79704684269086,2.28774115243449,2.65261156943706,8.43449367876105,4.48654937063939,8.62934351073871,2.46501419195568,21.3365464232512,4.31830936688676,5.65927202869503,4.47013492186233,1.14209013418232,3.73482891626572,1.8375111748575,0.139551017878657,0.425294160837395,0.392298787512187,0.148868825013559,2.9997782275543,0.775489292637159,4.25652556041722,0.606890543874221,0.0869104020655439,0.338433365309684,2.48699071073092,1.81460822386929,0.657860158423387,5.80267489017861,11.77997362061,2.23154514190336,34.9888146484818
"88",9,8,0.679611650485437,0.632352941176471,0.843137254901961,0.722689075630252,0.73736802413273,2.98120800403192,35.1121712371571,12.5062228088872,40.4224741484746,9.75323044919511,15.8161995211761,34.759617020772,41.4638139856744,27.6765371055365,4.064188445528,1.43510123366359,0.133165884181185,2.08697867037892,10.4660428722925,8.2385030790719,8.60016244155502,6.98778704189072,4.2248016165337,3.47464763585264,0.612161952394571,8.08822767500924,6.92864982973258,2.26634769325064,2.42570217349601,7.95498370432213,4.27226213440753,8.73409679674668,2.96288569166984,20.8153086385614,4.50796034879045,6.08271967069235,4.61007758918316,1.00474853678535,3.45166632151382,2.22898163314777,0.155473082729244,0.330423688465422,0.332873313215262,0.167950402368323,2.89996424020919,0.67841896585316,4.69532753886104,0.658380520275114,0.179191858808685,0.247168281156916,2.15055531367294,3.13403328079195,0.626453957134419,5.37569021448164,12.6110307229152,2.39340811709784,33.1549110500439
"89",9,9,0.776699029126214,0.767857142857143,0.811320754716981,0.788990825688073,0.836792452830188,2.66546546861013,35.6163724927902,13.7193246789454,42.9229198963569,9.61673512145672,17.6356909973492,28.6536612245429,37.9747373899836,26.8904827498418,4.47620862973127,1.83347144756668,0.237405548139808,2.25832610126917,13.0113521456563,8.67079740143459,7.81638176632979,6.97807519767337,3.77533154075991,3.1256245433259,0.632435510733782,7.76835884676976,5.98070144603246,2.60852776095481,2.71533903249517,8.25473536625267,5.04197967688266,8.8120340171344,2.89062813727958,20.5711390949002,4.36623516579996,5.38198339142833,5.02332606213194,0.999697428926695,3.6249923114436,2.11779148883977,0.0854213712029865,0.335726101171218,0.450891953616751,0.145375623636797,3.31333150444411,0.753893465435084,4.41799378180305,0.653184480873779,0.173179694440258,0.341546835627824,2.50382913117451,2.09912272593756,0.630434753816329,5.10625782967937,11.4396486866416,2.41956011947673,35.014687485598
"90",9,10,0.737864077669903,0.721311475409836,0.814814814814815,0.765217391304348,0.776455026455027,2.99274452177107,34.5684546831022,11.9317728712488,42.0099685487052,10.0231938525143,15.7187367053241,32.2217718051515,41.413066696828,27.5903823378074,4.24257567672551,1.32377234555798,0.236687933717238,2.00466341460148,12.9216238852263,8.50222244601547,8.44474025319971,6.40834764853501,4.18522104021159,2.81054740921738,0.495803516180041,7.25443084947137,7.30842333424684,2.34421377276806,2.46429673857606,8.1316228572937,4.85770880316435,9.20817787602524,2.64852807289413,21.6073683171302,4.48446667735218,5.73788252136417,4.34107200685807,0.953946375241182,3.57922904750555,2.10739010282586,0.171147675682129,0.268079236718777,0.416423597621548,0.141945726796578,2.9046038978271,0.961542955134607,3.96267237068517,0.647909268476461,0.176946282581104,0.362029005692149,1.77493307830021,2.05899754768222,0.803481091893373,4.94989485053049,12.6184805569765,2.30625159329045,33.1692173081411
"91",10,1,0.766990291262136,0.76,0.76,0.76,0.816603773584906,2.76019209699356,32.9555570950925,13.6010140635772,40.2660843545845,9.30245653924807,15.9203340413824,31.3473822180129,39.0315408525584,28.5365190786342,4.12202087613763,1.57677360760289,0.285830036699816,2.08638435329265,11.8886463794628,9.11240997524257,8.25624278138437,6.30180351444841,3.93943337795371,3.05842068510593,0.443129456362776,8.30101949638855,6.99841528045892,2.56222078573371,2.784543195454,8.75284238124821,4.42855652248003,9.89760015496984,2.69758586048164,20.6913529151071,4.2939541804439,5.66285296096348,4.07424489914082,1.05318040606971,3.52669474095672,2.25106933734242,0.15390822209597,0.154534248360358,0.260333500040604,0.113714279917243,3.68743433280475,0.922643912140361,3.87984031840793,0.601775365527062,0.205010052616719,0.279972801998494,2.22387736123591,1.76763336425152,0.530940835471851,5.73494716663555,11.2521689321021,2.64462574959557,35.7772151788134
"92",10,2,0.718446601941748,0.69047619047619,0.950819672131147,0.8,0.827283372365339,2.91737393886709,33.5146364716694,13.2174639992046,40.9319514408475,10.626549271304,17.3063133237019,30.3646332012666,38.9416318995499,29.1154510200926,4.47597979139513,1.72276928196776,0.163707409582743,1.84952856962482,12.8096858420964,8.95414677860503,7.5581307006271,6.55326112822222,4.38787031824353,3.69554312541581,0.529211245422559,7.27597455490012,6.75017925690751,2.331968338207,2.44671715282448,8.18899671781309,4.68974073020113,8.80183888564449,2.65818409675045,21.3223740025062,4.61126950784121,5.62095872480569,4.5196487310043,1.12562190954226,3.77328180402891,1.90128674289773,0.108231166853051,0.2735402474444,0.346528368556085,0.121419506120265,2.44132250523974,0.77931686999494,4.36738123238792,0.599601338355244,0.140728836060647,0.367989293274009,2.0914308602062,1.928051163215,0.680983549366266,5.62972886976963,12.0837667327022,2.46096307563982,33.7078585287721
"93",10,3,0.757281553398058,0.772727272727273,0.836065573770492,0.803149606299213,0.812060889929742,3.05098123005975,34.1012432121028,13.4796003848005,42.6120552678604,9.09051078033876,15.3088466752275,31.5826020139837,37.9603089150866,27.3169558863952,4.12766574383381,1.74242302208,0.156005091104508,2.33975002052607,12.9606766080123,9.06661252563805,8.57986098221979,6.14532099915427,4.36839314989598,3.12803728394402,0.662975070151665,7.68834903071607,6.81448848630742,2.60531223877077,2.50120720970599,8.33970373926593,4.53673980662915,9.41730368851966,2.72846861085435,20.8370180673522,4.20685539759162,6.23611636832579,4.51745275073016,1.15262939243505,3.77350887904391,1.97920053028965,0.158262130966926,0.33481303970792,0.393878232051049,0.157273008341804,3.00035899844655,0.8999937745733,4.5207638730281,0.686409481983596,0.143579774447225,0.271271298802772,2.55260083599373,2.32141189408337,0.585263984178937,5.58245376280815,12.3009142342965,2.4834129142311,35.6863892520814
"94",10,4,0.737864077669903,0.727272727272727,0.769230769230769,0.747663551401869,0.796003016591252,2.97365310885403,35.7987044399231,12.7083294838825,43.6513661712238,10.2509555196211,16.2889530235798,29.4009009572064,39.7793398032678,28.7171714682236,4.23636645467306,1.71815752743965,0.255662201053664,2.07178365800482,13.0013468081847,9.26022816886821,7.64748466403881,6.58490041666286,4.58546976014566,3.43359365008295,0.634887358403323,7.53988042502788,6.30483934254642,2.24839094252233,2.43874352080536,8.54365931745116,4.04183138843907,9.10620665487356,2.92542267771501,19.4862258536428,3.95928128187754,5.82841115783352,3.9275576959524,0.90898238654688,3.27408331869775,2.1404537724368,0.187281082211451,0.332002978636832,0.391535207445797,0.131923541509232,3.29126350524708,0.809585587700967,4.5462120958549,0.74520598694055,0.202104661089754,0.330860816540269,2.2137477895196,1.93207735799103,0.700013739025743,5.57920904334641,11.9852444769947,2.68915541272103,35.1090908096177
"95",10,5,0.70873786407767,0.636363636363636,0.875,0.736842105263158,0.743371212121212,2.52267533120227,34.8238837224369,13.4760184947729,42.021749450995,11.0408078494938,15.6001702797645,31.6318139253367,36.7766549778435,27.3106416502496,3.90858799813344,1.45722352745438,0.274104274281519,1.72165589937764,13.0249897430997,9.01341537917221,7.77457856509611,6.26222261635269,4.30585199906162,2.30624867173817,0.392812905962101,8.11495079469786,6.20634783187954,2.43843130084304,2.35178926712135,8.21520669201718,4.15320533920339,8.77933253319564,2.94807514578722,21.9627095415382,4.37754318733519,5.72771931126882,4.38949672451968,0.96044966230266,3.26061440401652,2.13937923701473,0.0424622292440871,0.360467705699379,0.391832000986798,0.141754915919894,2.9993285616036,0.786070245564792,4.21482992106856,0.739776492056138,0.13346767789032,0.342028951363984,1.95611768291353,2.25130885722799,0.624630715375568,6.08182261937845,12.2567282485227,2.71941703481189,35.3071424870961
"96",10,6,0.737864077669903,0.672727272727273,0.804347826086957,0.732673267326733,0.807971014492754,2.93224903946062,33.1011819612564,13.0227350802719,41.6095163528463,9.61934020493633,17.1342712761753,32.1579158761339,37.7136233419565,26.7146872603574,3.96047933322316,1.54949898080562,0.262199044038353,2.14087281361917,13.8193975272585,8.33691243890777,7.74170112392132,6.42972573235807,4.71116879169548,3.23819212306975,0.457094399718657,7.99670348798221,7.24049088569598,2.04869496774998,2.64630807105047,7.87639054514407,4.78529642714235,8.74388750512606,2.81650981917292,22.9793331968993,4.23081714797559,6.0345360620484,4.37131074747862,1.18862452653181,3.78545201754726,1.83039123007468,0.119740438184317,0.399121959138972,0.461329454748831,0.198992840362422,3.46351456692202,0.81960913570559,4.4011105639908,0.644258676634616,0.132821169532885,0.358917779927263,2.30595284115732,1.80630627268573,0.719792764738103,5.02491903737021,11.1743941993891,2.34644607063112,35.065680696283
"97",10,7,0.689320388349515,0.592592592592593,0.761904761904762,0.666666666666667,0.732630757220921,2.42088472953595,34.9954100042805,13.4724314823826,43.2722127584656,9.91446303474674,15.2876398219289,34.4909266371538,38.8195962656903,28.9442831432575,4.04593034267897,1.17267127919527,0.286947613111314,1.85969289402565,12.9522818722456,8.5232272550146,8.2492436480875,6.2126151068608,4.27624626367194,3.3951896135032,0.524394474472743,7.74802538979633,7.16901687540576,2.29209093963411,1.94694088803284,8.0298445593165,3.93692890541905,9.18464688837711,2.66884335745424,20.2052536105703,4.50359215185381,5.27862678273264,4.04350640970902,1.34580142806705,3.20102282341257,2.30587411449895,0.107270213605367,0.339044813651143,0.353211484217825,0.113507612201229,3.53747208632771,0.819310922025089,4.11345564064867,0.58429221123538,0.219973524894854,0.258002610256263,1.79909497173469,1.89446588740683,0.607314877542151,5.30162504047415,11.611523236196,1.91935887927496,34.9631285234669
"98",10,8,0.601941747572815,0.55421686746988,0.92,0.691729323308271,0.721320754716981,2.63608560359091,33.2124553972863,12.3400920419556,38.6608373883604,9.37780808396512,16.3099290364502,33.6381731820274,39.7161554478597,27.2698617416147,4.01161153788228,1.40446389125893,0.126381553219875,2.17774524704043,11.799016286665,8.76322489275043,8.79960486375562,7.12294132947849,4.30666952911758,2.93986135071309,0.598459875114836,7.65933549556648,8.16279941832894,2.4228882444562,2.75097822308048,7.71818636741579,4.65108459028305,8.6476576756107,2.67599727349255,22.8521593420931,4.4970554573809,5.97099544713446,4.54983414506072,1.11568113497039,3.21129270545874,1.86151907000149,0.149834108853053,0.307613635471842,0.461367554451723,0.199591284019988,3.366973545151,0.536892828474713,3.73079006869949,0.737064729450423,0.210523493538258,0.326602859144811,1.72806133245746,1.77310733368347,0.478709312985161,5.4264150572609,12.9699021727212,2.18892682557983,36.2369211887266
"99",10,9,0.737864077669903,0.644067796610169,0.863636363636364,0.737864077669903,0.852657935285054,2.9718856077419,35.3752604353022,13.5656383161542,39.6600835585029,9.59214752942987,16.8291299665311,31.0832110003552,38.5378867380566,29.0985994894653,4.08201609785551,1.48016920403888,0.218366575896003,2.20795248558218,11.1464566792009,8.89419420435042,7.47007863206461,5.86858419227443,4.51498994218224,3.30444719790562,0.697354606722178,8.06007981224092,6.60796157861641,2.45148591428737,2.68160302490254,8.19711096053992,4.42973811590609,9.33148105610921,2.53233016519059,23.0049178547168,4.41071915156514,5.4650542136464,4.09233643059388,1.20124271390077,3.8375528068156,1.81799717358142,0.116196867914989,0.342477255764377,0.427140370175824,0.167242708990121,3.15780996509904,0.934660242592114,4.17795229943137,0.615104524594776,0.131187576146841,0.288477148628256,2.41239267405141,2.25079008153569,0.766539494080039,5.68829682159216,11.9725880651907,2.44104468953019,34.4955831174428
"100",10,10,0.737864077669903,0.75,0.836065573770492,0.790697674418605,0.754098360655738,3.53647252419133,33.7752131876688,13.6774924649491,42.1446109989528,10.4310659613318,16.0639512239186,32.2905053609516,39.3433149785028,28.3591197303167,3.90738646089488,1.72744338141887,0.183312457548786,2.05698431914765,11.5256489426093,8.88839164138353,7.39157595599534,6.17652641510033,3.99864127386973,2.82511227039841,0.688231034361601,8.21322994197682,6.43347312628704,2.42262467867322,2.54213431794397,8.1702421458089,4.41162874564089,9.42158793439567,2.75325239501714,20.9908279335832,4.51770522637516,6.13621850111566,4.61860213735678,1.17514331670814,3.36620711008932,2.05443739688448,0.133685986515142,0.213653265752386,0.440435087126076,0.141542543511576,3.17822517870983,1.04505806669266,4.46463952180374,0.640897941965817,0.175911888459547,0.327892241140992,2.15339991388415,2.01488429489748,0.693324052004732,5.568327900695,11.9398389834181,2.33095373391816,35.5983963277165
