"","forweng.iteration","forweng.fold","forweng.acc","forweng.prec","forweng.rec","forweng.f","forweng.auc","forweng.hasSmell","forweng.LOC","forweng.Nesting","forweng.WMC","forweng.DIT","forweng.NOC","forweng.CBO","forweng.RFC","forweng.LCOM","forweng.ADDING_ATTRIBUTE_MODIFIABILITY","forweng.ADDING_CLASS_DERIVABILITY","forweng.ADDING_METHOD_OVERRIDABILITY","forweng.ADDITIONAL_CLASS","forweng.ADDITIONAL_FUNCTIONALITY","forweng.ADDITIONAL_OBJECT_STATE","forweng.ALTERNATIVE_PART_DELETE","forweng.ALTERNATIVE_PART_INSERT","forweng.ATTRIBUTE_RENAMING","forweng.ATTRIBUTE_TYPE_CHANGE","forweng.CLASS_RENAMING","forweng.COMMENT_DELETE","forweng.COMMENT_INSERT","forweng.COMMENT_MOVE","forweng.COMMENT_UPDATE","forweng.CONDITION_EXPRESSION_CHANGE","forweng.DECREASING_ACCESSIBILITY_CHANGE","forweng.DOC_DELETE","forweng.DOC_INSERT","forweng.DOC_UPDATE","forweng.METHOD_RENAMING","forweng.PARAMETER_DELETE","forweng.PARAMETER_INSERT","forweng.PARAMETER_ORDERING_CHANGE","forweng.PARAMETER_RENAMING","forweng.PARAMETER_TYPE_CHANGE","forweng.PARENT_CLASS_CHANGE","forweng.PARENT_CLASS_DELETE","forweng.PARENT_CLASS_INSERT","forweng.PARENT_INTERFACE_CHANGE","forweng.PARENT_INTERFACE_DELETE","forweng.PARENT_INTERFACE_INSERT","forweng.REMOVED_CLASS","forweng.REMOVING_ATTRIBUTE_MODIFIABILITY","forweng.REMOVING_CLASS_DERIVABILITY","forweng.REMOVING_METHOD_OVERRIDABILITY","forweng.RETURN_TYPE_CHANGE","forweng.RETURN_TYPE_DELETE","forweng.RETURN_TYPE_INSERT","forweng.STATEMENT_ORDERING_CHANGE","forweng.STATEMENT_PARENT_CHANGE","forweng.UNCLASSIFIED_CHANGE","forweng.ForwardEngineering"
"1",1,1,0.737864077669903,0.472222222222222,0.68,0.557377049180328,0.777179487179487,2.2661281246198,28.5543782981538,7.88714457787783,29.685504701062,6.14468763143668,14.8349824729043,19.5817865162254,29.068115240414,22.3122991196192,2.38178831969775,0.926214564685982,0.478391450969699,1.34154873725956,8.25718671491686,6.31439673559569,11.8098212021173,5.15324960468627,3.53734229644039,1.91779118928774,0.341366721437894,7.70562064647376,5.69829684530691,3.42798349582443,1.81769096907238,7.62709095593478,4.48963816417699,6.91597465783573,1.94642038787336,14.7350504095499,4.02873567550113,5.06286749420864,4.1404021969759,0.857274323325423,2.62745066582088,1.81980094445719,0.0768165275720504,0.209510659513383,0.530275721170184,0.490136771385185,5.37194598841206,2.57707225870297,4.18991996682929,0.772667565499133,0.185201547215655,1.01261777681329,1.84016664059494,1.57935013259758,0.742124529776528,4.80276243925914,12.9340701135442,2.21419507863443,20.2908325915877
"2",1,2,0.669902912621359,0.482142857142857,0.84375,0.613636363636364,0.796654929577465,1.70503598907404,26.7888938669747,7.66535883976103,31.9508574935718,5.62117513680639,14.8551835296138,19.208086463607,27.899388802716,17.9257919536772,2.03072591132625,0.92094209562106,0.689818737181666,1.462531428149,8.32462889475738,6.58445110318141,8.58838101865473,5.01212941165049,4.09649319182248,2.3038299312748,0.266839746909779,6.1597106103126,6.33023078155001,3.69650048523771,1.69697211038824,8.42636976657272,4.37976403678493,6.11597441736497,2.27765515990152,13.5192758283123,4.43573311458333,4.56700241787583,4.19309515728128,0.961431636477433,2.74694152154858,2.57178121356623,0.157226520944685,0.23422448910341,0.356925943191939,0.711912175966038,5.56617477848745,2.58102847966065,3.99383926192279,1.24485380793975,0.0223475021495917,1.02794058403997,2.16663004830264,1.50508464138224,0.593536865713004,5.08332807451789,12.8451791709332,3.02289596266151,20.2735976066585
"3",1,3,0.669902912621359,0.365853658536585,0.652173913043478,0.46875,0.713043478260869,2.37340788887212,27.7092430186792,7.3874676984365,31.5078733153211,5.48253781937366,14.9031074893101,18.4201696744404,29.7978470295501,21.5611627501736,1.91627723690139,1.07424034483561,0.546135329889906,1.61741683691136,8.84067558610963,7.03513424601182,12.8940262921219,4.58244682188186,3.52540143257345,1.87848937707359,0.309727021544862,7.1923169293163,5.67278817903296,3.66304169526507,2.05328682083227,7.53642713820708,5.09725955346614,7.74827327332487,2.38125036218305,14.3316680433243,3.74259339298409,5.57747987837994,4.25325383218668,0.731671054247545,2.69419037734378,1.9426491683876,0.252259249206922,0.238171755481795,0.570059548610606,0.385699180697501,5.3221608853518,2.2562754811088,4.77925809707802,1.09724191332405,0.235842862260371,0.90521320806484,1.86918004979778,1.84518146708196,0.711873250496834,4.94186972819011,11.4113527313226,3.0443361099918,21.0443463621662
"4",1,4,0.83495145631068,0.666666666666667,0.64,0.653061224489796,0.827179487179487,2.35787839245199,26.0121538533753,7.31365993269096,31.9490999506874,7.06032866556169,15.3121427248571,19.6784652908302,27.8455169109028,20.5865547280063,2.44828123973194,1.14907952363421,0.583854402250768,1.55330289636575,8.6260805955439,6.63401183323521,10.9027444947917,4.92483913744303,3.93863230148322,2.03677375870163,0.338343221791842,6.35696150123412,6.08907132484624,3.50479981198865,1.77089102373176,8.12573960608385,5.08082038530363,6.6823526944329,2.2909871277132,13.2587957681049,4.49823461479684,5.18640477768783,4.34512453187173,0.764193281141211,3.19388668837846,2.48536078974208,0.20084651376337,0.205455975345888,0.50544443481451,0.600161436207895,5.57721060386475,2.68055273120259,4.29179964380045,1.47165653336921,0.17578653862519,1.05849448278632,2.18244714162812,1.71232366505134,0.524332928311708,4.49887621825939,12.9030335146562,3.18922283886242,19.4115356164699
"5",1,5,0.854368932038835,0.65625,0.84,0.736842105263158,0.912307692307692,2.53429751033728,26.9569715278987,7.97155674769715,30.47470666812,6.25387410360313,14.5620918355841,17.9738985750909,29.0537502279446,21.9987275971696,2.40860331325489,0.88169009707805,0.476168327229936,1.66957576949497,8.31250910260204,6.77849971001888,11.3400585742545,4.76569226930141,3.81339433413338,1.9864368088782,0.358452175899315,6.62879435648653,6.3554649365214,3.83674562589565,1.61231841183825,8.21524651942098,4.06704497675524,7.30788342366132,2.06022771991583,14.9591585721987,4.40228605886285,5.51975365696212,4.25024443227582,0.687205660663179,2.96705048171927,1.99417530668798,0.175958101911919,0.286520971093454,0.54984777207081,0.286799557924853,5.58643939795343,2.42264727989207,3.94243237797681,1.18487342261639,0.217455734519415,0.645791826821775,1.78688427570693,1.84678816262465,0.677862952288942,5.50208010372492,12.3743517822445,2.74638734778881,19.4176193475976
"6",1,6,0.883495145631068,0.882352941176471,0.6,0.714285714285714,0.866666666666666,1.92611942943481,25.7040489091051,7.91238201194697,28.8018415344261,5.855410548694,14.7789812905082,18.3974934964844,26.6323286508277,19.9034270971378,2.51569476542499,1.07173991406357,0.654204914285055,1.66321566796621,8.50981252710787,7.08133596402903,12.063801706974,5.26662865554025,4.17966307278499,2.52899952854219,0.361706249012024,6.25720574449667,6.4098382567272,3.77832543337453,1.78610200403818,8.18176784854477,5.58171267885337,7.76643315836164,2.31056500047598,16.0076921206317,4.26219356371644,5.43788686553467,4.38089730927503,0.704811586119003,3.03433108751227,2.38950236043262,0.189405890229926,0.292626584913862,0.547806660177326,0.490049382391603,4.57599888575784,2.3748617657127,4.50047088574911,1.31362469435205,0.168836426831796,0.989238015471011,1.80810593829057,1.87545198740706,0.867230623581903,5.42256800368386,13.1322825856086,3.01581546754731,18.8263939737211
"7",1,7,0.786407766990291,0.619047619047619,0.481481481481481,0.541666666666667,0.77948343079922,2.23495209308212,26.6740082761233,7.61479312388666,30.3430706023041,5.81251176993171,15.4461818378759,19.3692525659541,29.6304287778001,21.0032874852377,2.17370539895891,1.16543125629959,0.763847316466939,1.31058729380145,9.25823125994345,5.93205439284156,9.90218105339449,5.42125024695622,3.24202843745952,1.95194221875352,0.269162906484226,7.48789552666395,6.53036516073712,3.5503648695363,1.39033775383659,7.80733913044628,4.63179400824605,6.64297256534878,2.4598866114268,14.4880442208942,4.64877823537049,5.4967870612935,3.64948821917983,0.884581786769125,3.01719688481158,1.89628446373577,0.19400755363155,0.229747952136344,0.429577871225501,0.639616732636155,4.67601591739191,1.79052352125164,4.11634943860742,1.18566439817081,0.18930269533643,1.0490688826576,1.79768729570344,1.80805838500448,0.604362457857768,5.46282716436445,13.0076878044258,3.4282743282238,18.311997990665
"8",1,8,0.796116504854369,0.5,0.714285714285714,0.588235294117647,0.806039488966318,2.66647495782362,26.7630268470142,7.50625746072868,30.939054251602,6.0441855139711,14.1912196917698,18.3396778241007,29.4949860464568,21.1083746432782,2.25425910305106,0.649573240834774,0.746071882645907,1.63142036435341,8.23703902662909,7.07892590122138,12.3728024372244,5.03552831717074,3.9193522370275,2.13318492125445,0.19351910216505,7.57474733945046,6.39478078352686,3.50531408739679,1.81223849034907,7.94959877215979,4.53884777768246,6.92397636336909,1.91021157537599,14.7317132683836,4.52117665218983,5.51075714551817,4.06451044473364,0.919488323914834,3.41135611297699,2.25958670367016,0.187778425214974,0.321277248698467,0.36448559591288,0.526926706380066,4.6049881217634,2.24036253958646,4.57366860703282,1.36251336615114,0.134154658689987,1.24642101529481,2.34087533431981,1.70315988433304,0.677371501517637,4.62595174150315,12.9115099514115,3.13889981669999,20.6888347756406
"9",1,9,0.796116504854369,0.62962962962963,0.607142857142857,0.618181818181818,0.811904761904762,2.13582721851657,26.6865633838466,7.43609778824171,27.917930449526,5.77793975699412,14.8443625715084,19.051771672445,26.6647890212404,20.5896726139752,2.43087379536882,0.964550686449286,0.335950744908607,1.57379103138446,9.09810373854816,6.98296157357589,13.3992644152702,4.59733642708579,4.02940388980289,1.69030853541503,0.248151224599108,6.7128406094465,6.28613681437573,3.32701257020323,2.01042411700091,7.46364993472732,4.47939417044898,6.75828139092329,2.35132294638623,13.2961424322546,5.16183919104504,5.04024747490425,3.75865262124234,0.792472544988164,2.9295155855949,2.14795852952258,0.254481171279528,0.336992563286766,0.482432295845264,0.360771616719256,5.86947504751896,2.59282120998768,4.15472708261715,1.3116445534325,0.181882284748505,0.885383050169382,1.77571480363995,1.90320249654303,0.674509886059009,4.70750061175867,15.1621884150199,2.47561823694914,19.9050011145888
"10",1,10,0.844660194174757,0.708333333333333,0.653846153846154,0.68,0.839660339660339,2.0622347969981,26.9267253639608,8.04445768718799,28.1707004280545,6.22639844869967,16.2280383862227,19.9263714431208,26.148138638626,21.6019809504472,2.61013983150875,0.925644027427138,0.653434806407147,1.38661857023494,8.23297642225645,6.47528616100765,9.8265138207293,4.9076322195877,4.107216681082,2.05797281609519,0.240796670773149,6.74361786729056,6.31265306085707,3.39218199072599,1.59339533952862,7.54981240531753,5.28569982797889,6.85323793456028,2.20843768707279,14.0288619320908,4.92907992315969,5.2811276776368,3.8990296678727,0.65605735657482,3.05860406416287,2.05908912428587,0.285719690654272,0.302752012436659,0.538886693227003,0.481159697683872,5.83775452669355,3.04053975875527,4.54034005677414,1.24640232896587,0.197812748272454,1.0982440645872,1.65729008833836,1.5959051853669,0.697409276759151,5.78533787366006,12.9052244960382,2.98391334954775,20.6892119871164
"11",2,1,0.699029126213592,0.446808510638298,0.807692307692308,0.575342465753425,0.825174825174825,1.96949869444993,27.0633038197773,7.56597670861451,29.770665323003,6.01822986966464,15.3833897632529,19.045307092512,27.9541508427966,20.0496981084783,2.18878096334153,1.04874618052193,0.769327067091137,1.39294051677791,8.99035007105471,7.35601465228248,10.4531325960252,5.35629387127652,4.12462860800585,2.20423424656437,0.307309406921047,6.89375924173711,6.44177481966444,3.49381813022931,1.92669741823827,7.14809843217535,4.99730241938116,6.85178547546301,2.35946287077866,13.2898509698683,3.68827582101593,5.24520179272441,4.43637390660062,0.882501077863204,2.82142446069142,2.45725436575513,0.309205391128731,0.282488742400118,0.467789946088103,0.469597475007691,4.88537140202134,2.68967103269453,4.17892569950304,1.09622631837866,0.167245741023164,1.19043243716409,1.58577324822803,1.82151749920333,0.549431710994878,5.385926923536,14.0378555214325,2.61414938646649,20.7981239610116
"12",2,2,0.83495145631068,0.75,0.67741935483871,0.711864406779661,0.833109318996416,1.94344244225719,26.3158408394056,7.7772268954289,28.7338259946192,6.26936046742421,16.0243860907746,18.4894712997623,28.2216081655464,20.4850732764608,2.54869059035188,0.992210856435945,0.71872338585922,1.67269499148358,7.85992474847572,6.62956974061246,9.99706062466301,4.426022869901,3.45663912334076,1.75342303937569,0.368440569428817,6.61392754085976,6.8513798029471,3.37352346653866,2.06089787021545,6.91506219380214,5.49750406180498,7.48635190841366,2.16835964246082,14.6062155448879,4.38505919447632,5.17473251326098,4.48542574155013,0.754678842665228,2.91935658042453,1.94733343306605,0.21751556003957,0.236300144360171,0.537490264230295,0.308565242247558,5.63576056766723,2.03051161091802,4.4260247240623,1.27116536708983,0.199787441122504,1.19358807961396,1.98349445875228,1.53410208556704,0.712052520026732,4.87165311606771,11.400979442438,2.49592671858449,20.6150904806004
"13",2,3,0.825242718446602,0.625,0.769230769230769,0.689655172413793,0.878871128871129,2.25763134995535,25.8867527942976,7.85379471052175,28.6875473123165,6.27445219142886,14.0153249481135,21.0757306514584,27.4333536295303,20.6007353094642,2.46457509028596,0.842935104460861,0.63535949095549,1.28075293329976,8.29196417900983,6.44478692495594,11.6746803195929,4.88899974011638,3.58916952581394,2.01118916662428,0.224620838661551,6.90314616872817,6.54353480008191,3.322221645072,1.6554695329693,7.82823997958004,4.42997424806203,7.797124753966,2.34961575558521,15.1932615392037,4.4460036432655,5.04574738821133,4.26025591429961,0.826376447232438,2.99908839057331,1.93939547113145,0.138140330417299,0.234503476675353,0.454604315892368,0.369683088685304,4.45396101204554,2.00140362836054,3.96044097461682,1.26715988125661,0.0996658052324833,1.14650204907599,1.86236494559675,1.70430686802348,0.523740298630847,5.03339408704097,12.6846905823261,3.44447121871489,21.7675756517209
"14",2,4,0.854368932038835,0.8,0.592592592592593,0.680851063829787,0.817007797270955,2.28700479122723,26.4686908728565,8.08264198077554,28.8890103204456,5.98439478779647,14.7429642561004,18.3717592310911,27.1508196482238,22.5935449977312,2.27976770948505,0.822615148349347,0.656945088574886,1.57353891323675,8.5822075739913,6.99942647900216,11.7451563295061,4.98205492970816,4.04312029359997,2.18837770661718,0.363260232268765,5.82989882089105,6.69263653346951,3.34963222309441,1.71109476203989,8.0923825935906,5.43684570603682,7.50874169401274,2.47741933447368,13.3887081534191,4.50233363723473,5.19251235580141,4.33362503055064,0.876192379022335,3.06614667597551,2.10255509990556,0.141265028620397,0.297998781779367,0.285982792621242,0.548001040814966,5.0705248910753,1.99223390364538,4.32464196773859,1.16807167550223,0.172573965833703,1.05185284587689,1.70600417418415,2.15728382133602,0.61647325201177,5.05637743727492,13.246154247768,3.14360851721992,20.2037769259556
"15",2,5,0.640776699029126,0.272727272727273,0.705882352941177,0.39344262295082,0.70109439124487,1.9219545054392,26.6888279219521,7.60569161866007,31.2458170843273,6.05417975223521,16.0616251161659,20.2726097554643,28.1899775120322,20.4765887957725,2.3340060522259,0.752179877816122,0.378949575936605,1.81613502773527,8.65333532206444,7.01684459890729,11.7717258533551,5.41542216691567,4.13439005963826,1.9084700090334,0.358991473159979,6.58773701386314,5.88115863510399,4.45192087473549,2.10301979204635,8.15745372281594,4.77377042368712,7.07187110311863,2.26404644066302,15.1065972382823,4.72286641563247,5.58903390660053,4.40024244422985,0.724712552824387,3.07613150413405,1.9515558536934,0.251549809899917,0.223182811091494,0.433747554026185,0.462447007743106,5.24701713335833,2.90911806249352,5.00447593276774,1.35921241875588,0.192528495207444,0.97231729404767,1.84241866208641,1.61841756997594,0.618334969470987,4.73278614413792,12.9893815437036,2.824075931873,21.2421082675231
"16",2,6,0.766990291262136,0.529411764705882,0.692307692307692,0.6,0.821678321678322,2.66567129237398,27.5843862492476,7.38842729239678,30.4558078624972,5.76389209933082,13.2370853240833,19.7474216521513,29.7661387237831,20.2357751517313,2.44460062659545,0.85612473466349,0.52297245056502,1.72044943414855,8.46385346295277,6.26962674773987,13.0767016251308,4.61940613811192,4.35216901685014,2.02858528810901,0.347315442738863,6.92899454581546,5.63415012166754,3.64369804423842,1.82559154901198,7.39021694413577,4.43065082623233,6.98617909202596,2.18958863252506,14.2982283477758,4.72086059007033,4.96130843340868,3.77195924280898,0.79869337814601,3.01235042370361,2.22738003929293,0.138953229893781,0.342247210010411,0.5781784180309,0.588274452645654,4.54420318197375,2.89090499437952,4.23514845861887,1.16353875804561,0.221272049435875,0.417861284194606,2.25604064706294,1.96491000639351,0.660237193464922,5.10038855682644,12.9710610477643,2.81028910964309,19.0699261912473
"17",2,7,0.825242718446602,0.611111111111111,0.5,0.55,0.798540965207632,1.96231626822167,27.5449649056174,7.68406975044293,29.9448520512838,5.49426268170231,15.7308568648752,18.6865697319944,28.2398471039272,21.0919995862393,1.98190883868011,1.07666118234976,0.59216698253562,1.66252913611857,8.65488218184656,6.65591601398003,11.5260400137542,5.40375888223538,4.29155411123359,2.17789736711766,0.256385448629695,6.82019711039394,6.55866313702347,3.30701754972305,1.52493893643562,7.54688708302158,5.40384027508363,6.47233230293765,2.0315218481333,13.3555315809343,4.51846279620104,5.52382020805208,3.9446717869972,0.803690742369865,3.19655698212436,2.42587536751274,0.175203548770554,0.191083869488407,0.396633869841156,0.689768190251064,5.57838387669643,2.78232462457866,4.23382059996552,1.27801257790185,0.146813101909022,0.674752483992366,1.94089597333039,1.47677175085048,0.685757107396937,5.18616716367373,14.2919725284315,2.7140136853609,20.9261119365588
"18",2,8,0.83495145631068,0.64,0.666666666666667,0.653061224489796,0.85996835443038,2.12114789781192,24.5834874885583,8.27523603647284,31.2833503448194,6.18405450353545,15.3871158083293,19.6497842953237,28.3228756078634,20.1856811724315,2.4883883755414,0.975848443349633,0.538778327365644,1.36809084421456,8.88928141469044,6.44195219325605,10.3693072872944,5.06267374668721,4.55102081618161,2.21675814210267,0.319625055030757,7.41221351058312,7.02436107867161,3.4380777984277,1.64397266814763,7.49442326277285,4.2295985679316,7.03647748418089,2.17631245246438,14.8028053740376,4.43474331982988,5.48569937711712,4.42632999894529,0.831151781996776,3.04420481807992,2.33105021069732,0.131884258767354,0.31074812452295,0.53363837476651,0.467732936462964,5.09704363412247,2.50110637761207,3.73464398830671,1.21312098706379,0.0755672608995191,1.00859389993602,2.02398119063248,1.94153808748782,0.474423144662433,5.47103898991659,12.300424501936,3.39892490092862,19.2787097584644
"19",2,9,0.766990291262136,0.580645161290323,0.620689655172414,0.6,0.78448275862069,2.59956294074265,24.8818153430185,7.86165607346671,28.6642580827597,6.3369047349494,14.7017988412166,19.6839060215795,28.4298324667893,20.8955481408698,2.22836951388611,0.899808708306167,0.770832769151931,1.73162058520248,8.60921752352439,6.23410299653613,12.5596836402052,5.36426768635796,4.04787303633415,1.79193542508917,0.190292852001287,7.0586054029028,5.33592129433078,3.717203042415,1.51181306687852,8.97778566995924,4.57056204144939,6.61065757211591,2.28729210833217,14.2124122695814,4.16067112550864,5.02897269899254,3.96614165297063,0.929849836101444,2.69632924329504,1.97987060520511,0.167308272757266,0.260181290735426,0.567445000663706,0.385544187411753,5.94574344580617,2.78740402669201,4.47841619455334,1.47779718503371,0.157222471545697,1.11142580396254,1.99019758233377,1.83773191033564,0.534491666968473,5.0711050291829,12.3463469194251,2.22544141330868,19.0498892153074
"20",2,10,0.737864077669903,0.525,0.724137931034483,0.608695652173913,0.784016775396086,1.7558817575354,26.6738575894361,7.40050720627044,32.2954272768534,6.13255369799274,14.1703632371459,19.507886510981,28.4240564057878,19.3271485911763,2.23104591282109,0.928756127784412,0.742164014101639,1.60074602340306,8.64888264634354,6.06174220925219,14.0130214696818,4.69305230107065,3.62852090442179,2.05197583170803,0.277865887929726,6.15736702313188,5.78235567695244,4.12000665585451,1.56236415936874,7.68407638903491,4.64481587364246,6.97106280551099,2.53559091836799,13.1009273397378,4.57763056232734,5.05512777300022,4.2076187038974,0.867844760407306,3.03558044874222,1.954889201607,0.238594889184037,0.18398261175163,0.536714899363161,0.522982402030393,5.58672200694827,2.35727353288072,3.83699357823608,0.802960905981594,0.200964429350259,1.19773537019916,1.72802422517673,2.13195308393186,0.637846211990235,4.72156971557553,12.2233954501613,2.78929293257091,19.5897497971503
"21",3,1,0.83495145631068,0.666666666666667,0.692307692307692,0.679245283018868,0.888861138861139,2.35909516316337,26.9717596965956,7.58817479630535,28.9661665969762,5.85131311917706,13.9302675920627,18.8080825116806,27.139199213257,19.6906914926954,2.48760444619794,0.640145987510289,0.683413068001766,1.40143460795314,8.66867133020025,6.95344038423702,11.8642665785295,5.59052840456452,4.07602580987988,2.03941325487668,0.278097850473989,6.84013907156085,6.7602591365936,3.06904048665995,1.58364679418377,8.76562052372077,4.54466541871242,6.99016447479884,2.50566423759511,14.9970910433817,4.89524818355957,5.16882301423431,4.10880665952112,0.771227379251214,3.19049995236775,2.30395219222462,0.238866392234904,0.135346472417611,0.59494023779895,0.625589883991463,5.38982898007122,2.47461248482401,3.33783683456943,0.964791326180741,0.215287431972966,1.01255539751703,1.68992278572907,1.40404770210682,0.659304858417663,5.35474340399764,13.5260709079817,2.96508942606593,21.0094977804657
"22",3,2,0.786407766990291,0.44,0.578947368421053,0.5,0.784147869674185,2.05335240615421,27.3337373827483,7.58294767083496,31.706775771739,6.87150449031376,13.8425587691259,19.7221473901746,29.7156640034571,21.7030607212709,1.88674625070303,1.16936650966208,0.620592594897422,1.74150575585696,8.68218667573728,6.52939437611992,11.293802213353,4.92707203020332,3.83007799109615,2.05877981854257,0.357986522267982,7.05386938849728,6.12741180236129,3.69323675014182,2.03876638007449,8.07505401815382,5.0484691019925,7.17192412994536,2.05089871429944,14.435357490378,4.7036415403316,5.48691055835602,3.96714928470225,0.716899065486065,3.17343575976784,2.22086678160414,0.265175896106923,0.274459926221855,0.607180177309904,0.312666640087919,5.06001895960827,2.23415325459606,4.20900431390539,1.42204441911573,0.180566480292714,1.05308452375954,2.31755751401882,1.60029171085043,0.737188439838481,4.69648920641647,12.8195214606706,2.96394495534013,21.7053993004605
"23",3,3,0.825242718446602,0.538461538461538,0.368421052631579,0.4375,0.764097744360902,2.3871694855594,27.1329404748369,8.15002882673695,32.888590780027,6.2861461281822,14.9765108803677,20.2140603215711,29.8033689178943,20.8452272936647,2.15350746691993,1.11199615641022,0.677078428379308,1.6026142016945,9.11619475325656,6.68814882071047,11.1799321580297,5.01521975539566,4.84202429866188,1.77317236906376,0.316757777572005,6.59240083961567,5.49752832352348,3.45583607743526,1.95954677216527,8.61895882706471,4.80574337226028,6.5506554381997,2.19525045084383,14.13082507932,4.72535147245117,5.48314545179609,4.1896787060206,0.988139909997205,2.97440534171824,2.14964558888948,0.15092660257918,0.289160997379693,0.449818110025907,0.291746918687415,4.06799173831786,2.20687801945609,5.15977198800202,1.04332313476485,0.201612867199889,0.692878120008705,1.94679503369473,1.73681582261702,0.709783753866678,5.29321527720589,13.0009563581944,3.10856259995282,19.8877160333723
"24",3,4,0.747572815533981,0.545454545454545,0.620689655172414,0.580645161290323,0.790773532152843,2.18471601345371,24.2123885582126,7.977763712963,31.2560504391882,6.28067504789358,15.3679802173873,17.0031676139541,29.8191678956128,18.6144375787112,2.4696865747259,1.00598202146198,0.705529236404564,1.34714169482935,8.88777587660589,6.20699861445798,10.3804775638172,4.75325744990459,3.62887154355962,2.10875112903214,0.331361560117941,6.26845573304226,5.75525283218563,4.30265899609662,1.7271563235228,6.96566204730648,4.9245219796239,6.50386119652615,2.10632108250667,14.1888204240301,4.3484192244256,5.4093874300795,4.96470930501693,0.780897186617594,3.00217792085248,2.28867289683771,0.20005685204221,0.257557368530804,0.378594353843046,0.662670126548096,5.58447208985673,1.98569476605772,4.12384945985519,1.54514257303334,0.184739200839201,1.11138470214919,1.93420833921839,1.97247015182302,0.71974793493286,4.78529129766488,12.7700369100263,3.26898742224221,21.4148781391066
"25",3,5,0.786407766990291,0.657142857142857,0.696969696969697,0.676470588235294,0.855411255411256,1.99760744007563,24.8339769646187,7.88299700226605,28.7421832030068,5.8188352569567,16.7266847881807,19.1206308387712,28.4949644055713,22.4391936838469,1.96736600213881,0.894870283228425,0.799612700791378,1.50971968923265,8.62199157023045,6.57023806416279,10.480803414341,4.78069068249477,4.33364489987611,2.09539504275442,0.369606151229469,6.58737317800953,5.41532954374638,4.0223534704066,1.61711445856024,7.46631655268457,4.6584384905781,7.22036363563258,2.25635486905161,13.7319452461563,4.62173788890806,5.20681403876075,3.90248257857683,0.769734269280716,2.7635017420436,2.38711456732742,0.223687890637716,0.24901086590637,0.397110735599728,0.544264151494763,4.57543273221468,2.58862484575023,4.29730482643099,1.52381227615281,0.0332531361533259,0.828150348984785,1.51451873937571,1.95945213947604,0.700335428084859,4.7696819884954,11.7165433202916,2.81142913700711,18.125592248726
"26",3,6,0.815533980582524,0.666666666666667,0.592592592592593,0.627450980392157,0.82724171539961,1.95616852587545,27.0366969121391,7.96023197233893,30.3046192503378,5.92973040710658,13.0263113535535,19.0830704991412,28.9917062014141,22.0604104861332,2.2126740265625,1.08172646899976,0.605953304425856,1.58056863550209,7.95085476050902,6.61724545658111,11.3944060148759,5.36454759002702,3.87647073505595,1.84409645175516,0.354939765172854,7.00512073675109,5.81745059622471,3.48308795568403,1.58372433867554,7.75376192766582,4.96271506397005,7.17874967271458,2.20778308484659,13.3938281187463,4.27707251079268,5.05925928802201,3.93261126586469,0.857428379956947,2.86257516904367,2.03175366147532,0.160331430628834,0.26111904399372,0.490393439198922,0.591085065690545,5.36466839590539,2.33689906386158,3.83410974366719,1.32713973021109,0.115024969264909,1.33333977446134,1.85687059739301,2.05888779747643,0.655432777493905,6.02085210081154,12.8555660771242,2.87000851738594,19.659088296242
"27",3,7,0.747572815533981,0.586206896551724,0.548387096774194,0.566666666666667,0.721550179211469,2.46753784383379,27.6327702033601,7.60566301454858,28.4176802279416,5.39045236831803,13.2634160093436,19.316897710119,25.8813222671313,23.9115513156161,2.67593471993127,0.928302608481999,0.369805161372492,1.45014533611701,7.72074192413805,6.9821387677913,11.4404293679516,5.20286649748421,4.04960715275799,2.12291880111247,0.393192249993024,6.17663718732893,6.99668249754054,3.4358396885618,1.67098902428587,7.74468268212365,4.61820774862558,6.97861046826978,2.15515558744411,13.8523033775953,4.43278823745487,5.08886972534177,3.89099998225192,0.845721035521196,2.67980094574144,2.28950052489135,0.195235299782431,0.349750480653433,0.534155935834587,0.593459729511188,5.62825246136812,2.94039187820423,4.62948691539516,1.22199400890864,0.156331804375244,0.644280018228714,1.97438913139118,1.46520891662987,0.623918851637444,5.523363133317,12.9014907274608,2.76132079704913,19.9431370797519
"28",3,8,0.786407766990291,0.580645161290323,0.666666666666667,0.620689655172414,0.858430799220273,2.32020449609434,26.0390926043258,7.85399494558021,30.0697508339959,6.39233040265635,16.329399196134,20.0471805244159,29.5782528303675,19.7854332390553,2.08942848318189,0.757099498266845,0.365997788276203,1.79346295979144,8.41962863717874,6.77232515317087,12.2941448284458,5.22510045982169,3.57755831940149,2.32203984472562,0.243596426686573,6.71984766608374,5.22523306981395,3.55029092662373,1.43889660893666,7.37962740868652,3.87032786128411,6.4549484343291,2.2451476700994,14.175707833396,4.32817654593589,5.18615464349984,4.0607105817853,0.930898423263068,2.84147565495214,2.02212653618071,0.14315352028287,0.30604170128868,0.377850340309378,0.515698433335128,5.47361772333576,2.83033652592056,3.96078943887828,0.945568514061652,0.14590483702132,1.14296358820201,2.10371498240125,1.88002137761881,0.447657148825357,4.95215826422955,11.7769492145962,3.25145071651146,19.5042419684011
"29",3,9,0.825242718446602,0.6,0.652173913043478,0.625,0.830706521739131,2.13355045265198,27.6325687680225,7.78342395694037,30.6226432592812,6.20889435726842,14.4665969766226,19.4680428420947,27.9356862888454,21.3106770494264,2.18716248624323,1.07531718883379,0.650752183912132,1.71825571259945,8.55006350108151,6.89213468875409,12.4124022614859,5.13427763292307,3.86906376133381,1.72849164787705,0.322500601781357,6.92643123308243,6.0718123903531,3.16998079939244,1.69135046359883,8.27009596475992,4.75009506323657,7.10246513698903,2.12598895018019,13.6086826923479,3.6608060457703,5.50669127917641,4.46595539208825,0.836565593891663,2.94197380762116,2.30586679856336,0.233323033233653,0.320369637800136,0.524905151982136,0.634007520260484,4.75901896316803,2.9215498664698,4.85256331097474,1.10903963478768,0.185595609125157,0.999642890145361,2.56487546888996,1.77441717805379,0.609871960458377,4.75035352350014,13.1901261126206,2.1151743096495,19.4250279318819
"30",3,10,0.83495145631068,0.6875,0.478260869565217,0.564102564102564,0.782608695652174,2.24917736044143,25.7911953470816,7.73279420524157,29.4338967888018,7.25260893021915,13.801852873532,18.5013105183898,28.6320777776584,20.5598220108176,2.5619304698894,1.02586898692564,0.721124427533568,1.57921562107887,8.51294254101107,6.29576221080707,11.6308131719177,4.79338748906506,3.67453407632306,2.2796724177454,0.267488783037173,6.76019360621814,5.78986034738239,3.92835338295113,1.55501182405655,8.45878383983955,5.38879316578312,7.20980938417069,2.17973710273287,13.9275245728125,4.37437826661546,4.8397852434162,3.91852279508044,0.850048939800261,2.92155772880433,1.90614188140245,0.196908258877217,0.239074029616863,0.547087760266873,0.27600196410783,6.38982181601194,2.16867910485873,4.05448820819871,1.56926314155319,0.158459684188107,1.07929096221249,1.75362610319897,1.82578829034139,0.729796793391125,5.11971282241356,14.179950627732,2.98721953669049,20.4976960285922
"31",4,1,0.87378640776699,0.714285714285714,0.3125,0.434782608695652,0.76257183908046,2.11541967361943,27.9210901142642,8.34771932793008,31.6033137609382,6.45231498348446,15.423664624309,20.405227730698,30.8045034889212,21.0224761685415,2.17381192165356,0.902310091454811,0.66053398873441,1.51352458876101,9.07578300165109,6.84412923555077,10.7673280074479,4.89357353400173,3.86365422969697,2.08991036704661,0.310459607766912,6.48642455117534,5.97537963809908,3.64303266215826,1.55164270396039,8.50274839705633,5.20456504008134,6.72376692644837,2.37254546706406,14.7040050851302,4.53661753690592,5.69159608685328,4.40956332838479,0.723658223855755,2.67252416420262,2.03465950085797,0.203078746294694,0.247224582084772,0.445388989261568,0.428404242142715,5.96731250716141,2.30496653097387,4.73417426170799,1.0369112352745,0.243649289675713,0.928445116215383,2.22562314339701,1.4428884925213,0.826337877327888,4.6580043781752,10.9179885925461,2.93276099536485,21.5139871330977
"32",4,2,0.766990291262136,0.5,0.583333333333333,0.538461538461538,0.782700421940928,2.08281084147145,27.5695489294489,7.94546327765767,31.8866789762909,5.46446806794068,14.6550268445368,17.6793009524548,25.5887416658047,20.3734722839444,2.39883810579832,1.02908174964326,0.658530162524165,1.5310177803255,8.42002427811239,6.37999115175011,12.3923005769045,5.22332616225101,3.81489733443025,2.03709354539126,0.345647862674829,6.66393640388493,6.63887737341732,2.85520381816613,1.89765098822055,9.07434652864751,4.68468393352985,7.14571865431198,2.2749082068536,13.8767821735147,4.52063908814378,4.9384707381141,4.03749816811842,0.887232096694014,3.52767436474288,2.14374000901198,0.255976080254524,0.256932341774664,0.453682217784884,0.492798407726609,6.2736502728132,2.77730796039526,4.4088516158699,1.26354703048453,0.131263354285173,0.803816024684459,1.90877428017715,2.06428207002491,0.679413292398074,4.83086743594082,11.7991233181962,3.2282568254366,21.5471327157064
"33",4,3,0.83495145631068,0.68,0.653846153846154,0.666666666666667,0.883366633366633,1.88457908037669,25.2002883740773,7.81974621263558,27.8092427961314,6.16684801444628,14.3690280329432,19.6292486579564,27.9165311078169,22.361986993382,2.31244789304846,1.0143742352814,0.695771147751294,1.78332038875058,9.35795943975785,7.01097204779655,12.5160676615144,4.96470920132701,4.09419158203488,1.84171400415236,0.347019868394477,6.62565819755625,6.18292761059933,3.74722599790517,1.53902101087211,8.60234097511381,4.83695883445193,6.58377203685765,2.17392250100935,14.3299042870255,3.73897703678898,5.18521333203213,4.27663133675984,0.867316669278327,2.81222126570809,2.19305348233099,0.20852997986462,0.322041454223989,0.477432356748544,0.575632822308939,5.22707264598895,1.79213288811661,4.22416333651692,1.19705205605396,0.173477952025617,1.10998603105128,1.90249664045007,1.54537830188815,0.5733129598766,4.63589626514446,13.2388974910442,3.29203067581245,19.686231528167
"34",4,4,0.796116504854369,0.666666666666667,0.645161290322581,0.655737704918033,0.764336917562724,2.3487440304522,25.3019403821549,7.81627336635715,28.6298863134991,6.17148944715098,15.1499741314228,18.1440461199527,27.8944653098477,23.0575451445739,2.36361683160526,1.06910968582201,0.558919463120529,1.74914079561378,8.33341290494196,6.66525199740207,10.5589742946769,4.86653575176048,4.28536163165277,2.36251999894337,0.334694346606281,6.19507180638832,5.90957515473115,3.75470388877973,1.70296529034462,8.04068053819991,5.35880037324426,6.30087944342732,2.32223016197437,14.5116706425752,4.53507764652832,5.66830189558058,4.37141663239743,0.728592433425579,2.69808072202593,2.24377367883379,0.234873473145798,0.224401125048392,0.377959397933834,0.663850501027222,5.30966200498816,2.74004169658,4.283390747866,1.4321473657374,0.140558623240069,0.908668362461676,1.65322460961756,1.98117779547099,0.667132494743482,5.33575062103348,12.7064560722322,2.60591962643087,18.0523157557439
"35",4,5,0.854368932038835,0.727272727272727,0.8,0.761904761904762,0.909360730593607,2.63770734214354,25.7157750772611,7.80853785698165,29.8192048492322,6.08447354781612,14.4014814389452,18.4160471806671,28.3810298627662,19.4250505108811,2.47237454772053,1.09507973180671,0.672424352219869,1.51371164233397,8.06681616750884,6.71446961666518,12.2296831348729,4.70613565072084,4.02671404173444,2.16485291633538,0.323883062418726,7.97923989618014,6.06698498969156,3.51565636265565,1.63772836857471,8.81587923052568,4.75123321765439,6.49110273244705,2.38115548728523,14.6193783201082,4.1936101697718,5.25817649974329,3.990091629282,0.954470650941217,3.19505116153273,2.03128102462105,0.207811111693062,0.205856625255371,0.46911297473792,0.631045080014605,3.90756717209411,1.52850502362334,4.16045867457007,1.4674493826179,0.172322025257562,1.00708858594812,1.85438673916066,1.62689067368028,0.78167092620542,5.38759765596197,11.9874277758337,2.45113061556,19.2467494037146
"36",4,6,0.757281553398058,0.52,0.5,0.509803921568628,0.72002997002997,2.60490942833362,26.2639030358915,7.47504758413081,29.7356410702823,6.34523767585577,16.2047547930886,18.6827640969741,27.7966381243384,19.2435784349913,1.91953502671263,0.886962879473923,0.692465428987469,1.67613234396647,8.31314879296301,5.78450686679868,11.9918061677447,5.00790726428075,4.17236126931974,2.11955953894319,0.303679514590168,6.78135034833478,6.56873238542745,3.50184932093946,1.68849465564652,7.97575488007393,4.90701137186085,7.02909632622854,2.40097428423845,15.5096357891627,4.61526532816884,5.09657468714574,4.20282464356194,0.939732972506194,2.85658760228803,2.22189736484751,0.162195046394234,0.198582645202944,0.493852240147585,0.437268428766126,5.79997011689067,3.01326302212341,4.16395893436382,1.21605925737316,0.176032643003231,0.625539741809746,1.96603118751385,1.77990686683698,0.62559289858965,5.62694321870139,12.8714583917386,2.72916244254488,19.6879361549883
"37",4,7,0.87378640776699,0.777777777777778,0.388888888888889,0.518518518518519,0.83202614379085,2.18322653512594,26.6079587733644,7.75890975373072,28.3133011769115,6.03636084925446,16.4064093347867,18.7000032429494,28.992764373514,21.0458642270102,2.68690188055261,1.13214804755403,0.746394595326903,1.53816615363937,8.17033659384383,6.55621693168722,13.3502803642758,5.41452754818448,3.89913307112948,2.08238755551002,0.365151233435763,6.51101794067756,6.00008965978512,3.57797852827256,1.79697922739658,8.41937703694959,4.48047112013131,7.45843056030905,2.20763434733066,14.385094071072,4.87401570798518,5.07684524095224,3.90685620525252,0.828812368454301,3.27821826113911,2.74123674462,0.147812207904897,0.330265252068907,0.417482003008357,0.70932620312978,4.90338946635406,2.89018574213419,5.05565279675029,1.24786100455543,0.0339041354169523,0.998570778278241,1.81240344280951,1.92161871057774,0.635841528612688,4.79967944485987,13.8443766022314,3.13757894423417,20.0025206420543
"38",4,8,0.747572815533981,0.58695652173913,0.794117647058823,0.675,0.797740835464621,1.66191931875984,27.2238406974331,7.52752759393476,28.7248029060968,6.36666180123237,14.0086590626127,18.4314714145214,28.3392753555917,19.4339671286029,2.08049697966066,0.916411289121594,0.574741000782273,1.31543104982139,8.17862906980178,6.1855720043094,9.77887676313196,5.29519862278785,4.05385314327549,1.8549439705451,0.258346435428592,6.6026327445569,5.77070030264654,3.82491212144677,1.78293615682051,7.20470551510418,4.78607773325423,7.05069579776778,1.95650188890447,13.9022565495088,4.43242347106792,4.9929532863099,3.34071146990257,0.788674949544944,2.70906093502203,1.84346713980972,0.2189916114675,0.199989487768814,0.537892286249477,0.198639232463217,5.40856578898546,2.27359833676676,4.53360100852306,1.14252134416073,0.183293101613757,1.25407674174041,2.00050158870032,1.80552162891946,0.573550531050829,4.76289112097261,14.1297158580377,2.33120506439468,19.6922674208571
"39",4,9,0.650485436893204,0.436363636363636,0.827586206896552,0.571428571428571,0.79520037278658,2.15434089014512,28.2021829543193,7.54063750189551,30.4996336940914,6.06235209256886,14.0628642917088,18.5535539543849,28.7065443595467,20.9118676847,2.17355349844,0.945926541166324,0.19754663993301,1.36726484779113,9.06441133876478,6.28516036577544,12.232303713222,4.54662968742338,3.65823145556575,2.43328251509699,0.370720779613344,6.37490234967771,5.66214883252766,3.82538172829528,1.70304575229669,7.6748856255671,4.3434464936231,6.34341051996402,1.98610045404789,13.6086509532865,4.55022173160753,5.8074961966826,4.27351285855847,0.751895632551642,3.27577719190378,2.16339293438683,0.242242861340281,0.202740104345404,0.37107085824327,0.470626520762618,3.23222578100991,2.91350553631455,4.42282794908034,1.11005927897248,0.139209291765023,1.03372453831857,1.86620241453916,1.68386070094433,0.708375084254645,5.02661236497978,12.0038708522269,3.23526018434159,19.5105327770804
"40",4,10,0.825242718446602,0.647058823529412,0.478260869565217,0.55,0.804076086956522,2.27110620679998,25.7391924456768,7.61674940373446,29.7197530294514,6.28586485601982,12.7873696460717,20.6761387156956,29.6695032757191,20.0207304674256,2.06506767424588,1.10204578999068,0.628371982270083,1.52562272317984,8.94954376927649,6.47621869701452,9.42370016437548,5.3198414362772,3.58700398437936,2.02665739080424,0.336655398984796,8.17892558129638,6.19091063320598,3.84734713451236,2.14130562356335,7.38261700741907,4.96472478160656,7.43206531229767,2.34329643883685,14.2943619503153,4.74502384139187,5.43483911126014,4.29145332801701,0.80814270811174,3.60983353804948,2.01866176344178,0.221254876817,0.202627041449762,0.606155000278801,0.562181377817379,5.95658130275635,2.52134597898222,3.81487857927523,1.05946202599215,0.218718767157536,1.11183979319191,1.99817362650735,1.81908537937154,0.573090977587211,5.19642563222158,13.2381122679439,3.30851499231778,20.9667130963622
"41",5,1,0.728155339805825,0.568181818181818,0.735294117647059,0.641025641025641,0.776427962489344,2.12287569640811,22.7293538792895,7.74280138921933,30.7615210652137,6.25506895372427,13.8589760074684,18.9911625963198,28.1219667734686,19.944787965075,2.16419480789817,0.916740962198808,0.622994548646605,1.65001299630647,8.29569694536167,6.61880779533053,10.8667172127578,4.90667193948163,3.37621152516934,2.07114977578455,0.392375926237552,6.9228345959599,6.67156515389101,3.81408437055874,1.65823887424941,7.99409773143375,4.12469491443729,6.97195363867033,2.38634324284394,15.4062816549614,3.87578681073375,5.53882284987252,4.28970747482023,0.810172964410732,2.99792816745397,1.96010176868705,0.19468613721099,0.283081027331675,0.635252880296957,0.635433075086597,4.18116013494993,2.81501219822932,4.19283497720879,1.25156850845802,0.137790058767429,0.719447709109317,1.68873546277074,1.92903712908446,0.648160214994245,5.27318354318991,13.1291202058108,2.99485942747575,19.8972993766542
"42",5,2,0.70873786407767,0.479166666666667,0.821428571428571,0.605263157894737,0.818095238095238,2.34560957613676,29.0190892535021,8.49910699568258,29.2529334392933,6.28860740087402,14.8895628828996,20.410424988699,30.7696430530592,20.7422854977217,2.27427559704553,0.851204097475512,0.51204835667451,1.51016468634108,8.47862843831314,6.09576825715229,10.5597479574285,4.65263437450933,4.16694420680594,2.11780250715811,0.291708553019967,6.12796324691648,5.78803153788019,2.92128269796497,1.87251970803823,7.05105769442446,4.06110919020939,7.0867400221177,2.23697223661956,13.8948442478347,4.33154538171778,4.86896669949241,3.85441229329073,0.888091776993977,2.64219805721252,2.29027875406249,0.171566133316851,0.177451877755072,0.47143545718576,0.678151564816702,5.671103592008,2.68554363527421,3.94190358146336,0.979770059343982,0.165708747781592,0.87536866749437,1.65955255469204,1.53417152409338,0.733966788049114,4.53090660240383,11.874644186064,2.50464443327829,19.3776695202195
"43",5,3,0.766990291262136,0.527777777777778,0.730769230769231,0.612903225806452,0.865384615384615,1.9872762466082,24.4685951643833,7.87264082983071,31.5264468027175,5.90775532305025,15.2326390194084,18.5407980696712,28.0800359627109,20.2993961113618,2.11478499067918,0.878558800231393,0.735333217919587,1.49635533324125,8.17121643282195,6.95251313534017,10.840160988728,5.42269336961821,3.89347785576772,2.36236400895303,0.310690217309217,6.52040493228813,6.10813424200263,3.64258058990331,1.73045688133302,9.30149644294576,5.40863510950166,6.77881829185717,2.36759566655873,13.3166747834922,4.75304808235373,5.05131904064622,4.50535564317497,0.884901293619557,3.14874746055167,2.29701146999424,0.253016245982489,0.338589252964461,0.36837920059292,0.610679374151075,5.5639714395018,2.09102498945068,3.69685752286907,1.21465209890629,0.166270110869116,1.0946435480534,2.00342534476167,1.82833064993348,0.707519662700999,4.90210325135649,11.9004286266312,3.00568310849667,20.6678564997537
"44",5,4,0.83495145631068,0.782608695652174,0.6,0.679245283018868,0.884246575342466,2.09488787306023,25.6377728461682,7.19787093449905,28.3663584079953,5.945664978155,14.4667401397744,18.0618795931129,26.0609487485974,20.7944824473853,2.25797308206193,1.08713880931517,0.741567134287806,1.68455949329196,8.45518971609416,6.81559167003992,11.802716342292,4.88630995203595,4.53417321833372,2.08013017290769,0.345986419404134,6.95107009296047,5.6062539993213,3.37107221880241,1.60362105790274,8.11650489118164,4.9713247707576,7.02210138953482,2.3928774911009,15.1058175521424,4.55154504472413,4.79290614498203,4.49999589000477,0.940287227680997,3.40417555410593,2.44920480975308,0.20656095726408,0.238481738971578,0.414785239722209,0.646031059768009,3.96406749332071,2.40497198029448,4.43754767171307,1.55942259613969,0.142467967752683,1.10378451200867,1.90561973885367,1.80752029607009,0.718761088254393,5.59433177554768,13.2469962658568,3.11152477706842,18.9427036360825
"45",5,5,0.669902912621359,0.411764705882353,0.84,0.552631578947368,0.785384615384615,2.38011689688804,26.8825629642934,7.64023877879007,29.0163866894009,5.94916327696833,15.2364777462871,21.7272955749573,27.5826235353351,20.710700854094,2.21640252869265,1.05390471213963,0.621926438919632,1.40048348324267,8.54548452963938,6.61359902490924,12.4698169996446,4.75549180220738,4.0156996151455,1.50987566779409,0.264258172736875,6.55301514598862,6.10005631027142,3.4859470486045,1.70507250709062,8.0673323201455,4.75300591627745,7.21762252867639,2.34384000534381,13.4992060156461,4.65081546542919,5.59281840465265,3.95506925291652,0.784159844112712,3.24261536338469,2.10370352060335,0.114172475849162,0.273983989924542,0.489037041644697,0.308567361979311,5.1061350056869,1.3047779300207,4.09899699176933,1.16332577350871,0.183674569202594,0.987598827295004,1.85544213228995,1.96504925631499,0.660188470132358,5.14326591928288,13.1664476777568,3.16234210852253,20.703639245445
"46",5,6,0.699029126213592,0.368421052631579,0.666666666666667,0.474576271186441,0.743612078977933,2.6718580351801,27.7701195067496,7.53147217213031,30.0802661857592,6.31382511783301,14.6990514822383,20.0805559062039,31.9442453287333,21.4434823277861,2.32180557830111,0.89639600979477,0.234076838411111,1.46627119858599,8.56810118479566,6.47401226167135,11.6575285629142,4.70575148343868,4.09199908530035,2.0393784509204,0.309241130243986,6.96088642525586,5.53072418002743,3.6267395512419,1.76313317478771,7.75241191635879,4.7365160290138,6.50557983031138,2.10795441138888,13.5043826343184,4.52207383894401,5.42463455561216,3.9106233324121,1.03800140617,2.62819589291964,1.81589654801472,0.224104407438997,0.192629966240541,0.48338353451418,0.452694290267041,4.70375154108057,2.79519498899285,4.29207929994992,1.13555834084527,0.205164692220895,0.795017861636599,2.44084873372822,1.71515230380099,0.607270019603127,5.25674799530852,13.0254598112866,3.17101875565804,20.5893604993911
"47",5,7,0.854368932038835,0.538461538461538,0.4375,0.482758620689655,0.783045977011494,2.48885316639532,28.6234329374645,7.92761100142515,30.291750673555,6.33009294386174,14.2121862249762,20.1948033146776,31.0961354771501,21.4168661962972,2.47751737373522,0.98644324323087,0.643531162844569,1.659528505983,8.47324896832234,6.86006135007107,10.9454054632977,5.0813505296821,4.10683806964534,1.91874476553623,0.306092093853052,6.80831159054272,5.79408252308962,3.71592665857582,1.74899914316377,8.51229186454852,4.67725510916363,6.79864284577625,2.21473223002624,14.4908310013953,4.57158507451507,5.61061460327211,4.23820778391125,0.843307861247693,2.76493382666546,2.10468244150759,0.219648615542296,0.236926003700136,0.579960314750162,0.670877433700843,4.99933145699417,2.81302493026668,4.28272155127022,1.23354340612666,0.0376606102514941,1.04573193726248,2.22986617677397,2.12924548985334,0.662922801073096,5.51134674498311,14.0340100453958,2.58662429995658,20.6027449522343
"48",5,8,0.776699029126214,0.583333333333333,0.724137931034483,0.646153846153846,0.816868592730662,2.28469979881107,26.9657247705242,7.87597162077264,29.1148989338004,6.05800407870606,15.2278469043581,17.6466339617308,29.4424418701007,20.786165909372,2.39699503614029,1.17824606426284,0.630439979035938,1.53184322287372,8.15558662448268,6.17211620046221,9.79122072052754,4.70947035875303,4.10817954487652,1.90826415350795,0.404251943995317,6.17194485284384,6.77863785571491,3.42727176638292,2.10677837340036,7.61782257133521,4.70828516381951,6.91559621216599,2.07921742667506,14.2017744719053,4.78306466532462,5.29424973661019,4.12096223328798,0.825926771640786,2.97014631814818,2.38121678304852,0.281978070761927,0.230366728581918,0.548704325607876,0.377078728738456,5.71157367498014,2.76087936792457,4.29613939045359,1.39687783464659,0.190237200759838,0.993567859981433,1.79060999033289,1.66424009367905,0.599690235518969,4.97764140792375,12.2255535082994,2.64252991147909,18.482377009504
"49",5,9,0.854368932038835,0.882352941176471,0.535714285714286,0.666666666666667,0.856666666666666,1.96027690154708,24.8319786431362,7.46379373568719,28.5363690649544,5.74024532963862,16.068238084048,18.123227916732,25.151076555821,22.4385043591558,2.32134594029252,0.935376618366192,0.700193840463016,1.68252065812002,7.56396449680888,6.3911954061768,11.8430024982447,5.05168266667295,3.50742777831972,1.90628796625194,0.405227429814329,6.31303287061666,6.27770824280309,3.05298449676412,1.92240266320782,7.93058442679662,4.96588343963322,7.58018688588506,2.31163350536281,15.1302986321507,4.78398868131383,5.17842965503019,4.18661818499084,0.986598313637567,3.02774969369347,2.17472653405286,0.197923442501459,0.282761449906135,0.413991161366774,0.593096134488888,5.81958048112501,2.49011053977591,4.47740254706338,1.10978963974663,0.137526190127806,1.12556903771903,1.99504292653462,1.70014708641478,0.718653654952343,4.55879044888055,13.4925153945963,3.31566947331901,20.0881538267642
"50",5,10,0.757281553398058,0.419354838709677,0.65,0.509803921568628,0.765963855421687,2.42317405375009,26.6164075361016,8.22205498747043,30.8257684224684,6.6904556191902,14.3191567529051,19.1560260924853,27.53789212796,20.2100384388085,2.5415113196928,0.943092512728383,0.748192267677493,1.59603927572178,8.64035649944117,6.33184028671241,15.4268965738985,5.42745607900241,4.182002069282,2.27346540254733,0.198210391640135,7.93278701673761,6.36435423549908,3.58896707396093,1.49812061739577,7.9589476228558,5.09647180445283,7.22198850584266,2.13272368384713,15.1667578262921,4.48438804486743,5.09764699277103,4.17349825013225,0.694287619841977,2.45630907099658,1.93267188361569,0.1691531132153,0.367784845294323,0.502862269614706,0.37938160963653,5.82560432793762,2.69917040105032,4.13436931142507,1.05092116214897,0.139611057669046,0.996197514729234,1.70480280846458,1.41536003296441,0.462437303035013,5.16582454297252,12.5427757001729,2.67574849014877,19.431459771213
"51",6,1,0.815533980582524,0.636363636363636,0.75,0.688524590163934,0.862619047619048,2.68276637883446,24.2933291347734,7.47176206316985,28.4324838901535,6.17426133607756,13.6118275414239,19.3586047685814,28.3569865649154,21.0481386267396,2.1509650302856,0.930131384403062,0.615796698616898,1.54107468643061,9.05504748080904,6.29209173088598,12.5138366217674,4.58054933585806,4.46782477100017,1.92692498855405,0.32009900469961,6.61092912040726,6.40649858872101,3.67768163980891,1.59680027860658,8.15389271971203,4.77292344975102,6.50320734262063,2.10169887589248,15.5004896019156,4.18876328359362,5.59815714584924,4.46185609522267,0.885123575460824,2.41100856186961,1.91084778451973,0.177697098357247,0.155038890077229,0.379987540451148,0.485078207779933,5.26142322576258,2.24945632928202,4.19217793564645,1.30699254032742,0.180208436352093,1.28683547646087,1.69433032201438,1.40933119062157,0.512467348323797,4.8806944162187,11.8153202472671,3.04770406150491,21.8647924954732
"52",6,2,0.805825242718447,0.708333333333333,0.566666666666667,0.62962962962963,0.798173515981735,2.32212177825781,28.6267892141153,7.86567034337728,30.6431467510752,6.03516141704019,14.0909576919601,17.6172923710696,27.5750610816423,19.3205940384955,2.37259561617841,1.03013238896074,0.751947828815723,1.67335719568146,9.18217838702944,6.11936194557995,10.6316771104299,4.78847939567415,3.6914408695323,2.00783930406135,0.360239812312996,6.98047315469678,5.33670882823472,3.19531153367506,1.86497463235351,8.49747887506809,4.25795628194002,6.4836679146412,1.97974910208463,14.8414607314332,3.60884164139967,5.3171012999686,4.27569927657632,0.895737822155433,3.09475164624215,2.06685255029744,0.201169975622659,0.26880066762334,0.497384726609174,0.69954587790461,5.51238817753206,2.8992831639827,3.61315674313256,1.28225278278753,0.14327631495006,1.02065180323584,2.02824295113292,1.796406062304,0.716956178322768,4.80450392021574,12.8791731114755,3.2237774200821,19.5137819416895
"53",6,3,0.786407766990291,0.551724137931034,0.64,0.592592592592593,0.852564102564103,1.78405610493607,26.9409682009967,7.41070652387661,29.3518727430097,6.31084790322897,16.7789748751343,18.8433250414317,27.4911123740994,20.2049055234296,2.32353827342321,0.928046328258468,0.663415582619887,1.59401009621401,8.28031045019122,6.80528599687034,11.2830556170987,5.65665600927203,3.74760899311842,2.12121860800881,0.30267117541036,6.90055373613097,6.37410672300068,4.20997683052404,1.50490534593977,8.18502946085121,4.76270889102737,6.97278836633783,2.15260567624784,14.0267875742925,4.85543171257651,5.4863346098924,3.92263408296142,0.716491281963485,2.86598512741506,1.9901704506248,0.0824570018112848,0.236971793261517,0.530633339581129,0.493799361911612,5.27928496659036,2.97341466800816,4.05673886096687,0.904510497818672,0.0365641371700195,0.681384749139284,1.84419817093069,1.9754558263156,0.65366170335292,5.59953260412118,13.4037582639534,3.05094746327063,19.0594854569095
"54",6,4,0.805825242718447,0.642857142857143,0.642857142857143,0.642857142857143,0.855238095238095,2.08714864226885,26.6515059911895,7.2784103567556,30.9759456418111,5.76682240954014,15.3809698449885,19.851907942507,28.2382214509741,19.7770669226413,2.05770766629206,1.14899216013432,0.843401505978241,1.59303978889875,8.17282916317532,6.71294045727695,9.75081726769858,4.59964140285899,4.47975582178964,2.02413078175902,0.323421544588455,5.93549246708291,5.51121717934445,3.53089552004315,1.76227807162169,8.39768208373448,4.76328354913292,6.9227647585701,2.32361354183958,14.8205893688847,4.74237557969159,4.99882871332033,3.64976424310932,0.954406330765854,3.03783243419708,2.28210192246895,0.287542741538957,0.254659760534531,0.49914843530919,0.571894449601181,5.18409810825052,2.4491891798216,4.13830316107051,1.28724322626452,0.239276263528683,1.07953404821745,1.84112195729024,1.89576692526973,0.624727788268521,5.45033345316288,12.6502174846504,3.07801428769175,19.3237227448418
"55",6,5,0.737864077669903,0.419354838709677,0.590909090909091,0.490566037735849,0.752525252525252,2.15602547066558,26.8977887760884,7.78456042165571,29.8153623030568,6.26517442853138,15.2015986999512,20.3542117098507,28.7916737538911,21.3398715421716,2.39613632642684,0.542758057566671,0.721780231937808,1.77484843138568,8.97725697759215,6.73738838352511,12.0083859667203,4.92665179494318,3.51106205934688,2.0549238044955,0.146961451768147,6.66066395864452,5.95957904348993,2.81569134036422,1.72226863157002,8.10594243630617,4.39223928839757,7.21592389343088,2.48201931404454,14.2427660465277,4.36849105236995,5.1457177788888,4.10520708178824,0.744771864494818,3.34007420651151,2.14155685452413,0.197157434339257,0.133401841965246,0.572337703182238,0.559937698690304,5.90223313302088,2.49164736253005,4.4612172985279,0.983471202412967,0.140720703888214,1.12322352640187,2.07229066193681,1.5749814280239,0.663783603479167,4.37906188044432,13.8387587311638,3.21176822138449,20.7427557399401
"56",6,6,0.679611650485437,0.46,0.793103448275862,0.582278481012658,0.785414725069898,2.20858052184895,26.9727400476653,7.31647384812777,29.5949740419008,5.84379634319954,12.780903607289,18.1091739959109,28.9701254654501,20.6401664623668,2.47003228407515,1.00055716814376,0.327536832097969,1.63925480171105,7.61093205779316,6.36215200655573,12.0712171792015,5.72701709980443,4.29035719906418,1.60412169460164,0.295392059889809,7.29557469315719,5.99756659537106,3.80936591693906,2.13908743150496,7.43172012700052,5.25553695049764,6.86347231690669,2.38584087185745,13.0289711867215,4.83788966116062,5.1021000406123,3.94631978851141,1.04971445474778,2.91213118271172,2.18714887313276,0.258327416663139,0.271643994018804,0.49422703134154,0.252550428913157,6.19380580287975,3.14749672034048,4.29452143917791,1.09158495278004,0.147996832814618,1.17136070982567,1.94223937468421,1.83544850087659,0.747607396059392,5.71041749848837,14.4848767508394,2.29822975729959,18.0714270139674
"57",6,7,0.796116504854369,0.52,0.590909090909091,0.553191489361702,0.785072951739618,2.24170905818989,28.0043418607111,8.58295200755847,29.0586546966612,6.56656368473145,14.1720650274599,20.2371936826883,29.4240890283177,21.6417753134161,2.33358982441852,1.08447646259013,0.727364170154468,1.45892309138127,7.98930634721473,6.68580403074578,11.0277500982565,5.08169920009104,3.58821070026032,2.04842936573925,0.235998233305222,7.39909991764554,6.79083336857486,4.10588041325249,1.68726259125061,8.22992465688187,4.68247239264349,7.20257365273486,2.0399221490775,13.5823670223843,4.87104978895669,5.5760753911292,4.66442792913046,0.769443844708997,2.9859766025121,2.26113677008007,0.170655255312071,0.269344670452606,0.488799200793819,0.582214365497302,3.45897673755978,1.96971935034735,4.2801514101693,1.21774646656818,0.154845746364915,1.0310581779212,1.82428981843776,1.90994930077799,0.690555570440824,5.57922947090105,12.5314102153073,3.04727926272885,20.28982828896
"58",6,8,0.640776699029126,0.421052631578947,0.857142857142857,0.564705882352941,0.768571428571428,2.10170473860134,25.6463929543641,8.13443425172207,31.8587053075462,5.72470316331874,15.4967128843762,19.5192346057464,27.5301292680426,21.179459523405,2.397598394162,0.97964375279727,0.770543021415465,1.54728775835564,7.72877941300945,7.40644856161115,11.5973597551021,4.90299119930681,3.6696820921689,2.12132472343929,0.39593401741785,6.50843180430787,6.09031344536676,3.44968225264039,1.71136374631893,6.85295032791647,4.70947201473421,7.2581216149234,2.23838724380681,14.3901796326277,4.41263020021233,5.04551738876682,3.75286406707699,0.857814969358751,2.68051126923858,2.1993464460741,0.243020192605581,0.209922379365211,0.560399132233832,0.307153474943316,6.3900281653878,1.8197024132149,4.35408353719948,1.4598725028145,0.147289540584977,0.917498745594818,1.82178103771776,1.82262546376932,0.753441773248412,5.21552669443856,11.7588712851637,2.3804080948343,19.6322625814201
"59",6,9,0.864077669902913,0.736842105263158,0.608695652173913,0.666666666666667,0.854891304347826,2.61033664197688,26.6718678477153,7.65809884770856,30.4450996026533,6.31612247347182,14.8341540294424,19.8182471995568,29.2454894748492,21.5143827356066,2.13428695012009,0.92141140144056,0.495592475004213,1.44258547558428,8.58643373914233,5.94371679411249,12.5951891118914,4.45950762494104,4.11105386854606,2.06950868486061,0.418329133410934,6.21726038659387,5.6040479775655,3.58194887207215,1.61263997350995,7.69064591228325,5.21883106477476,6.83275447041772,2.17250310981492,14.1897665017851,4.54834449407812,5.64330977978013,4.02560201323347,0.937347604276671,2.74682072429558,2.34821919951434,0.191591269285334,0.285914434981776,0.393134779065543,0.621838289255575,4.5195652253206,2.56172457601294,4.23935410991144,1.33224407342551,0.142629218428573,0.630664513403279,2.2202684522463,1.81476530373719,0.725780443446276,5.04428234873935,11.1745610338129,3.11574509402562,21.7860046898337
"60",6,10,0.796116504854369,0.517241379310345,0.681818181818182,0.588235294117647,0.794893378226712,1.82149395847466,26.8083459626864,7.96035586834107,28.6136759783067,6.44899846029216,15.6192415892827,18.5067255166805,28.3466114493802,21.4686049366866,2.31903710815206,1.01837345506872,0.6482464777773,1.46470771587026,9.21616398075971,6.61946608270634,11.5725491998278,5.19349926160522,3.96655492467217,2.33677500692689,0.35022849610357,7.78690739612554,6.91470128032314,3.81122822882704,1.72557867774212,8.05530092594413,5.28767336177428,6.66344964202056,1.96112277555347,13.923444586726,4.53539035188509,4.98970330521508,4.60387942094645,0.88231491570783,2.89425437188886,2.12076281886992,0.146087356346186,0.274833893720716,0.2592477957862,0.499413321525528,5.22540221748165,2.50261467561594,4.3539077747966,1.28065251052472,0.159672044920435,0.92864261399844,1.78971238654649,1.68098098540637,0.567388879344548,5.72728016300381,12.8433444973289,2.41376839029894,21.2113534110196
"61",7,1,0.83495145631068,0.608695652173913,0.636363636363636,0.622222222222222,0.867283950617284,2.54865560292909,28.2699359751897,7.81287703994396,28.2532457593527,6.15710455955409,14.844376855344,19.6673580477245,30.585034567795,21.2623009475932,2.8128832136487,1.0607285999087,0.464393147946726,1.57866596667571,8.6510783356895,6.93157579161527,10.5415207512045,4.6931952170004,3.92920399080693,1.95106177520369,0.314450079337855,6.95613154729145,6.22588454834389,3.60309564559341,2.01629292507351,8.23206436847219,4.83582475876164,6.85722616658882,2.27263559153376,14.3954603862871,3.51949825760602,5.32638086492758,4.09344623369359,0.994270754518503,2.80069986727382,2.28917906201188,0.138874626943207,0.180347860586179,0.597034927140211,0.583633504613907,6.24107981942172,3.08107927499966,3.55951807145,1.25083322217249,0.242606695389684,0.66799930190485,1.95774666239193,2.00368256949708,0.664900862934017,5.34248237711963,11.8197125422003,3.08758870768297,19.5092531139563
"62",7,2,0.718446601941748,0.486486486486487,0.642857142857143,0.553846153846154,0.73047619047619,2.13613029483231,27.1974500398799,7.71102807429339,30.3221447176007,6.26873344076108,13.284240206383,18.7928006859027,28.7713305560554,21.1512566858605,2.26101813050123,1.03089483709343,0.765746962806557,1.47797868508177,8.70603561258239,6.59946290277179,13.5788034182874,5.10717967948386,3.75040741872373,1.97411999198057,0.286689099323181,6.55018249032735,5.08977294412202,4.06630853153284,1.65767952096437,8.5617078730358,4.4318118818836,6.25543268440315,1.83770943032889,12.0156189167262,4.69229428173113,5.11063061562917,3.34100580404361,0.93617006333161,2.99759596979504,1.66677961278768,0.198832355226473,0.331186833687051,0.36460730350652,0.421604234060356,5.03796030717684,2.79963459522905,4.34393137031405,1.06184967642523,0.0403732154707811,1.1354869589504,1.44060174583135,1.38529916834522,0.606866712029782,4.68342621741682,15.3990593995789,2.77925799579874,18.9181014979969
"63",7,3,0.854368932038835,0.782608695652174,0.642857142857143,0.705882352941177,0.892857142857143,1.9730289511834,27.1058084923916,8.174538717254,29.5777564146194,7.24684444142207,14.5848250927038,19.0746378140751,27.0452108810354,21.7229858417595,2.15734714977196,0.712614831084231,0.666036959939366,1.56279341132343,8.23941472556431,6.43628815310428,9.51556966938678,5.15319323497281,3.41946414150191,1.92459341965415,0.449637537947254,6.6932357378848,6.28977353092543,2.89452926988204,1.71275595795427,7.89117525053784,4.6733509429733,7.75196020696824,2.01287758419433,14.6640653784528,4.49675249051661,5.42511356052976,4.82614213897789,0.764525454729276,3.27236884890414,1.90952425104304,0.166637320721901,0.23946467048676,0.467440772292998,0.391067659762769,5.41298782807496,1.96269371518466,3.96412628569373,1.59717381502095,0.16240878204628,1.12484389677086,1.83648041636869,1.58854093343976,0.667180901169967,5.25545155908749,11.8091016845527,2.98346234011114,19.8294505354962
"64",7,4,0.805825242718447,0.666666666666667,0.461538461538462,0.545454545454546,0.703546453546453,2.27782765862625,25.9301549264478,7.91476809171085,31.765255151641,6.31922793938249,16.6682438804923,20.0317775477998,29.4354122428767,20.4874028448139,2.41632858335874,1.09809802476272,0.655538592405797,1.43825209330089,8.59691317065439,6.44169412660294,11.1195713613743,4.62509262167693,3.5320153545804,2.57962390940038,0.249030082554473,7.22651675301343,6.13667967085847,3.86882673973014,1.75583367855566,7.58641135138067,4.23363394424699,6.73852546124167,2.29925193074578,13.9443982569118,4.73725647594993,4.97306463532982,4.08672324896376,0.742802332741654,2.59364872859631,2.35552408134911,0.155739142437882,0.223323649305781,0.57147652794046,0.43471904342941,5.60452595317893,2.7615267127249,4.12321806971512,1.32404990881045,0.120539815189469,1.00977933302506,1.6244008532665,1.76644750730195,0.741312763282966,5.03903896836691,11.8679859895945,3.1362758161884,19.5971159898445
"65",7,5,0.776699029126214,0.483870967741935,0.681818181818182,0.566037735849057,0.830246913580247,2.15717743705038,26.3624033066339,7.5499489669307,31.1474402720844,6.38414793909511,15.043042301095,19.4586744980369,30.5882571227777,20.8984332144535,2.32764648330336,1.05938918952706,0.703870533380849,1.61016814766031,8.11042344411187,6.53225699446745,11.5227786672627,4.82033718470572,3.96019662619955,2.3732729357984,0.303135858249668,6.55900267074531,6.09649074463324,3.74617038259845,1.67471741262861,7.32380700766139,5.23117265800395,6.7677274111225,2.28172414877774,14.5845821571765,4.83795162640482,4.72092191204673,3.82478193200751,0.717062344835156,2.73233215964737,2.2046579952342,0.216000100583801,0.203257019714118,0.544933941130152,0.55504881537479,5.82072921064378,2.09032286266395,4.40217674779121,0.823952002820623,0.139262964959485,1.08089749539062,1.90484891258141,1.68281095767984,0.643864721821033,4.98286547364763,12.2133026951008,3.21317618720999,21.0796309425023
"66",7,6,0.796116504854369,0.529411764705882,0.782608695652174,0.631578947368421,0.879619565217391,2.06828193355631,24.9800073351268,7.90114803672237,30.7673060995288,6.37219772479853,13.9903631127498,19.9628235143971,29.1650685393452,20.9959001813699,2.0605085558393,0.902016595440092,0.648496072519382,1.39659537615838,7.97020343247657,6.86703722414476,11.9788512144708,4.93714088294961,4.59498023901417,1.88492149920719,0.382993511482309,6.60840524328861,6.53046605562166,3.2463492962292,1.82807240931505,8.26524455731958,4.25991023389672,7.24276138835121,2.34710664971838,15.4701148330506,4.3803741739767,5.37096254529995,3.99272298229091,0.84337524695321,2.71928046414546,2.32016186707637,0.182848925555162,0.321520039144695,0.314860365251964,0.5766281992087,5.60272437815616,2.36383276488258,4.31625509039319,1.18237897405066,0.196211493794399,1.07485000570466,2.27635060472004,1.65517732207746,0.671352960302048,5.0415767019547,12.0096087989054,2.34244209910238,20.1945967816409
"67",7,7,0.737864077669903,0.483870967741935,0.576923076923077,0.526315789473684,0.786713286713287,2.14213850910757,26.0645081899599,8.03447390644486,30.8628734964079,6.23297859695046,14.5297410124331,20.5020936877039,29.0609556999276,20.633324307155,2.27834069772681,0.921338578423846,0.284945506866703,1.69602295199274,8.07565641773033,7.05539564458691,11.5503603922045,5.02783390730348,3.83149509146989,2.09622784405756,0.286834207019873,6.56573937101812,5.60800356835705,3.84959335137932,1.74442501276071,7.50769347469554,5.07561706429185,7.18726460329541,2.28224649385985,12.8023666224249,4.79645497755923,5.56893190020406,4.05482457563826,0.898984235032455,3.01375076677571,2.13395290206867,0.185303858955825,0.215983962042176,0.517499861181977,0.564841381302821,3.17131297133506,2.93457718408295,4.35876104250569,0.930893551192364,0.113771656145784,0.739507067822838,1.87878077461712,1.99814187008543,0.713841060979475,5.65376165647773,12.6538067598752,2.5737681000212,19.8449836589848
"68",7,8,0.815533980582524,0.730769230769231,0.612903225806452,0.666666666666667,0.820564516129032,2.48602468055258,24.8185636367987,6.9486035672617,29.3239324428429,5.59288292169423,14.8310966121489,19.0382410623887,26.3174603668471,17.4898016420096,2.21847345910562,0.949552878902466,0.738158496981204,1.76548914625801,8.31427594768051,6.82460678778632,11.3277229833851,5.00613245252626,4.22579134718884,1.86196467316956,0.189513028763253,7.18906987198411,6.29223949344596,3.15154133041584,2.03695751004463,8.1732487245071,4.78397010282992,6.77309128778064,2.06552758124717,14.681658051558,4.37704723680944,5.51936344159773,4.07196863604563,0.947755999561018,3.31754457964425,2.21206276809833,0.187860503493917,0.221900700120166,0.434067320910262,0.438924735330909,4.40563339600897,2.45253401352161,4.20280682533577,1.42061136321966,0.170068623314004,1.03498730035038,1.99395223580245,1.62274468809906,0.64909828274057,5.41865095762834,13.5202145743081,2.86283522777809,20.7146690766605
"69",7,9,0.805825242718447,0.55,0.5,0.523809523809524,0.774410774410774,2.05628501813135,26.0082571502515,7.49334421420649,30.5204254027831,4.71986139329007,16.246495861207,19.0459563537702,24.9093685587166,20.465471224802,2.13220320512021,0.999872911249173,0.593691268735634,1.4106266054366,9.14264784252066,6.96778379894731,12.719611727687,4.7237980318327,4.0605231981472,1.67066134841768,0.35000305189247,6.47033939448477,6.81638946588635,3.63591817679448,1.97652862487917,8.93269575574793,5.17827011324397,7.02694570330943,2.33475854411272,15.6414750736692,4.30171741890478,5.23317560568337,4.0458273158266,0.749952838121573,3.07202861691069,2.25020711026836,0.217581193622868,0.233023903248982,0.542940091166607,0.600684288058622,5.31756577068119,3.15835855022208,4.36375700562033,1.1473098194366,0.185564007544227,0.509467348698198,1.78142882659196,1.84903172603815,0.603646076020685,5.21423964289056,13.7358669348558,3.45051198617654,22.0607250932833
"70",7,10,0.766990291262136,0.580645161290323,0.620689655172414,0.6,0.782851817334576,2.10208379574551,25.4960884369074,7.32214645506339,26.5120138304542,5.91660214389638,13.7886802990929,18.5303979475342,28.6421323907561,24.480374507818,2.27070259413311,0.799735144909316,0.691445008359971,1.35557272982768,8.95031330357067,6.66496646394009,12.8825077830591,5.26107392373911,4.11993920264875,1.79679248337417,0.318848415741765,7.19081494017144,6.43453732337665,3.75886599180039,1.76272619386295,7.95858060061524,4.2002013726243,6.99847208954855,2.01219502153509,13.9873234819845,4.71320434232651,5.7411716631567,4.26276180149488,0.692576243333112,2.73462584271654,2.1180764775348,0.205007502138956,0.160146077642333,0.528192010882171,0.611171312369569,5.27443013356062,1.89910861397154,3.87121312726537,1.24554852090923,0.20077363310981,1.1586403789369,2.16017276767503,2.14599445233719,0.524408481102179,4.78741496654959,11.3663241847189,3.53860626669754,19.1296606868525
"71",8,1,0.815533980582524,0.52,0.65,0.577777777777778,0.820180722891566,2.31647068035164,26.5685935747978,7.81333149136882,31.513245154737,5.80733673488035,15.9230809518803,20.8273994634846,31.5418495103641,20.9945014368254,2.3637096196403,1.12056891083672,0.624058368539857,1.6002121212826,8.24848823228681,6.46699226138874,11.4255000766002,4.20319749254552,3.88732107132736,2.13278567428676,0.344457968572714,6.74439616815269,6.47646111553044,3.20714810334452,1.68864199198981,8.27996100838615,5.26020992421044,7.27839091019842,2.49004310898517,15.0272893543922,4.52844503749587,5.03267317939926,4.18102063519764,0.916254255618781,2.65512386675277,2.15590554853969,0.18842373248885,0.236611157804835,0.415981898886675,0.437062761517133,4.55478597250654,1.3043035725646,4.28459820095521,1.18543672609488,0.183989491519177,1.07936737098933,1.97329106565553,1.92211832698387,0.716080664590181,4.49549295817587,12.0870285466448,3.0406021212632,19.5109168485854
"72",8,2,0.766990291262136,0.536585365853659,0.814814814814815,0.647058823529412,0.845029239766082,2.06151921125078,26.7600768975348,7.41306782767036,30.7492823102546,5.87954202278418,15.2177430663565,18.3974377801795,29.1609887025449,20.5951220424833,2.22300343491963,1.03081534219165,0.596105421234807,1.31529021369703,7.94311682028706,6.04005601082616,10.0278990119536,4.68308673073061,4.21789200254997,1.84464946792727,0.325322268204065,6.40555790206992,6.65818597751559,3.02126415087533,1.79025271446792,7.97510951482538,5.30189368588538,6.44585957053875,2.07780828517882,14.3869432927678,4.75778578454201,5.16859073630959,4.06380876216793,0.570472820826786,2.98138729600074,2.21866915525921,0.258013231731198,0.171342345788563,0.475400620117945,0.638716759587436,5.25941797881726,2.61396213107983,3.94697268702189,1.25827925646293,0.174339259227575,0.957469740806792,2.06466606334257,1.89431767166777,0.560339542228943,5.04467064806678,12.6386274302421,2.9433283544589,20.5051061654633
"73",8,3,0.87378640776699,0.8125,0.565217391304348,0.666666666666667,0.838586956521739,2.11957741806796,24.4976103377296,7.98786906244156,29.7817210920865,5.92600552161937,14.8958861660387,20.2933930425991,27.2989932080445,20.8181787239233,2.0529434574902,0.938131661571513,0.637701399636962,1.57972578740546,8.20608439383904,7.19583365446079,12.8671300828723,4.82728786463782,3.93812271596201,1.95217828663074,0.293049032042235,7.6632071080393,6.38983256158116,3.88365536642074,1.76713134629355,8.81652779279641,4.84482550316176,6.86907718104421,2.32898932214527,15.0510498794067,4.42317088113757,5.12694656239394,4.56234887452242,0.870592742137864,2.99197411118248,2.2023453696357,0.12282371457704,0.26015045042353,0.461585048786322,0.468562463365428,6.11099668017564,2.58146381051631,4.33971542667458,1.33551752319679,0.163004200999554,0.686679438458914,2.09877355207167,1.76430998901066,0.703535808962836,4.64692088667853,11.280387510408,2.94027792051927,21.4497405508895
"74",8,4,0.766990291262136,0.5,0.75,0.6,0.814873417721519,2.25183580660908,27.7940311850307,7.74429363709753,31.226675995199,6.06692958497575,14.4320077071914,19.7803756276362,27.642776977319,20.3183791118917,2.40725473179638,1.03710170699953,0.664327427005872,1.35379992388343,8.60788161504722,6.75975362250232,12.7055096391233,5.33242773536648,4.45452741263924,1.84503440704025,0.267100566545804,6.95103548094645,6.83943550844258,3.17646777179959,1.7643531808834,8.39093944753905,5.12895393652546,7.33482316079747,2.03340789211242,14.0458366669588,3.85960592477192,5.59196913639796,4.44574821562564,0.798501835829692,3.02230598179251,2.05727930795678,0.20276324268333,0.212614917614322,0.505708903686108,0.338685598673497,4.38611450805139,2.58857007541599,4.15281681546834,1.26565635942808,0.18981273433442,1.37377333409847,1.64669871836242,1.76317984444195,0.81030897686882,4.91996345296761,12.127973774038,2.89771123753154,20.1602231606926
"75",8,5,0.757281553398058,0.521739130434783,0.888888888888889,0.657534246575342,0.860380116959064,2.30027355477086,25.2523047656215,7.32015299996128,30.4770975301821,6.06072040231143,13.2081188465537,19.3848391118129,29.9453982343411,20.2091850298182,2.2632775374082,0.587117700178449,0.323189258791035,1.42521676487232,8.16950296436763,6.53517987645651,13.1482397214809,5.02181004125455,3.98567739344103,2.31263779290013,0.346091047697441,6.72462570109564,5.62578802331337,3.29546676939184,1.65135745272388,7.97649745408607,4.21883531870644,7.14270228454502,2.1198739913086,13.9997497888822,4.5994241597817,4.95991397194884,3.9038270625306,0.773206294775973,3.10758768931739,2.29708140638218,0.210423731359248,0.225190709874954,0.731414684746852,0.570387037966388,5.25864627877435,2.36090146481943,3.73235901619728,1.32935829269978,0.242598283250192,0.951996327079402,1.82817238637022,1.6213489892939,0.571066877432489,5.27127111487776,13.6554420915573,2.72271706579231,18.7756760623513
"76",8,6,0.776699029126214,0.666666666666667,0.647058823529412,0.656716417910448,0.822037510656436,1.94583585858874,25.126413730876,7.25543949249767,27.181106365278,6.27657758845056,14.9485684193207,19.1280211290097,25.5598360193278,18.9077573961737,2.5734450575139,0.936610310552996,0.730272538689404,1.67022964575948,8.0834100999187,6.94640145827089,10.7103409595015,5.12960295977341,4.29466445816488,2.03034679923291,0.26049083164352,6.17996398875331,6.23907804042991,3.85806782462299,1.4829517686644,8.13545442401645,4.12531436516532,6.72581307888618,2.124624160197,12.830689735265,4.37431524864537,5.02428549164684,3.97046513733657,0.682095268783571,2.96874914242861,2.17866821650037,0.280279301877142,0.255037017751614,0.666088650517672,0.382124100617241,6.24034723296781,2.97658375354276,4.92544346441145,1.39712520662675,0.22974910529121,1.11169422939791,1.8625444806564,1.88805248964321,0.719580893837818,4.7209965698576,14.2953668543727,3.00790183534745,19.919844856566
"77",8,7,0.776699029126214,0.566666666666667,0.62962962962963,0.596491228070176,0.795565302144249,1.94602488128465,26.6156704923463,8.36712476867953,30.1231197129494,6.43309629342638,14.2589284015903,18.4366796101213,30.0179670447886,22.2532881702636,2.24807863706603,1.11548048395351,0.382360778303583,1.53048061059845,8.65023807014848,6.80534783070168,10.5291057114864,4.81258998004103,3.92777908042102,1.99067504227406,0.221986639532903,6.76421519127996,5.92173458108007,3.24069339598749,1.78478910123445,7.37130680510807,4.92481840889735,7.06316451521766,2.38373420517082,14.3821642266583,4.75103290171614,4.99584110645072,4.25105976225379,0.934131173985069,3.06042000527415,1.94401130811809,0.196959566806435,0.226764131117805,0.543091565945836,0.555006358765707,4.45268581080852,2.68352245407437,4.13057099091163,1.06871484575355,0.0602048078863602,1.01279862426694,2.13913729527566,1.85593326541858,0.780698293602586,5.21768331376824,11.7715875730418,2.59117347734538,20.4187502273533
"78",8,8,0.825242718446602,0.777777777777778,0.5,0.608695652173913,0.824047619047619,2.13439471653688,25.7183473659185,7.69904169364913,30.7705925515799,6.49642077685116,14.3052323950513,18.8791902523571,29.3776014479236,20.8645800392615,2.68985139765368,1.09660440918831,0.607265245476835,1.44923737741936,7.95283368638982,6.33750184472491,10.6961538093851,4.5024351732131,3.52050412340313,1.84052975891638,0.328899260772419,6.31248935393332,5.57833472101624,4.04066390777594,1.84512950955327,7.04886649636379,4.91313698488445,7.52344645391828,2.22775402992546,15.1650947903772,4.50796183442433,4.92007812940092,4.33796159572078,0.9369291824932,3.11504306706504,2.10130697843505,0.286290418859121,0.23337433443934,0.271216314832916,0.479434593781618,5.53012649935291,2.61256262945677,4.0695690826428,1.14814768257427,0.195667089296393,0.927482257731397,1.58066428534037,1.63283582830328,0.630175587092944,4.82226664300794,13.1280491636988,2.66958184748971,20.8735286019824
"79",8,9,0.747572815533981,0.5,0.653846153846154,0.566666666666667,0.781718281718282,2.18474906624187,28.5741567790029,8.03529340316142,29.8977310024596,6.41405791774435,15.1207895442858,19.6034130173138,27.8710004720714,19.1299240596079,1.8926729361116,0.99393500224677,0.774205234585376,1.52109313169998,8.06041737317428,6.53861443002413,11.0165191475194,5.08170970111564,3.20263481763047,1.94934052352361,0.339228415148437,6.89346024568076,6.48575624764439,3.89733752957715,1.66894378144105,8.17654368098107,4.36228158974975,7.15898182974678,2.11762433125707,14.5712410591426,4.5303312488813,5.15647804764789,4.07294676172872,1.05386628208705,3.16939437713595,1.82524487050043,0.164832916337932,0.22298441013928,0.489065427260571,0.505236363966161,5.49808281431446,3.04640164332054,4.90121837360795,0.725366014566345,0.191070313213877,1.0292816177756,1.75084462976394,1.82367886994815,0.685035649087092,5.55686686657429,13.2109103759703,2.71228884513809,19.123461729318
"80",8,10,0.844660194174757,0.727272727272727,0.380952380952381,0.5,0.730545876887341,2.07135062706263,25.988936556214,8.26736639270405,30.8546532390263,6.05936102955173,15.2435687760234,17.9903670767366,29.3332131546355,22.5344484455311,2.3916523036575,0.830928065517221,0.624906360132655,1.73896837175506,8.61949111153649,7.20288828436621,11.5720943301326,5.60142634307958,4.10940811150762,2.1357768611176,0.228927545263699,7.17735165121637,6.06230123899327,3.75567038650514,1.99985863783691,8.04474635788785,4.38808524108607,6.71343684561488,2.30237365121607,13.2114086696267,4.70675285518438,5.62773676193278,4.3603601731439,0.880019388064119,2.98987785666789,2.13313958151381,0.214347213158355,0.281279540885885,0.472513593374936,0.546260210021224,6.1348398172537,2.56423135433489,4.6331808820617,1.05969785188088,0.183836186672689,0.714362665426031,1.96713593770918,1.61479850905419,0.652713817915026,5.12401578082536,12.1655524733227,3.32291050099,20.3634264155348
"81",9,1,0.757281553398058,0.472222222222222,0.739130434782609,0.576271186440678,0.776358695652174,1.93259421396935,27.3538143014283,7.64144814211193,29.1112452182878,6.32526795631036,14.1685282892463,19.0125967687488,31.3429934339962,20.0280991528335,2.25156087202756,0.860855245610477,0.810515653721659,1.63223763270583,7.9100052153678,6.34732065878863,13.087495042658,4.75213983287981,4.38909163820396,2.01756586202999,0.355060894249096,7.27272603463729,6.28726399306797,3.60597273321534,1.75332847637624,8.35901196641891,5.03544672572877,6.64658935881967,2.43403499014907,14.6423267991998,4.4905342504263,5.35003367295299,3.87959997897199,0.651226151942573,3.00367213806841,2.17233199873554,0.219290065022691,0.173464699251333,0.521057703405337,0.629696263635029,5.03032527226451,2.55689186145971,4.03362419877022,0.999048835822525,0.130978196354788,1.16264162392072,1.7527962837826,1.43773459248353,0.519279851448625,4.96258470811307,13.4015732859025,2.58289327888826,20.9517220351773
"82",9,2,0.776699029126214,0.5,0.608695652173913,0.549019607843137,0.740217391304348,1.95313160332376,26.8635195573971,7.61395441876252,28.9226264831369,6.10473565565021,12.5941558648999,18.4759828157032,27.8048920550493,21.8709685060808,2.09153141226506,1.12152229516079,0.372376589244635,1.64339631993107,9.67970473531148,6.28291060629101,12.9480258508446,5.93508880095661,4.30686374398304,1.55155147349984,0.29592258996294,6.49779092360435,6.38544548354662,4.05943753578882,1.8261732157769,8.42133472735012,4.75888509962807,7.90124471524639,2.21125798030142,14.2679624237817,4.33227535429752,5.23363093368654,4.48301611359981,0.975284392536632,3.01067817762875,2.27820449423265,0.179848856155284,0.195469449648525,0.404188182625572,0.530253648056203,5.68518728895378,2.92768976578918,4.08327751894034,1.27793703384372,0.110355172372654,1.06885330997125,1.64997458110824,1.78747748309388,0.672994349739617,4.98537898200144,12.4868547104546,3.04267453630327,20.0454240187738
"83",9,3,0.689320388349515,0.454545454545455,0.714285714285714,0.555555555555556,0.753333333333333,1.96568180947829,27.7934873081944,7.46031895409044,29.9397579210327,5.77595818456313,15.4237699078573,18.1365886612174,25.7529614397535,20.2744833781194,2.22696303607805,0.975441244313884,0.72385493636407,1.56215673221081,9.6532826649473,6.55304280645935,10.7752819759382,4.69932730851926,3.74327705084838,2.38311858099999,0.329823816677776,7.13759119959599,7.1890047498908,3.66813609340707,1.46668012100099,7.90083670559413,5.5517042349015,7.32190864748978,2.0570350610908,13.9643708924141,4.84807823042132,5.09917794063272,4.05451285559945,0.845305868717697,2.98575300546864,2.38512752831937,0.246036392749953,0.327702795130078,0.364510037997797,0.678835460246531,6.01654280137752,2.72910454871415,3.97947975602618,1.09769374378594,0.0453262241477019,1.12583394805713,2.19053989051068,1.89806867345592,0.566112998823495,4.93221120440371,11.1689975005147,2.73688427283908,19.8590150642317
"84",9,4,0.796116504854369,0.594594594594595,0.785714285714286,0.676923076923077,0.875714285714286,1.91030597941388,25.1192882318704,7.80613715539191,29.5845859427943,5.90411319055969,16.7019148093833,19.6776123551774,28.3603229676855,21.5721616577143,2.43942188494219,1.07695855029234,0.704115504781058,1.59795182770834,8.51145098375903,6.88342876433974,10.4962301050566,4.18413797022828,3.1774979524656,1.9819955426767,0.261180579887588,6.35230297070711,5.47489487766631,3.93799192898516,1.9144954912633,9.10705790702423,4.43751611627163,7.10003056703924,2.14588886614433,15.1322533526499,4.54352714970823,5.51283894007644,4.11086397603475,0.72591245657295,2.43925774081439,1.99317214809156,0.235057116642276,0.198253415216275,0.374149695982743,0.546783464629728,5.38966132627977,1.66740138177418,4.69890405643804,0.85189922016881,0.193057464716483,0.703430578842096,1.79376785178641,2.34440600848328,0.643862632641791,4.71119636656045,11.9867922135531,2.46098095061437,18.3706739894257
"85",9,5,0.815533980582524,0.590909090909091,0.565217391304348,0.577777777777778,0.795652173913044,2.2551592983622,27.0580669306793,7.59711116153255,29.3022508648243,6.23346636810951,14.5940961610004,19.6258739689952,29.7551870107265,20.4546969691218,2.31872698568031,0.958369390713068,0.597957070988094,1.69546177694382,8.7888714108812,6.514710540904,11.3159280657294,4.95135011889952,3.90397335274685,1.96686419447365,0.298361935515743,6.12399932657048,6.36138831424493,4.03388287723431,1.89056152966987,7.36981743225512,5.27094204259412,6.7317793256569,2.38490096839977,14.1444938053516,4.67986267510525,5.9401564016153,4.05629090745391,0.826764748665446,3.25185782007701,1.88820518390343,0.157038254762466,0.334539356508799,0.442212170895835,0.551377382113816,5.10013128044045,2.56621553066051,4.10336965932919,1.10296925372532,0.170106135720184,1.16477120495507,2.20590210174434,1.51004058991673,0.595669563365867,5.08099532313008,13.7519890637807,2.88036050323444,20.896044134513
"86",9,6,0.83495145631068,0.657894736842105,0.862068965517241,0.746268656716418,0.893522833178006,2.74029834780909,25.672767153094,8.00070361406196,29.5096069341743,6.50442252712059,14.2393637788263,19.2756924860186,27.4765782809686,20.881178846688,2.59964409331784,0.890510287698615,0.658565258162749,1.54637165318906,8.68920182794261,6.64595808703226,9.56599636892985,4.71417672656209,3.87665108848572,1.71011576834464,0.228653156876684,6.21247277333458,5.9811274221274,3.43015653620533,1.64283339225849,7.68335632509234,4.86781020771543,6.73521795399079,2.41759464571153,14.3676794827303,4.53817147300829,5.51140184964164,4.17313414758406,0.923602364850825,2.7867322335502,2.17785919691848,0.201031914644374,0.262770920417068,0.556229954588239,0.287456511043008,5.52003326000446,2.63064266499592,4.52969198974949,1.24892237109991,0.239604583644514,1.03970577040149,1.85432987077651,1.69473254936366,0.727202069683993,4.99204985772115,12.294797413352,3.5565829175336,20.9273613456338
"87",9,7,0.766990291262136,0.346153846153846,0.5625,0.428571428571429,0.803879310344828,2.29369882804868,27.4351157639389,8.20825389963152,31.6583471831452,6.59341751887144,14.6838916532278,20.12519575668,29.8176754872326,20.977804765491,2.18698462000898,1.10988315002563,0.612663567758317,1.77611710831461,8.45801692488766,6.94676180962797,12.2892037406902,5.01611579722372,3.85905016571888,2.16207025394318,0.317482141556891,6.51901501237355,5.96765229714867,3.48320435835207,1.56506560846319,8.52802013975615,4.54283100168679,6.40174439085108,2.30348747656314,13.3952693952239,4.3407276969985,5.86552737418015,4.3271046207556,0.836965140000158,2.92889112316785,2.30961560141076,0.224808634126557,0.27293906630476,0.573175817969373,0.345537301930043,5.4455308756651,2.58908496668891,4.82880255264707,1.39923069618207,0.215084505424297,1.14432101250671,1.84559446400085,2.21567371733906,0.717049041746542,5.4519403064117,13.5374609567237,3.20585283325164,19.7719435475719
"88",9,8,0.864077669902913,0.78125,0.78125,0.78125,0.878961267605634,2.45049200172259,25.0197257923824,7.57794300474941,28.738042464235,6.19007258686187,14.7077576704031,18.9381788744064,29.2466170626265,21.6588949868823,2.19856586192105,0.866606057172361,0.725992884887861,1.63629351214362,8.15418543179246,6.55473621583103,12.4608971596501,4.70461002211607,3.95737255140126,2.24011096525358,0.336271706576239,6.44792453097631,6.20529513290831,3.17432331168099,1.78040519917288,6.95599956624846,4.64750030989106,6.86456261057092,2.33291876530385,13.1722817076471,3.61422017951498,5.05319969927803,4.32128394006481,0.826405389477777,2.90989153278099,2.04310496322258,0.184655845756492,0.261666353881442,0.386146758319908,0.655044115161146,4.31267275974366,2.54212820974569,4.18800376646068,0.965737344594968,0.165543498031502,1.2582895402474,2.00192166993911,1.6976169562775,0.652298531097721,4.56299118956582,12.8432829699594,2.92449420200902,20.8411761667162
"89",9,9,0.796116504854369,0.80952380952381,0.5,0.618181818181818,0.790707587382779,2.15197523772874,27.1150363172246,7.45949705612546,29.60999914887,5.70404877549656,14.5281928680483,18.4833598514297,27.197644479278,20.5565822282737,2.42061685706506,0.764757086362804,0.781912185040211,1.34529874439314,8.10509120368524,7.29532835082488,12.5754056055903,4.5657191220914,3.97767875003615,2.07266568264887,0.292459480561694,6.28838390317238,5.77608360169266,3.29098013624477,1.90660658009663,7.43136404857069,5.21663364449756,6.97793443847794,2.43175556991477,12.7367237214758,4.75128562814292,4.98602280621953,3.78194423144668,0.72466684281018,2.77259000592498,1.83302604891033,0.214584301065252,0.230676407299395,0.426696667837003,0.878699776184216,5.38587339474036,2.36515577868284,4.076578039178,1.30042720936181,0.191245504125169,1.08503538040127,1.9223030455634,2.20640684932785,0.596656122108493,5.00974548755869,11.1889485676472,3.02064871615691,18.4368456893521
"90",9,10,0.844660194174757,0.666666666666667,0.476190476190476,0.555555555555556,0.825783972125436,2.21235352198602,27.4642505537279,8.00304144419034,31.9327336906776,5.53148166085664,14.8722589062013,19.8611372623911,27.6844271641023,22.5894506031302,2.3006159346599,1.04455616949556,0.625119340500116,1.38024845078032,8.69293014105505,6.71152495133344,11.5245500330573,5.45128711679101,4.23095005381466,2.30625064738718,0.279590240393407,7.18092937131046,6.68434164554399,3.43335493218183,1.55131461086029,8.26225353194598,4.80162623412082,6.67046986938413,2.31045377088239,14.8997754018112,4.39633019219982,5.22189121256536,3.69366644816772,0.730123323424811,2.82153414134061,1.97770684540394,0.117036345065943,0.255103018726647,0.523590028153264,0.401774172134095,4.96020614634103,2.35506626096224,5.01185043666813,1.36024917176385,0.15648467656888,0.353970675272186,1.6547093723108,1.66531145465717,0.630871192420393,4.5715256649334,11.7703487550822,3.25320907056226,20.4858831746106
"91",10,1,0.796116504854369,0.631578947368421,0.461538461538462,0.533333333333333,0.741258741258741,1.78252287184029,25.5894935034977,7.35633657671503,29.499476077709,6.29093591406223,14.6562472823516,20.9631753937814,30.4866077449319,22.5572571893221,2.09318064201811,1.11552464639982,0.564851755706884,1.49658210698032,8.22971455686175,6.80869409384924,11.3534285700303,5.69475720077623,3.20644809619712,2.25342574827197,0.260054332723402,6.75472457526869,7.48535548858305,3.37861098687856,1.55578166208766,8.31003060426104,4.46379078778259,6.69713185646862,2.1586604762019,12.6697452799024,3.52702210558951,5.06656775893903,3.92191816627854,0.785440917614849,3.1217696566686,2.03201505395071,0.203337675063645,0.265013862404196,0.235271330694838,0.445657296749546,5.45394866476575,2.22578269048772,5.29417024745683,0.8754357430208,0.141403896295176,0.881543865580764,1.70593256076082,1.63391532559509,0.664909185675215,4.40345371151263,12.2972673574345,3.14921709908777,20.5751505341051
"92",10,2,0.70873786407767,0.468085106382979,0.814814814814815,0.594594594594595,0.832115009746589,1.95642433549004,25.8096206563554,8.00989444680033,29.7959758303147,6.13690675706461,14.3402464417329,18.4719202028458,31.6155356054777,20.3777340078835,2.1058496084456,1.01424395473685,0.658967831616737,1.36290823481332,7.79148924236463,6.68372883109635,12.5257598636595,5.23338090078778,3.55699082432176,2.3072826631504,0.302290049693846,6.39812033636095,6.1430628883323,3.69708084517137,1.89666390071158,7.69298129932095,4.55400801662166,6.48315658562022,2.30005108417453,14.2465463073732,4.20272787552117,5.17759727066517,4.36175832067778,1.04909547322009,3.03959857356333,1.91530568811711,0.210421875257185,0.215490730686174,0.432698713641993,0.657680909085811,5.0115433301983,1.95559699353439,3.83499419503035,1.22936015072811,0.181735326820078,1.08026497029105,1.74378022145296,1.69102437630377,0.760803406866894,4.66220355396203,10.7845128690577,2.68281830870053,21.8522737943773
"93",10,3,0.786407766990291,0.590909090909091,0.5,0.541666666666667,0.713786213786214,1.94243857516688,27.8705153587993,8.05546420163153,30.8128347323952,5.92268393685339,15.127734232686,19.2132430782647,27.4728292435338,21.573223782861,2.12984200677119,1.12458302054692,0.216478141654453,1.49716573269961,8.41149967697509,6.48967962886522,11.4706196887631,4.9883036184646,3.70009906944304,1.87303847491079,0.326531499358684,7.31409471068366,6.28971900652287,3.48892252739838,1.63389251536554,7.3907773154694,5.51771756457301,7.00371474257651,1.90500794242178,14.3401866968204,4.55089253010418,4.66840452219493,3.68430671897318,0.819708480777985,2.80094392189817,2.40130433010027,0.162013919882023,0.199686234785785,0.44433799070747,0.337617029013761,5.69938005942812,2.31951243930885,4.9881597102629,1.06439836674657,0.152217191363762,0.737016905669847,1.64897943274793,1.61136971244037,0.674889169986035,4.67097084766496,13.0986076988256,2.97361701272427,20.96734691182
"94",10,4,0.70873786407767,0.509090909090909,0.903225806451613,0.651162790697674,0.827508960573477,1.86412692170913,25.9233144396469,7.89204791799712,30.5252044496924,5.84461291874111,16.1919794293217,18.8233211198765,25.6736986134227,19.6975895942096,2.3525041203786,0.753134407779741,0.713063166259434,1.47639658374825,8.20420787001956,6.82355713456774,12.2874955458713,4.6728491406616,3.97172696030447,1.64923032123171,0.320998594302813,6.59164832447655,5.97953026520441,3.66937238105233,1.75710800786499,7.74959164356585,4.61854364516632,7.06068904185184,2.37745586455264,13.7706286183106,4.70978957069057,5.25574577011834,3.94194300154054,0.966853097150829,3.23318898628897,1.91624073135925,0.28531252942929,0.320707761759884,0.584588869465197,0.573354927920676,4.85795223605311,2.5689571116693,4.58776606121774,0.962913530988679,0.174882077112999,1.27043836640682,1.95468936487255,1.6166728336711,0.606278337208219,4.97389867965111,12.7239484451527,2.91981115755793,19.4975578574517
"95",10,5,0.747572815533981,0.461538461538462,0.782608695652174,0.580645161290323,0.824728260869565,2.30359915085605,27.2179778949904,8.18210147071106,31.4159870997416,6.58345293076739,14.9389874476159,19.5852196399436,27.6377010860112,20.7293296499413,2.50519194316305,0.977151195687184,0.662775209271112,1.61028700287581,8.14188065708776,6.56575311951073,10.4813244786373,4.81087234851278,4.10029885104121,2.06236333477167,0.288598968548297,6.42829451608826,6.67913958622248,3.41785063442652,1.75469104386575,7.53428038192672,4.90611146934204,7.34284444060884,2.19609334751244,14.2147669150007,4.48017689275651,5.53849167903725,3.86238289761662,0.864982513528814,3.31561730228443,2.32197449016736,0.215841043773799,0.262485820589869,0.602662537359384,0.469503385559958,5.61056768944819,3.07091893474026,4.21580280560445,1.32097385639892,0.159625229362416,1.02779471686621,2.03769006432877,1.75110048939487,0.681842895603459,4.74549439048281,12.0947086223572,2.69791329603313,19.7836359220079
"96",10,6,0.766990291262136,0.515151515151515,0.68,0.586206896551724,0.815897435897436,2.67496308727718,24.2314947775123,7.59101192838121,29.8451125430874,5.4395016177954,15.57961667641,17.3429348290319,27.1780148840448,22.6218167754971,2.30860552727964,0.986079986696394,0.862334164129405,1.67373102143976,8.42488688730311,7.17886655532212,12.6442422932929,5.12135859689588,3.99472835758476,2.00315023571906,0.316789801395902,6.68872105246264,6.02097360618144,4.185353914304,1.93074120801275,8.19904195431116,4.87361970154161,7.51073775953669,2.27816898978255,14.2643642974846,4.59873262260365,5.4126107846045,4.00340621382501,0.819320469225321,2.88899594421519,1.99388891596604,0.162771274940912,0.240990093866787,0.393122015655873,0.697034638414243,5.91838896287323,2.35503703851789,4.3542132368339,1.57655017985476,0.0542508578763775,1.13275839082285,1.80743928464171,2.20583340760491,0.798011156165922,5.18781803819753,13.0014119865841,2.64889749277075,18.8009707852323
"97",10,7,0.825242718446602,0.6,0.545454545454545,0.571428571428571,0.831930415263749,2.65292829726236,26.7417996202638,7.86291164821407,29.544122744784,6.31167705794056,15.2717308938152,19.9907442468271,28.8868051723637,20.2954216601586,2.45484785999738,0.924541422867667,0.56587150333197,1.36773650698355,8.88946721195604,6.71872912755574,10.9319840878258,5.14052973919904,4.52010050594971,2.11391892386938,0.233267301251457,7.36928343229685,6.6186267622822,3.07918771943141,1.89314587234781,8.00258117395065,5.40333091872869,6.89992031890879,2.14316212635187,14.3604290132717,4.72106064346668,5.58615027247132,4.25299031353701,0.657496091704706,2.89276531565805,2.22514310034714,0.190928640512513,0.190614614234939,0.4475026287327,0.432797676521933,4.88638145407059,2.8307557030625,4.64282979379356,1.11499150299299,0.178569580899861,1.16722198492554,1.97680513080526,1.86352798441842,0.781897160866332,5.04000822726721,13.1547870036074,2.61669617816977,19.6083235581948
"98",10,8,0.796116504854369,0.5625,0.72,0.631578947368421,0.802051282051282,2.37378183607531,28.6419870420678,7.91452596145596,31.152936799038,6.17884683438127,14.1569889615606,19.142013028642,27.636339355375,20.5586853787887,2.13042738828127,0.893565602665785,0.638476914682917,1.78657288367261,8.47653141010678,6.72651337547507,10.8105739826314,5.28547263941443,4.13587033196151,2.13496590750229,0.353640231075575,6.59380112795657,5.80948302729546,4.01162141290629,1.78417905612842,7.57435700156553,4.10486833129297,7.06712941392502,2.3079728786768,14.0057022883782,4.69026126358729,5.57414690112858,4.61196418391316,0.709233547160276,2.84207803958378,2.12191685176838,0.168210527757256,0.302378541437225,0.470305395138464,0.533276453283667,5.34656979649104,2.12373989116318,4.02949638629878,1.26164839566851,0.173335794208512,0.690212477002336,2.03428650005961,1.69872127492491,0.673258047870357,5.15754348689401,12.5424328900957,3.23473833267342,19.674027397281
"99",10,9,0.83495145631068,0.7,0.56,0.622222222222222,0.811538461538461,2.4095148659145,25.718254761688,7.500538740839,30.447488348466,6.81630920142637,13.2802317746442,17.8290499976296,31.3589005438532,21.4665170177242,2.38205452245286,1.14126886161478,0.721615858002288,1.70251737935528,9.00943360219168,6.4309717435835,11.1266160237114,5.04966395254372,4.70496627101919,1.72037727460768,0.370101428402014,7.73629759813776,6.38837502670316,3.180542908056,1.44997571399305,7.71608216982822,4.8716593380986,7.21476045749575,2.36979646059594,13.8946966828065,4.5219228089988,5.12854704507191,4.24063450199455,0.895080829216408,2.51418672533456,2.06011819674986,0.149091399514173,0.144902949208751,0.519276555280244,0.496114371615819,4.98269899052252,2.74075936453062,4.03190528485389,1.76778195155405,0.172578194169345,0.65647762722303,1.90425695275952,2.03219318702695,0.647304586333867,5.68834401719067,12.7164779523553,3.18819935461278,20.5628912187457
"100",10,10,0.844660194174757,0.761904761904762,0.592592592592593,0.666666666666667,0.873050682261208,2.22095622918245,27.1575450714342,7.7681258860071,29.1388545941987,6.17349380651367,14.5488411675074,18.0649921498404,29.1811862589244,20.385082315361,2.53576362228031,0.94925273923474,0.735148147646198,1.53517977793399,8.77606255545708,6.85645449444908,12.7908307030928,5.08867875870995,4.19045230010556,2.14325113723453,0.371807161065824,7.34890262046933,5.59867750375355,3.8657379535788,1.73831205980353,8.53749476406893,4.67733189917334,6.49792874703829,2.22614578625095,15.3544769583296,4.72520263771902,5.51126757326527,3.72550150887261,0.869396294347224,2.72206726557967,1.81003398515425,0.196581595815627,0.172804835341818,0.571504915857168,0.225846581761882,4.67724701522,2.35877313792394,3.83805714907831,1.1027227202561,0.180685542684635,1.05449025130423,2.04266996588994,1.82273410712427,0.725063351118865,5.16508971813069,12.9291119242296,2.70176344632593,17.9359681480198
